\relax 
\citation{berk}
\citation{gauss}
\citation{Gulmez}
\newlabel{FirstPage}{{}{1}{}{}{}}
\@writefile{toc}{\contentsline {title}{Poisson Statistics}{1}{}}
\@writefile{toc}{\contentsline {section}{\numberline {I}Introduction}{1}{}}
\@writefile{toc}{\contentsline {subsection}{\numberline {A}History}{1}{}}
\@writefile{toc}{\contentsline {section}{\numberline {II}Theory}{1}{}}
\newlabel{eq:N}{{3}{1}{}{}{}}
\newlabel{eq:y}{{7}{1}{}{}{}}
\newlabel{eq:poiss}{{9}{1}{}{}{}}
\newlabel{eq:lambda}{{12}{1}{}{}{}}
\@writefile{toc}{\contentsline {section}{\numberline {III}Experiment}{2}{}}
\@writefile{toc}{\contentsline {subsection}{\numberline {A}Apparatus}{2}{}}
\@writefile{toc}{\contentsline {subsection}{\numberline {B}Procedure}{2}{}}
\@writefile{toc}{\contentsline {subsubsection}{\numberline {1}First Part}{2}{}}
\@writefile{toc}{\contentsline {subsubsection}{\numberline {2}Second Part}{2}{}}
\@writefile{toc}{\contentsline {section}{\numberline {IV}Data Analysis}{2}{}}
\@writefile{toc}{\contentsline {subsubsection}{\numberline {1}First Part}{2}{}}
\newlabel{fig:10s}{{IV\tmspace  +\thinmuskip {.1667em}\tmspace  +\thinmuskip {.1667em}1}{2}{}{}{}}
\@writefile{lot}{\contentsline {table}{\numberline {I}{\ignorespaces Calculations for gaussian fit applied to distribution of decays in 10s intervals. Chi square $\chi $, degree of freedom $\mu $, chi square per degree of freedom $\chi _\nu ^2$, mean $\mu $ with error $\sigma _\mu $, standart deviation $\sigma $ with error $\sigma _\sigma $ and constant $x$ with error $\sigma _x$ is given. }}{2}{}}
\newlabel{tab:10sg}{{I}{2}{}{}{}}
\@writefile{lot}{\contentsline {table}{\numberline {II}{\ignorespaces Calculations for poisson fit applied to distribution of decays in 10s intervals. Chi square $\chi $, degree of freedom $\mu $, chi square per degree of freedom $\chi _\nu ^2$, mean $\mu $ with error $\sigma _\mu $ and constant $n$ with error $\sigma _n$ is given. }}{3}{}}
\newlabel{tab:10ps}{{II}{3}{}{}{}}
\newlabel{fig:1s}{{IV\tmspace  +\thinmuskip {.1667em}\tmspace  +\thinmuskip {.1667em}1}{3}{}{}{}}
\@writefile{lot}{\contentsline {table}{\numberline {III}{\ignorespaces Calculations for gaussian fit applied to distribution of decays in 1s intervals. Chi square $\chi $, degree of freedom $\mu $, chi square per degree of freedom $\chi _\nu ^2$, mean $\mu $ with error $\sigma _\mu $, standart deviation $\sigma $ with error $\sigma _\sigma $ and constant $x$ with error $\sigma _x$ is given. }}{3}{}}
\newlabel{tab:1sg}{{III}{3}{}{}{}}
\@writefile{lot}{\contentsline {table}{\numberline {IV}{\ignorespaces Calculations for poisson fit applied to distribution of decays in 1s intervals. Chi square $\chi $, degree of freedom $\mu $, chi square per degree of freedom $\chi _\nu ^2$, mean $\mu $ with error $\sigma _\mu $ and constant $n$ with error $\sigma _n$ is given. }}{3}{}}
\newlabel{tab:1ps}{{IV}{3}{}{}{}}
\@writefile{toc}{\contentsline {section}{\numberline {V}Conclusion and Possible Error Sources}{3}{}}
\@writefile{toc}{\appendix }
\@writefile{toc}{\contentsline {section}{\numberline {A}Measurements}{3}{}}
\@writefile{toc}{\contentsline {section}{\numberline {B}Mathematical Concepts}{3}{}}
\@writefile{toc}{\contentsline {subsection}{\numberline {1}Chi-squared Test}{3}{}}
\@writefile{toc}{\contentsline {subsection}{\numberline {2}Least Squares Method}{3}{}}
\@writefile{toc}{\contentsline {subsection}{\numberline {3}Error Propagation}{3}{}}
\newlabel{eq:err}{{B8}{3}{}{}{}}
\@writefile{toc}{\contentsline {subsection}{\numberline {4}Total Uncertainty}{3}{}}
\newlabel{eq:unc}{{B9}{3}{}{}{}}
\citation{*}
\bibdata{reportNotes,report}
\bibcite{berk}{{1}{1967}{{Reif}}{{}}}
\bibcite{gauss}{{2}{}{{gau}}{{}}}
\bibcite{Gulmez}{{3}{2000}{{Gulmez}}{{}}}
\bibstyle{apsrev4-2}
\citation{REVTEX42Control}
\citation{apsrev42Control}
\@writefile{toc}{\contentsline {subsection}{\numberline {5}Weighted Mean and Standart Deviation}{4}{}}
\newlabel{eq:mean}{{B10}{4}{}{}{}}
\newlabel{eq:meanstd}{{B11}{4}{}{}{}}
\@writefile{toc}{\contentsline {section}{\numberline {}References}{4}{}}
\newlabel{LastBibItem}{{3}{4}{}{}{}}
\newlabel{LastPage}{{}{4}{}{}{}}
