# Fdb version 3
["bibtex apssamp"] 1583186192 "apssamp.aux" "apssamp.bbl" "apssamp" 1583461592
  "/usr/share/texmf-dist/bibtex/bst/revtex/apsrev4-2.bst" 1572570904 69612 d43c8740409d8c756864ce4e3d57a214 ""
  "apssamp.aux" 1583186192 8353 5bb416e8617b46d6118fdb85e438c343 "pdflatex"
  "apssamp.bib" 1545935623 13050 2ca1760567648a5bc4744e3a792261b9 ""
  "apssampNotes.bib" 1583186192 245 38c84e0bd1de4c8f2036faf1a79bf581 "pdflatex"
  (generated)
  "apssamp.bbl"
  "apssamp.blg"
["pdflatex"] 1583186192 "apssamp.tex" "apssamp.pdf" "apssamp" 1583461592
  "/usr/share/texmf-dist/fonts/map/fontname/texfonts.map" 1572595918 3332 103109f5612ad95229751940c61aada0 ""
  "/usr/share/texmf-dist/fonts/tfm/public/amsfonts/cmextra/cmbsy5.tfm" 1572595918 1120 1e8878807317373affa7f7bba4cf2f6a ""
  "/usr/share/texmf-dist/fonts/tfm/public/amsfonts/cmextra/cmbsy6.tfm" 1572595918 1124 14ccf5552bc7f77ca02a8a402bea8bfb ""
  "/usr/share/texmf-dist/fonts/tfm/public/amsfonts/cmextra/cmbsy7.tfm" 1572595918 1120 7f9f170e8aa57527ad6c49feafd45d54 ""
  "/usr/share/texmf-dist/fonts/tfm/public/amsfonts/cmextra/cmbsy8.tfm" 1572595918 1120 200be8b775682cdf80acad4be5ef57e4 ""
  "/usr/share/texmf-dist/fonts/tfm/public/amsfonts/cmextra/cmbsy9.tfm" 1572595918 1112 cbc11b646ccc26599775160605aaee3a ""
  "/usr/share/texmf-dist/fonts/tfm/public/amsfonts/cmextra/cmex7.tfm" 1572595918 1004 54797486969f23fa377b128694d548df ""
  "/usr/share/texmf-dist/fonts/tfm/public/amsfonts/cmextra/cmex8.tfm" 1572595918 988 bdf658c3bfc2d96d3c8b02cfc1c94c20 ""
  "/usr/share/texmf-dist/fonts/tfm/public/amsfonts/cmextra/cmex9.tfm" 1572595918 996 a18840b13b499c08ac2de96a99eda4bc ""
  "/usr/share/texmf-dist/fonts/tfm/public/amsfonts/cmextra/cmmib5.tfm" 1572595918 1496 c79f6914c6d39ffb3759967363d1be79 ""
  "/usr/share/texmf-dist/fonts/tfm/public/amsfonts/cmextra/cmmib6.tfm" 1572595918 1516 a3bf6a5e7ec4401b1f52092dfaaed242 ""
  "/usr/share/texmf-dist/fonts/tfm/public/amsfonts/cmextra/cmmib7.tfm" 1572595918 1508 6e807ff901c35a5f1fde0ca275533df8 ""
  "/usr/share/texmf-dist/fonts/tfm/public/amsfonts/cmextra/cmmib8.tfm" 1572595918 1528 dab402b9d3774ca98baa037071cee7ae ""
  "/usr/share/texmf-dist/fonts/tfm/public/amsfonts/cmextra/cmmib9.tfm" 1572595918 1528 159d57adcba064aab4277245c826577d ""
  "/usr/share/texmf-dist/fonts/tfm/public/amsfonts/euler/eufm10.tfm" 1572595918 1040 b84415f97d114011685943ade933dc71 ""
  "/usr/share/texmf-dist/fonts/tfm/public/amsfonts/euler/eufm5.tfm" 1572595918 1040 a9d2074f3fa062d4d9046b92e2334d8c ""
  "/usr/share/texmf-dist/fonts/tfm/public/amsfonts/euler/eufm7.tfm" 1572595918 1040 82eb6630b094bff824fccca83ff507f9 ""
  "/usr/share/texmf-dist/fonts/tfm/public/amsfonts/symbols/msam10.tfm" 1572595918 916 f87d7c45f9c908e672703b83b72241a3 ""
  "/usr/share/texmf-dist/fonts/tfm/public/amsfonts/symbols/msam5.tfm" 1572595918 924 9904cf1d39e9767e7a3622f2a125a565 ""
  "/usr/share/texmf-dist/fonts/tfm/public/amsfonts/symbols/msam7.tfm" 1572595918 928 2dc8d444221b7a635bb58038579b861a ""
  "/usr/share/texmf-dist/fonts/tfm/public/amsfonts/symbols/msbm10.tfm" 1572595918 908 2921f8a10601f252058503cc6570e581 ""
  "/usr/share/texmf-dist/fonts/tfm/public/amsfonts/symbols/msbm5.tfm" 1572595918 940 75ac932a52f80982a9f8ea75d03a34cf ""
  "/usr/share/texmf-dist/fonts/tfm/public/amsfonts/symbols/msbm7.tfm" 1572595918 940 228d6584342e91276bf566bcf9716b83 ""
  "/usr/share/texmf-dist/fonts/tfm/public/cm/cmbsy10.tfm" 1572595918 1116 4e6ba9d7914baa6482fd69f67d126380 ""
  "/usr/share/texmf-dist/fonts/tfm/public/cm/cmbx10.tfm" 1572595918 1328 c834bbb027764024c09d3d2bf908b5f0 ""
  "/usr/share/texmf-dist/fonts/tfm/public/cm/cmbx12.tfm" 1572595918 1324 c910af8c371558dc20f2d7822f66fe64 ""
  "/usr/share/texmf-dist/fonts/tfm/public/cm/cmbx5.tfm" 1572595918 1332 f817c21a1ba54560425663374f1b651a ""
  "/usr/share/texmf-dist/fonts/tfm/public/cm/cmbx6.tfm" 1572595918 1344 8a0be4fe4d376203000810ad4dc81558 ""
  "/usr/share/texmf-dist/fonts/tfm/public/cm/cmbx7.tfm" 1572595918 1336 3125ccb448c1a09074e3aa4a9832f130 ""
  "/usr/share/texmf-dist/fonts/tfm/public/cm/cmbx8.tfm" 1572595918 1332 1fde11373e221473104d6cc5993f046e ""
  "/usr/share/texmf-dist/fonts/tfm/public/cm/cmbx9.tfm" 1572595918 1328 5442e22a7072966dbaf88ca900acf3f0 ""
  "/usr/share/texmf-dist/fonts/tfm/public/cm/cmex10.tfm" 1572595918 992 662f679a0b3d2d53c1b94050fdaa3f50 ""
  "/usr/share/texmf-dist/fonts/tfm/public/cm/cmitt10.tfm" 1572595918 768 2297ad2ac26f37e67f756dad27c77d68 ""
  "/usr/share/texmf-dist/fonts/tfm/public/cm/cmmi12.tfm" 1572595918 1524 4414a8315f39513458b80dfc63bff03a ""
  "/usr/share/texmf-dist/fonts/tfm/public/cm/cmmi6.tfm" 1572595918 1512 f21f83efb36853c0b70002322c1ab3ad ""
  "/usr/share/texmf-dist/fonts/tfm/public/cm/cmmi8.tfm" 1572595918 1520 eccf95517727cb11801f4f1aee3a21b4 ""
  "/usr/share/texmf-dist/fonts/tfm/public/cm/cmmi9.tfm" 1572595918 1524 d89e2d087a9828407a196f428428ef4a ""
  "/usr/share/texmf-dist/fonts/tfm/public/cm/cmmib10.tfm" 1572595918 1524 554068197b70979a55370e6c6495f441 ""
  "/usr/share/texmf-dist/fonts/tfm/public/cm/cmr12.tfm" 1572595918 1288 655e228510b4c2a1abe905c368440826 ""
  "/usr/share/texmf-dist/fonts/tfm/public/cm/cmr6.tfm" 1572595918 1300 b62933e007d01cfd073f79b963c01526 ""
  "/usr/share/texmf-dist/fonts/tfm/public/cm/cmr8.tfm" 1572595918 1292 21c1c5bfeaebccffdb478fd231a0997d ""
  "/usr/share/texmf-dist/fonts/tfm/public/cm/cmr9.tfm" 1572595918 1292 6b21b9c2c7bebb38aa2273f7ca0fb3af ""
  "/usr/share/texmf-dist/fonts/tfm/public/cm/cmsy10.tfm" 1572595918 1124 6c73e740cf17375f03eec0ee63599741 ""
  "/usr/share/texmf-dist/fonts/tfm/public/cm/cmsy6.tfm" 1572595918 1116 933a60c408fc0a863a92debe84b2d294 ""
  "/usr/share/texmf-dist/fonts/tfm/public/cm/cmsy8.tfm" 1572595918 1120 8b7d695260f3cff42e636090a8002094 ""
  "/usr/share/texmf-dist/fonts/tfm/public/cm/cmsy9.tfm" 1572595918 1116 25a7bf822c58caf309a702ef79f4afbb ""
  "/usr/share/texmf-dist/fonts/tfm/public/cm/cmti10.tfm" 1572595918 1480 aa8e34af0eb6a2941b776984cf1dfdc4 ""
  "/usr/share/texmf-dist/fonts/tfm/public/cm/cmti9.tfm" 1572595918 1476 cccc6cc4935c18ec3d5623b77ecb8b74 ""
  "/usr/share/texmf-dist/fonts/tfm/public/cm/cmtt10.tfm" 1572595918 768 1321e9409b4137d6fb428ac9dc956269 ""
  "/usr/share/texmf-dist/fonts/tfm/public/cm/cmtt9.tfm" 1572595918 764 c98a2af25c99b73a368cf7336e255190 ""
  "/usr/share/texmf-dist/fonts/type1/public/amsfonts/cm/cmbx10.pfb" 1572595918 34811 78b52f49e893bcba91bd7581cdc144c0 ""
  "/usr/share/texmf-dist/fonts/type1/public/amsfonts/cm/cmbx12.pfb" 1572595918 32080 340ef9bf63678554ee606688e7b5339d ""
  "/usr/share/texmf-dist/fonts/type1/public/amsfonts/cm/cmbx9.pfb" 1572595918 32298 c6d25bb16d1eac01ebdc6d7084126a1e ""
  "/usr/share/texmf-dist/fonts/type1/public/amsfonts/cm/cmex10.pfb" 1572595918 30251 6afa5cb1d0204815a708a080681d4674 ""
  "/usr/share/texmf-dist/fonts/type1/public/amsfonts/cm/cmitt10.pfb" 1572595918 26057 fad158094905eaf20f4ae3782af0c45c ""
  "/usr/share/texmf-dist/fonts/type1/public/amsfonts/cm/cmmi10.pfb" 1572595918 36299 5f9df58c2139e7edcf37c8fca4bd384d ""
  "/usr/share/texmf-dist/fonts/type1/public/amsfonts/cm/cmmi6.pfb" 1572595918 37166 8ab3487cbe3ab49ebce74c29ea2418db ""
  "/usr/share/texmf-dist/fonts/type1/public/amsfonts/cm/cmmi7.pfb" 1572595918 36281 c355509802a035cadc5f15869451dcee ""
  "/usr/share/texmf-dist/fonts/type1/public/amsfonts/cm/cmmi8.pfb" 1572595918 35469 70d41d2b9ea31d5d813066df7c99281c ""
  "/usr/share/texmf-dist/fonts/type1/public/amsfonts/cm/cmmi9.pfb" 1572595918 36094 798f80770b3b148ceedd006d487db67c ""
  "/usr/share/texmf-dist/fonts/type1/public/amsfonts/cm/cmmib10.pfb" 1572595918 36912 b448ef9ad9d7228ec3c6e71005136d55 ""
  "/usr/share/texmf-dist/fonts/type1/public/amsfonts/cm/cmr10.pfb" 1572595918 35752 024fb6c41858982481f6968b5fc26508 ""
  "/usr/share/texmf-dist/fonts/type1/public/amsfonts/cm/cmr5.pfb" 1572595918 31809 8670ca339bf94e56da1fc21c80635e2a ""
  "/usr/share/texmf-dist/fonts/type1/public/amsfonts/cm/cmr6.pfb" 1572595918 32734 69e00a6b65cedb993666e42eedb3d48f ""
  "/usr/share/texmf-dist/fonts/type1/public/amsfonts/cm/cmr7.pfb" 1572595918 32762 224316ccc9ad3ca0423a14971cfa7fc1 ""
  "/usr/share/texmf-dist/fonts/type1/public/amsfonts/cm/cmr8.pfb" 1572595918 32726 0a1aea6fcd6468ee2cf64d891f5c43c8 ""
  "/usr/share/texmf-dist/fonts/type1/public/amsfonts/cm/cmr9.pfb" 1572595918 33993 9b89b85fd2d9df0482bd47194d1d3bf3 ""
  "/usr/share/texmf-dist/fonts/type1/public/amsfonts/cm/cmsy10.pfb" 1572595918 32569 5e5ddc8df908dea60932f3c484a54c0d ""
  "/usr/share/texmf-dist/fonts/type1/public/amsfonts/cm/cmsy6.pfb" 1572595918 32587 1788b0c1c5b39540c96f5e42ccd6dae8 ""
  "/usr/share/texmf-dist/fonts/type1/public/amsfonts/cm/cmsy7.pfb" 1572595918 32716 08e384dc442464e7285e891af9f45947 ""
  "/usr/share/texmf-dist/fonts/type1/public/amsfonts/cm/cmsy8.pfb" 1572595918 32626 4f5c1b83753b1dd3a97d1b399a005b4b ""
  "/usr/share/texmf-dist/fonts/type1/public/amsfonts/cm/cmsy9.pfb" 1572595918 32442 c975af247b6702f7ca0c299af3616b80 ""
  "/usr/share/texmf-dist/fonts/type1/public/amsfonts/cm/cmti10.pfb" 1572595918 37944 359e864bd06cde3b1cf57bb20757fb06 ""
  "/usr/share/texmf-dist/fonts/type1/public/amsfonts/cm/cmti9.pfb" 1572595918 36310 f5ddc6715cc60deb16d9db5ded6a9391 ""
  "/usr/share/texmf-dist/fonts/type1/public/amsfonts/cm/cmtt10.pfb" 1572595918 31099 c85edf1dd5b9e826d67c9c7293b6786c ""
  "/usr/share/texmf-dist/fonts/type1/public/amsfonts/cm/cmtt9.pfb" 1572595918 29078 718ea4567ceff944262b0f5b0800e1d9 ""
  "/usr/share/texmf-dist/fonts/type1/public/amsfonts/cmextra/cmbsy9.pfb" 1572595918 27817 24c2fd675d684d30218eed425386b567 ""
  "/usr/share/texmf-dist/fonts/type1/public/amsfonts/euler/eufm10.pfb" 1572595918 21098 d4aee7c0aac232caac5688b586b9363c ""
  "/usr/share/texmf-dist/fonts/type1/public/amsfonts/symbols/msam10.pfb" 1572595918 31764 459c573c03a4949a528c2cc7f557e217 ""
  "/usr/share/texmf-dist/fonts/type1/public/amsfonts/symbols/msbm10.pfb" 1572595918 34694 ad62b13721ee8eda1dcc8993c8bd7041 ""
  "/usr/share/texmf-dist/tex/context/base/mkii/supp-pdf.mkii" 1572595918 71627 94eb9990bed73c364d7f53f960cc8c5b ""
  "/usr/share/texmf-dist/tex/generic/oberdiek/etexcmds.sty" 1572595918 7612 729a8cc22a1ee0029997c7f74717ae05 ""
  "/usr/share/texmf-dist/tex/generic/oberdiek/ifluatex.sty" 1572595918 7324 2310d1247db0114eb4726807c8837a0e ""
  "/usr/share/texmf-dist/tex/generic/oberdiek/ifpdf.sty" 1572595918 1300 96620a7d94bc0ceb261d968770ce8315 ""
  "/usr/share/texmf-dist/tex/generic/oberdiek/infwarerr.sty" 1572595918 8253 473e0e41f9adadb1977e8631b8f72ea6 ""
  "/usr/share/texmf-dist/tex/generic/oberdiek/kvdefinekeys.sty" 1572595918 5152 b67a3a964ad9851e095110c854a1d461 ""
  "/usr/share/texmf-dist/tex/generic/oberdiek/kvsetkeys.sty" 1572595918 14040 ac8866aac45982ac84021584b0abb252 ""
  "/usr/share/texmf-dist/tex/generic/oberdiek/ltxcmds.sty" 1572595918 18425 5b3c0c59d76fac78978b5558e83c1f36 ""
  "/usr/share/texmf-dist/tex/generic/oberdiek/pdftexcmds.sty" 1572595918 20457 7f1b68cac266f44439ba63b922267486 ""
  "/usr/share/texmf-dist/tex/latex/amsfonts/amsfonts.sty" 1572595918 5949 3f3fd50a8cc94c3d4cbf4fc66cd3df1c ""
  "/usr/share/texmf-dist/tex/latex/amsfonts/amssymb.sty" 1572595918 13829 94730e64147574077f8ecfea9bb69af4 ""
  "/usr/share/texmf-dist/tex/latex/amsfonts/ueuf.fd" 1572595918 1047 4252767c0fde12e3ce9f914ef4bb1ea1 ""
  "/usr/share/texmf-dist/tex/latex/amsfonts/umsa.fd" 1572595918 961 6518c6525a34feb5e8250ffa91731cff ""
  "/usr/share/texmf-dist/tex/latex/amsfonts/umsb.fd" 1572595918 961 d02606146ba5601b5645f987c92e6193 ""
  "/usr/share/texmf-dist/tex/latex/amsmath/amsbsy.sty" 1572595918 2211 ca7ce284ab93c8eecdc6029dc5ccbd73 ""
  "/usr/share/texmf-dist/tex/latex/amsmath/amsgen.sty" 1572595918 4161 7f6eb9092061a11f87d08ed13515b48d ""
  "/usr/share/texmf-dist/tex/latex/amsmath/amsmath.sty" 1572595918 85514 eb45164c0234a1f8e9b74aa2f583bc21 ""
  "/usr/share/texmf-dist/tex/latex/amsmath/amsopn.sty" 1572595918 4116 32e6abd27229755a83a8b7f18e583890 ""
  "/usr/share/texmf-dist/tex/latex/amsmath/amstext.sty" 1572595918 2432 8ff93b1137020e8f21930562a874ae66 ""
  "/usr/share/texmf-dist/tex/latex/base/omscmr.fd" 1572595918 2470 eac9b55b50df56621bd69fa9b6495a74 ""
  "/usr/share/texmf-dist/tex/latex/graphics-cfg/graphics.cfg" 1572595918 1224 978390e9c2234eab29404bc21b268d1e ""
  "/usr/share/texmf-dist/tex/latex/graphics-def/pdftex.def" 1572595918 17334 520b9b85ad8a2a48eda3f643e27a5179 ""
  "/usr/share/texmf-dist/tex/latex/graphics/graphics.sty" 1572595918 16458 1bb0e1418e20f598314cbad8ab796f2f ""
  "/usr/share/texmf-dist/tex/latex/graphics/graphicx.sty" 1572595918 9057 e434b0c2dbde71054f2dde205cf3bde4 ""
  "/usr/share/texmf-dist/tex/latex/graphics/keyval.sty" 1572595918 2590 3aa06f747eb7e19c8d68947f1828fd06 ""
  "/usr/share/texmf-dist/tex/latex/graphics/trig.sty" 1572595918 3976 f6c84526d8a14dceb492f9a764e82175 ""
  "/usr/share/texmf-dist/tex/latex/latexconfig/epstopdf-sys.cfg" 1572595918 678 4792914a8f45be57bb98413425e4c7af ""
  "/usr/share/texmf-dist/tex/latex/natbib/natbib.sty" 1572595918 45456 1c8843383c0bd05870c45fa0ebea6cc2 ""
  "/usr/share/texmf-dist/tex/latex/oberdiek/epstopdf-base.sty" 1572595918 12095 5337833c991d80788a43d3ce26bd1c46 ""
  "/usr/share/texmf-dist/tex/latex/oberdiek/grfext.sty" 1572595918 7075 2fe3d848bba95f139de11ded085e74aa ""
  "/usr/share/texmf-dist/tex/latex/oberdiek/kvoptions.sty" 1572595918 22417 1d9df1eb66848aa31b18a593099cf45c ""
  "/usr/share/texmf-dist/tex/latex/revtex/aps10pt4-2.rtx" 1572570904 4585 2c26738a9d55d1e1125ad578ae3b2b8f ""
  "/usr/share/texmf-dist/tex/latex/revtex/aps4-2.rtx" 1572570904 16259 b5b93e312312adff1287c9c9887ddc57 ""
  "/usr/share/texmf-dist/tex/latex/revtex/revsymb4-2.sty" 1572570904 5433 fd7fccdc1ca7819d49e5bb1deb9d741b ""
  "/usr/share/texmf-dist/tex/latex/revtex/revtex4-2.cls" 1572570904 200719 c96794d0e4d320fe9ff0c7147d98a76b ""
  "/usr/share/texmf-dist/tex/latex/textcase/textcase.sty" 1572595918 2156 a092fd3ecd0a13fd597725ee6894b032 ""
  "/usr/share/texmf-dist/tex/latex/tools/array.sty" 1572595918 12560 4a5687b6718c08af61b1ad834ba27b87 ""
  "/usr/share/texmf-dist/tex/latex/tools/bm.sty" 1572595918 12671 adbf10c406b6bea2e2563bf450a7ef2c ""
  "/usr/share/texmf-dist/tex/latex/tools/dcolumn.sty" 1572595918 2759 0891d26d2da898acb25c00616d2b9a3f ""
  "/usr/share/texmf-dist/tex/latex/url/url.sty" 1572595918 12796 8edb7d69a20b857904dd0ea757c14ec9 ""
  "/usr/share/texmf-dist/web2c/texmf.cnf" 1572595918 33301 a3134070eacafb10b1f371612ce2650d ""
  "/var/lib/texmf/fonts/map/pdftex/updmap/pdftex.map" 1582574352 4572998 f9631eebba48c3ee98e5d310044b0a09 ""
  "/var/lib/texmf/web2c/pdftex/pdflatex.fmt" 1582574344 8044939 39a3e4e33f77394fcb15282d4c6454b1 ""
  "apssamp.aux" 1583186192 8353 5bb416e8617b46d6118fdb85e438c343 "pdflatex"
  "apssamp.bbl" 1583186192 25993 e153f1dfff262a9b429b1a11de7dcc81 "bibtex apssamp"
  "apssamp.tex" 1583461592 31473 085fbf013d3fe8cdd7fca55d54108cbf ""
  "fig_1.eps" 1545935623 193 d7cc2eceffd306ad00aa30b01f9e83f0 ""
  "fig_2.eps" 1545935623 196 a10b6e4c86ba6f17f833706a1b40e56a ""
  "vid_1a.eps" 1545935623 194 029a122576152b859b964653a186541c ""
  "vid_1b.eps" 1545935623 194 363d221d6f9c18bbcc46efd95af8199d ""
  (generated)
  "apssampNotes.bib"
  "apssamp.pdf"
  "apssamp.aux"
  "apssamp.log"
