%!PS-Adobe-2.0 EPSF-2.0
%%BoundingBox:  0 0 567 544
%%Title: /home/tan/phys442/photoelectriceffect/report/blue.eps: Stopping Potential vs. Current(Blue)
%%Creator: ROOT Version 6.18/04
%%CreationDate: Tue Mar  3 19:28:48 2020
%%DocumentNeededResources: ProcSet (FontSetInit)
%%EndComments
%%BeginProlog
80 dict begin
/s {stroke} def /l {lineto} def /m {moveto} def /t {translate} def
/r {rotate} def /rl {roll}  def /R {repeat} def
/d {rlineto} def /rm {rmoveto} def /gr {grestore} def /f {eofill} def
/c {setrgbcolor} def /black {0 setgray} def /sd {setdash} def
/cl {closepath} def /sf {scalefont setfont} def /lw {setlinewidth} def
/box {m dup 0 exch d exch 0 d 0 exch neg d cl} def
/NC{systemdict begin initclip end}def/C{NC box clip newpath}def
/bl {box s} def /bf {gsave box gsave f grestore 1 lw [] 0 sd s grestore} def /Y { 0 exch d} def /X { 0 d} def 
/K {{pop pop 0 moveto} exch kshow} bind def
/ita {/ang 15 def gsave [1 0 ang dup sin exch cos div 1 0 0] concat} def 
/mp {newpath /y exch def /x exch def} def
/side {[w .77 mul w .23 mul] .385 w mul sd w 0 l currentpoint t -144 r} def
/mr {mp x y w2 0 360 arc} def /m24 {mr s} def /m20 {mr f} def
/mb {mp x y w2 add m w2 neg 0 d 0 w neg d w 0 d 0 w d cl} def
/mt {mp x y w2 add m w2 neg w neg d w 0 d cl} def
/w4 {w 4 div} def
/w6 {w 6 div} def
/w8 {w 8 div} def
/m21 {mb f} def /m25 {mb s} def /m22 {mt f} def /m26{mt s} def
/m23 {mp x y w2 sub m w2 w d w neg 0 d cl f} def
/m27 {mp x y w2 add m w3 neg w2 neg d w3 w2 neg d w3 w2 d cl s} def
/m28 {mp x w2 sub y w2 sub w3 add m w3 0 d  0 w3 neg d w3 0 d 0 w3 d w3 0 d  0 w3 d w3 neg 0 d 0 w3 d w3 neg 0 d 0 w3 neg d w3 neg 0 d cl s } def
/m29 {mp gsave x w2 sub y w2 add w3 sub m currentpoint t 4 {side} repeat cl fill gr} def
/m30 {mp gsave x w2 sub y w2 add w3 sub m currentpoint t 4 {side} repeat cl s gr} def
/m31 {mp x y w2 sub m 0 w d x w2 sub y m w 0 d x w2 sub y w2 add m w w neg d x w2 sub y w2 sub m w w d s} def
/m32 {mp x y w2 sub m w2 w d w neg 0 d cl s} def
/m33 {mp x y w2 add m w3 neg w2 neg d w3 w2 neg d w3 w2 d cl f} def
/m34 {mp x w2 sub y w2 sub w3 add m w3 0 d  0 w3 neg d w3 0 d 0 w3 d w3 0 d  0 w3 d w3 neg 0 d 0 w3 d w3 neg 0 d 0 w3 neg d w3 neg 0 d cl f } def
/m35 {mp x y w2 add m w2 neg w2 neg d w2 w2 neg d w2 w2 d w2 neg w2 d x y w2 sub m 0 w d x w2 sub y m w 0 d s} def
/m36 {mb x w2 sub y w2 add m w w neg d x w2 sub y w2 sub m w w d s} def
/m37 {mp x y m w4 neg w2 d w4 neg w2 neg d w2 0 d  w4 neg w2 neg d w2 0 d w4 neg w2 d w2 0 d w4 neg w2 d w4 neg w2 neg d cl s} def
/m38 {mp x w4 sub y w2 add m w4 neg w4 neg d 0 w2 neg d w4 w4 neg d w2 0 d w4 w4 d 0 w2 d w4 neg w4 d w2 neg 0 d x y w2 sub m 0 w d x w2 sub y m w 0 d cl s} def
/m39 {mp x y m w4 neg w2 d w4 neg w2 neg d w2 0 d  w4 neg w2 neg d w2 0 d w4 neg w2 d w2 0 d w4 neg w2 d w4 neg w2 neg d cl f} def
/m40 {mp x y m w4 w2 d w4 w4 neg d w2 neg w4 neg d w2 w4 neg d w4 neg w4 neg d w4 neg w2 d w4 neg w2 neg d w4 neg w4 d w2 w4 d w2 neg w4 d w4 w4 d w4 w2 neg d cl s} def
/m41 {mp x y m w4 w2 d w4 w4 neg d w2 neg w4 neg d w2 w4 neg d w4 neg w4 neg d w4 neg w2 d w4 neg w2 neg d w4 neg w4 d w2 w4 d w2 neg w4 d w4 w4 d w4 w2 neg d cl f} def
/m42 {mp x y w2 add m w8 neg w2 -3 4 div mul d w2 -3 4 div mul w8 neg d w2 3 4 div mul w8 neg d w8 w2 -3 4 div mul d w8 w2 3 4 div mul d w2 3 4 div mul w8 d w2 -3 4 div mul w8 d w8 neg w2 3 4 div mul d cl s} def
/m43 {mp x y w2 add m w8 neg w2 -3 4 div mul d w2 -3 4 div mul w8 neg d w2 3 4 div mul w8 neg d w8 w2 -3 4 div mul d w8 w2 3 4 div mul d w2 3 4 div mul w8 d w2 -3 4 div mul w8 d w8 neg w2 3 4 div mul d cl f} def
/m44 {mp x y m w6 neg w2 d w2 2 3 div mul 0 d w6 neg w2 neg d w2 w6 d 0 w2 -2 3 div mul d w2 neg w6 d w6 w2 neg d w2 -2 3 div mul 0 d w6 w2 d w2 neg w6 neg d 0 w2 2 3 div mul d w2 w6 neg d cl s} def
/m45 {mp x y m w6 neg w2 d w2 2 3 div mul 0 d w6 neg w2 neg d w2 w6 d 0 w2 -2 3 div mul d w2 neg w6 d w6 w2 neg d w2 -2 3 div mul 0 d w6 w2 d w2 neg w6 neg d 0 w2 2 3 div mul d w2 w6 neg d cl f} def
/m46 {mp x y w4 add m w4 neg w4 d w4 neg w4 neg d  w4 w4 neg d w4 neg w4 neg d w4 w4 neg d w4 w4 d w4 w4 neg d w4 w4 d w4 neg w4 d w4 w4 d w4 neg w4 d w4 neg w4 neg d cl s} def
/m47 {mp x y w4 add m w4 neg w4 d w4 neg w4 neg d w4 w4 neg d w4 neg w4 neg d  w4 w4 neg d w4 w4 d w4 w4 neg d w4 w4 d w4 neg w4 d w4 w4 d w4 neg w4 d w4 neg w4 neg d cl f} def
/m48 {mp x y w4 add m w4 neg w4 d w4 neg w4 neg d w4 w4 neg d  w4 neg w4 neg d w4 w4 neg d w4 w4 d w4 w4 neg d w4 w4 d w4 neg w4 d w4 w4 d w4 neg w4 d w4 neg w4 neg d  w4 w4 neg d w4 neg w4 neg d w4 neg w4 d w4 w4 d cl f} def
/m49 {mp x w2 sub w3 add y w2 sub w3 add m  0 w3 neg d w3 0 d 0 w3 d w3 0 d 0 w3 d w3 neg 0 d 0 w3 d w3 neg 0 d 0 w3 neg d w3 neg 0 d 0 w3 neg d w3 0 d 0 w3 d w3 0 d 0 w3 neg d w3 neg 0 d cl f } def
/m2 {mp x y w2 sub m 0 w d x w2 sub y m w 0 d s} def
/m5 {mp x w2 sub y w2 sub m w w d x w2 sub y w2 add m w w neg d s} def
%%IncludeResource: ProcSet (FontSetInit)
%%IncludeResource: font Times-Roman
%%IncludeResource: font Times-Italic
%%IncludeResource: font Times-Bold
%%IncludeResource: font Times-BoldItalic
%%IncludeResource: font Helvetica
%%IncludeResource: font Helvetica-Oblique
%%IncludeResource: font Helvetica-Bold
%%IncludeResource: font Helvetica-BoldOblique
%%IncludeResource: font Courier
%%IncludeResource: font Courier-Oblique
%%IncludeResource: font Courier-Bold
%%IncludeResource: font Courier-BoldOblique
%%IncludeResource: font Symbol
%%IncludeResource: font ZapfDingbats
/reEncode {exch findfont dup length dict begin {1 index /FID eq  {pop pop} {def} ifelse } forall /Encoding exch def currentdict end dup /FontName get exch definefont pop } def [/Times-Bold /Times-Italic /Times-BoldItalic /Helvetica /Helvetica-Oblique
 /Helvetica-Bold /Helvetica-BoldOblique /Courier /Courier-Oblique /Courier-Bold /Courier-BoldOblique /Times-Roman /AvantGarde-Book /AvantGarde-BookOblique /AvantGarde-Demi /AvantGarde-DemiOblique /Bookman-Demi /Bookman-DemiItalic /Bookman-Light
 /Bookman-LightItalic /Helvetica-Narrow /Helvetica-Narrow-Bold /Helvetica-Narrow-BoldOblique /Helvetica-Narrow-Oblique /NewCenturySchlbk-Roman /NewCenturySchlbk-Bold /NewCenturySchlbk-BoldItalic /NewCenturySchlbk-Italic /Palatino-Bold
 /Palatino-BoldItalic /Palatino-Italic /Palatino-Roman ] {ISOLatin1Encoding reEncode } forall
%%EndProlog
%%BeginSetup
%%EndSetup
newpath  gsave  .25 .25 scale  gsave  0 0 t black[  ] 0 sd 3 lw 1 1 1 c 2268 2177 0 0 bf black 1 1 1 c 1814 1741 227 218 bf black 1814 1741 227 218 bl 1 1 1 c 1814 1741 227 218 bf black 1814 1741 227 218 bl 227 218 m 1814 X s 380 270 m -52 Y s 440
 244 m -26 Y s 500 244 m -26 Y s 560 244 m -26 Y s 620 244 m -26 Y s 681 270 m -52 Y s 741 244 m -26 Y s 801 244 m -26 Y s 861 244 m -26 Y s 921 244 m -26 Y s 981 270 m -52 Y s 1042 244 m -26 Y s 1102 244 m -26 Y s 1162 244 m -26 Y s 1222 244 m -26 Y
 s 1282 270 m -52 Y s 1342 244 m -26 Y s 1402 244 m -26 Y s 1463 244 m -26 Y s 1523 244 m -26 Y s 1583 270 m -52 Y s 1643 244 m -26 Y s 1703 244 m -26 Y s 1763 244 m -26 Y s 1824 244 m -26 Y s 1884 270 m -52 Y s 380 270 m -52 Y s 320 244 m -26 Y s
 259 244 m -26 Y s 1884 270 m -52 Y s 1944 244 m -26 Y s 2004 244 m -26 Y s
 gsave  2268 2177 0 0 C 360.256 147.895 t 0 r /Helvetica findfont 72.0512 sf 0 0 m (0) show NC gr 
 gsave  2268 2177 0 0 C 629.5 147.895 t 0 r /Helvetica findfont 72.0512 sf 0 0 m (0.5) show NC gr 
 gsave  2268 2177 0 0 C 963.211 147.895 t 0 r /Helvetica findfont 72.0512 sf 0 0 m (1) show NC gr 
 gsave  2268 2177 0 0 C 1232.45 147.895 t 0 r /Helvetica findfont 72.0512 sf 0 0 m (1.5) show NC gr 
 gsave  2268 2177 0 0 C 1562.37 147.895 t 0 r /Helvetica findfont 72.0512 sf 0 0 m (2) show NC gr 
 gsave  2268 2177 0 0 C 1831.62 147.895 t 0 r /Helvetica findfont 72.0512 sf 0 0 m (2.5) show NC gr 
 gsave  2268 2177 0 0 C 1691.31 79.6355 t 0 r /Helvetica findfont 72.0512 sf 0 0 m (Voltage [V]) show NC gr  227 218 m 1741 Y s 281 468 m -54 X s 254 519 m -27 X s 254 570 m -27 X s 254 621 m -27 X s 254 672 m -27 X s 281 723 m -54 X s 254 774 m -27
 X s 254 825 m -27 X s 254 876 m -27 X s 254 927 m -27 X s 281 978 m -54 X s 254 1030 m -27 X s 254 1081 m -27 X s 254 1132 m -27 X s 254 1183 m -27 X s 281 1234 m -54 X s 254 1285 m -27 X s 254 1336 m -27 X s 254 1387 m -27 X s 254 1438 m -27 X s
 281 1489 m -54 X s 254 1541 m -27 X s 254 1592 m -27 X s 254 1643 m -27 X s 254 1694 m -27 X s 281 1745 m -54 X s 281 468 m -54 X s 254 416 m -27 X s 254 365 m -27 X s 254 314 m -27 X s 254 263 m -27 X s 281 1745 m -54 X s 254 1796 m -27 X s 254
 1847 m -27 X s 254 1898 m -27 X s 254 1949 m -27 X s
 gsave  2268 2177 0 0 C 174.44 439.892 t 0 r /Helvetica findfont 72.0512 sf 0 0 m (2) show NC gr 
 gsave  2268 2177 0 0 C 132.726 439.892 t 0 r /Symbol findfont 72.0512 sf 0 0 m (-) show NC gr 
 gsave  2268 2177 0 0 C 185.816 693.967 t 0 r /Helvetica findfont 72.0512 sf 0 0 m (1) show NC gr 
 gsave  2268 2177 0 0 C 144.102 693.967 t 0 r /Symbol findfont 72.0512 sf 0 0 m (-) show NC gr 
 gsave  2268 2177 0 0 C 174.44 955.626 t 0 r /Helvetica findfont 72.0512 sf 0 0 m (0) show NC gr 
 gsave  2268 2177 0 0 C 185.816 1205.91 t 0 r /Helvetica findfont 72.0512 sf 0 0 m (1) show NC gr 
 gsave  2268 2177 0 0 C 174.44 1459.98 t 0 r /Helvetica findfont 72.0512 sf 0 0 m (2) show NC gr 
 gsave  2268 2177 0 0 C 174.44 1721.64 t 0 r /Helvetica findfont 72.0512 sf 0 0 m (3) show NC gr 
 gsave  2268 2177 0 0 C 87.2199 1554.79 t 90 r /Helvetica findfont 72.0512 sf 0 0 m (Current [mA]) show NC gr  1 0 0 c 1 1 1 c black /w 2 def /w2 {w 2 div} def /w3 {w 3 div} def 380 1773 440 1773 853 1786 889 1778 895 1765 900 1633 905 1594 912 1528
 919 1464 927 1359 933 1298 942 1254 951 1191 974 1060 982 1022 995 966 1001 935 1007 910 1014 889 1026 843 1043 792 1108 641 1162 570 1225 511 1285 475 1346 462 1396 452 1537 442 1650 442 1703 429 1774 419 1881 388 32 { m20} R 1 0 0 c 380 1773 m -2
 X s 378 1765 m 16 Y s 380 1773 m 2 X s 382 1765 m 16 Y s 380 1773 m 28 Y s 372 1801 m 15 X s 380 1773 m -28 Y s 372 1745 m 15 X s 440 1773 m -2 X s 438 1765 m 16 Y s 440 1773 m 2 X s 442 1765 m 16 Y s 440 1773 m 28 Y s 432 1801 m 16 X s 440 1773 m
 -28 Y s 432 1745 m 16 X s 853 1786 m -5 X s 848 1778 m 15 Y s 853 1786 m 4 X s 857 1778 m 15 Y s 853 1786 m 28 Y s 845 1814 m 15 X s 853 1786 m -28 Y s 845 1758 m 15 X s 889 1778 m -4 X s 885 1771 m 15 Y s 889 1778 m 5 X s 894 1771 m 15 Y s 889 1778
 m 28 Y s 882 1806 m 15 X s 889 1778 m -28 Y s 882 1750 m 15 X s 895 1765 m -4 X s 891 1758 m 15 Y s 895 1765 m 5 X s 900 1758 m 15 Y s 895 1765 m 28 Y s 888 1793 m 15 X s 895 1765 m -28 Y s 888 1737 m 15 X s 900 1633 m -5 X s 895 1625 m 15 Y s 900
 1633 m 4 X s 904 1625 m 15 Y s 900 1633 m 25 Y s 892 1658 m 15 X s 900 1633 m -26 Y s 892 1607 m 15 X s 905 1594 m -4 X s 901 1587 m 15 Y s 905 1594 m 4 X s 909 1587 m 15 Y s 905 1594 m 26 Y s 897 1620 m 16 X s 905 1594 m -25 Y s 897 1569 m 16 X s
 912 1528 m -5 X s 907 1520 m 15 Y s 912 1528 m 4 X s 916 1520 m 15 Y s 912 1528 m 23 Y s 904 1551 m 15 X s 912 1528 m -23 Y s 904 1505 m 15 X s 919 1464 m -4 X s 915 1456 m 15 Y s 919 1464 m 4 X s 923 1456 m 15 Y s 919 1464 m 23 Y s 911 1487 m 15 X
 s 919 1464 m -23 Y s 911 1441 m 15 X s 927 1359 m -4 X s 923 1352 m 15 Y s 927 1359 m 4 X s 931 1352 m 15 Y s 927 1359 m 21 Y s 920 1380 m 15 X s 927 1359 m -20 Y s 920 1339 m 15 X s 933 1298 m -5 X s 928 1290 m 15 Y s 933 1298 m 5 X s 938 1290 m 15
 Y s 933 1298 m 18 Y s 926 1316 m 15 X s 933 1298 m -18 Y s 926 1280 m 15 X s 942 1254 m -5 X s 937 1247 m 15 Y s 942 1254 m 4 X s 946 1247 m 15 Y s 942 1254 m 18 Y s 934 1272 m 15 X s 942 1254 m -17 Y s 934 1237 m 15 X s 951 1191 m -5 X s 946 1183 m
 15 Y s 951 1191 m 5 X s 956 1183 m 15 Y s 951 1191 m 17 Y s 944 1208 m 15 X s 951 1191 m -18 Y s 944 1173 m 15 X s 974 1060 m -5 X s 969 1053 m 15 Y s 974 1060 m 5 X s 979 1053 m 15 Y s 974 1060 m 16 Y s 967 1076 m 15 X s 974 1060 m -15 Y s 967 1045
 m 15 X s 982 1022 m -5 X s 977 1014 m 16 Y s 982 1022 m 5 X s 987 1014 m 16 Y s 982 1022 m 13 Y s 974 1035 m 16 X s 982 1022 m -13 Y s 974 1009 m 16 X s 995 966 m -5 X s 990 958 m 15 Y s 995 966 m 4 X s 999 958 m 15 Y s 995 966 m 12 Y s 987 978 m 15
 X s 995 966 m -13 Y s 987 953 m 15 X s 1001 935 m -5 X s 996 927 m 16 Y s 1001 935 m 5 X s 1006 927 m 16 Y s 1001 935 m 13 Y s 994 948 m 15 X s 1001 935 m -13 Y s 994 922 m 15 X s 1007 910 m -5 X s 1002 902 m 15 Y s 1007 910 m 5 X s 1012 902 m 15 Y
 s 1007 910 m 12 Y s 1000 922 m 15 X s 1007 910 m -13 Y s 1000 897 m 15 X s 1014 889 m -5 X s 1009 881 m 16 Y s 1014 889 m 5 X s 1019 881 m 16 Y s 1014 889 m 15 Y s 1006 904 m 15 X s 1014 889 m -15 Y s 1006 874 m 15 X s 1026 843 m -4 X s 1022 836 m
 15 Y s 1026 843 m 5 X s 1031 836 m 15 Y s 1026 843 m 15 Y s 1019 858 m 15 X s 1026 843 m -15 Y s 1019 828 m 15 X s 1043 792 m -6 X s 1037 784 m 16 Y s 1043 792 m 5 X s 1048 784 m 16 Y s 1043 792 m 15 Y s 1035 807 m 15 X s 1043 792 m -15 Y s 1035 777
 m 15 X s 1108 641 m -6 X s 1102 634 m 15 Y s 1108 641 m 5 X s 1113 634 m 15 Y s 1108 641 m 21 Y s 1100 662 m 15 X s 1108 641 m -20 Y s 1100 621 m 15 X s 1162 570 m -5 X s 1157 562 m 15 Y s 1162 570 m 6 X s 1168 562 m 15 Y s 1162 570 m 20 Y s 1155
 590 m 15 X s 1162 570 m -21 Y s 1155 549 m 15 X s 1225 511 m -6 X s 1219 503 m 16 Y s 1225 511 m 6 X s 1231 503 m 16 Y s 1225 511 m 23 Y s 1217 534 m 16 X s 1225 511 m -23 Y s 1217 488 m 16 X s 1285 475 m -7 X s 1278 468 m 15 Y s 1285 475 m 6 X s
 1291 468 m 15 Y s 1285 475 m 23 Y s 1277 498 m 15 X s 1285 475 m -23 Y s 1277 452 m 15 X s 1346 462 m -7 X s 1339 455 m 15 Y s 1346 462 m 7 X s 1353 455 m 15 Y s 1346 462 m 23 Y s 1338 485 m 16 X s 1346 462 m -23 Y s 1338 439 m 16 X s 1396 452 m -6
 X s 1390 445 m 15 Y s 1396 452 m 7 X s 1403 445 m 15 Y s 1396 452 m 23 Y s 1389 475 m 15 X s 1396 452 m -23 Y s 1389 429 m 15 X s 1537 442 m -8 X s 1529 434 m 16 Y s 1537 442 m 7 X s 1544 434 m 16 Y s 1537 442 m 23 Y s 1529 465 m 15 X s 1537 442 m
 -23 Y s 1529 419 m 15 X s 1650 442 m -8 X s 1642 434 m 16 Y s 1650 442 m 8 X s 1658 434 m 16 Y s 1650 442 m 23 Y s 1642 465 m 15 X s 1650 442 m -23 Y s 1642 419 m 15 X s 1703 429 m -9 X s 1694 422 m 15 Y s 1703 429 m 8 X s 1711 422 m 15 Y s 1703 429
 m 23 Y s 1695 452 m 15 X s 1703 429 m -23 Y s 1695 406 m 15 X s 1774 419 m -9 X s 1765 411 m 16 Y s 1774 419 m 9 X s 1783 411 m 16 Y s 1774 419 m 23 Y s 1766 442 m 15 X s 1774 419 m -23 Y s 1766 396 m 15 X s 1881 388 m -9 X s 1872 381 m 15 Y s 1881
 388 m 9 X s 1890 381 m 15 Y s 1881 388 m 26 Y s 1873 414 m 15 X s 1881 388 m -25 Y s 1873 363 m 15 X s 0 0 1 c 560 558 m 1384 -163 d s 0 1 0 c 885 1833 m 126 -1430 d s 1 1 1 c black
 gsave  2268 2177 0 0 C 409.554 2074.32 t 0 r /Helvetica findfont 91.012 sf 0 0 m (Stopping Potential vs. Current\(Blue\)) show NC gr 
 gr  gr showpage
end
%%EOF
