%!PS-Adobe-2.0 EPSF-2.0
%%BoundingBox:  0 0 567 544
%%Title: /home/tan/phys442/photoelectriceffect/report/cyan.eps: Stopping Potential vs. Current(Cyan)
%%Creator: ROOT Version 6.18/04
%%CreationDate: Tue Mar  3 19:21:43 2020
%%DocumentNeededResources: ProcSet (FontSetInit)
%%EndComments
%%BeginProlog
80 dict begin
/s {stroke} def /l {lineto} def /m {moveto} def /t {translate} def
/r {rotate} def /rl {roll}  def /R {repeat} def
/d {rlineto} def /rm {rmoveto} def /gr {grestore} def /f {eofill} def
/c {setrgbcolor} def /black {0 setgray} def /sd {setdash} def
/cl {closepath} def /sf {scalefont setfont} def /lw {setlinewidth} def
/box {m dup 0 exch d exch 0 d 0 exch neg d cl} def
/NC{systemdict begin initclip end}def/C{NC box clip newpath}def
/bl {box s} def /bf {gsave box gsave f grestore 1 lw [] 0 sd s grestore} def /Y { 0 exch d} def /X { 0 d} def 
/K {{pop pop 0 moveto} exch kshow} bind def
/ita {/ang 15 def gsave [1 0 ang dup sin exch cos div 1 0 0] concat} def 
/mp {newpath /y exch def /x exch def} def
/side {[w .77 mul w .23 mul] .385 w mul sd w 0 l currentpoint t -144 r} def
/mr {mp x y w2 0 360 arc} def /m24 {mr s} def /m20 {mr f} def
/mb {mp x y w2 add m w2 neg 0 d 0 w neg d w 0 d 0 w d cl} def
/mt {mp x y w2 add m w2 neg w neg d w 0 d cl} def
/w4 {w 4 div} def
/w6 {w 6 div} def
/w8 {w 8 div} def
/m21 {mb f} def /m25 {mb s} def /m22 {mt f} def /m26{mt s} def
/m23 {mp x y w2 sub m w2 w d w neg 0 d cl f} def
/m27 {mp x y w2 add m w3 neg w2 neg d w3 w2 neg d w3 w2 d cl s} def
/m28 {mp x w2 sub y w2 sub w3 add m w3 0 d  0 w3 neg d w3 0 d 0 w3 d w3 0 d  0 w3 d w3 neg 0 d 0 w3 d w3 neg 0 d 0 w3 neg d w3 neg 0 d cl s } def
/m29 {mp gsave x w2 sub y w2 add w3 sub m currentpoint t 4 {side} repeat cl fill gr} def
/m30 {mp gsave x w2 sub y w2 add w3 sub m currentpoint t 4 {side} repeat cl s gr} def
/m31 {mp x y w2 sub m 0 w d x w2 sub y m w 0 d x w2 sub y w2 add m w w neg d x w2 sub y w2 sub m w w d s} def
/m32 {mp x y w2 sub m w2 w d w neg 0 d cl s} def
/m33 {mp x y w2 add m w3 neg w2 neg d w3 w2 neg d w3 w2 d cl f} def
/m34 {mp x w2 sub y w2 sub w3 add m w3 0 d  0 w3 neg d w3 0 d 0 w3 d w3 0 d  0 w3 d w3 neg 0 d 0 w3 d w3 neg 0 d 0 w3 neg d w3 neg 0 d cl f } def
/m35 {mp x y w2 add m w2 neg w2 neg d w2 w2 neg d w2 w2 d w2 neg w2 d x y w2 sub m 0 w d x w2 sub y m w 0 d s} def
/m36 {mb x w2 sub y w2 add m w w neg d x w2 sub y w2 sub m w w d s} def
/m37 {mp x y m w4 neg w2 d w4 neg w2 neg d w2 0 d  w4 neg w2 neg d w2 0 d w4 neg w2 d w2 0 d w4 neg w2 d w4 neg w2 neg d cl s} def
/m38 {mp x w4 sub y w2 add m w4 neg w4 neg d 0 w2 neg d w4 w4 neg d w2 0 d w4 w4 d 0 w2 d w4 neg w4 d w2 neg 0 d x y w2 sub m 0 w d x w2 sub y m w 0 d cl s} def
/m39 {mp x y m w4 neg w2 d w4 neg w2 neg d w2 0 d  w4 neg w2 neg d w2 0 d w4 neg w2 d w2 0 d w4 neg w2 d w4 neg w2 neg d cl f} def
/m40 {mp x y m w4 w2 d w4 w4 neg d w2 neg w4 neg d w2 w4 neg d w4 neg w4 neg d w4 neg w2 d w4 neg w2 neg d w4 neg w4 d w2 w4 d w2 neg w4 d w4 w4 d w4 w2 neg d cl s} def
/m41 {mp x y m w4 w2 d w4 w4 neg d w2 neg w4 neg d w2 w4 neg d w4 neg w4 neg d w4 neg w2 d w4 neg w2 neg d w4 neg w4 d w2 w4 d w2 neg w4 d w4 w4 d w4 w2 neg d cl f} def
/m42 {mp x y w2 add m w8 neg w2 -3 4 div mul d w2 -3 4 div mul w8 neg d w2 3 4 div mul w8 neg d w8 w2 -3 4 div mul d w8 w2 3 4 div mul d w2 3 4 div mul w8 d w2 -3 4 div mul w8 d w8 neg w2 3 4 div mul d cl s} def
/m43 {mp x y w2 add m w8 neg w2 -3 4 div mul d w2 -3 4 div mul w8 neg d w2 3 4 div mul w8 neg d w8 w2 -3 4 div mul d w8 w2 3 4 div mul d w2 3 4 div mul w8 d w2 -3 4 div mul w8 d w8 neg w2 3 4 div mul d cl f} def
/m44 {mp x y m w6 neg w2 d w2 2 3 div mul 0 d w6 neg w2 neg d w2 w6 d 0 w2 -2 3 div mul d w2 neg w6 d w6 w2 neg d w2 -2 3 div mul 0 d w6 w2 d w2 neg w6 neg d 0 w2 2 3 div mul d w2 w6 neg d cl s} def
/m45 {mp x y m w6 neg w2 d w2 2 3 div mul 0 d w6 neg w2 neg d w2 w6 d 0 w2 -2 3 div mul d w2 neg w6 d w6 w2 neg d w2 -2 3 div mul 0 d w6 w2 d w2 neg w6 neg d 0 w2 2 3 div mul d w2 w6 neg d cl f} def
/m46 {mp x y w4 add m w4 neg w4 d w4 neg w4 neg d  w4 w4 neg d w4 neg w4 neg d w4 w4 neg d w4 w4 d w4 w4 neg d w4 w4 d w4 neg w4 d w4 w4 d w4 neg w4 d w4 neg w4 neg d cl s} def
/m47 {mp x y w4 add m w4 neg w4 d w4 neg w4 neg d w4 w4 neg d w4 neg w4 neg d  w4 w4 neg d w4 w4 d w4 w4 neg d w4 w4 d w4 neg w4 d w4 w4 d w4 neg w4 d w4 neg w4 neg d cl f} def
/m48 {mp x y w4 add m w4 neg w4 d w4 neg w4 neg d w4 w4 neg d  w4 neg w4 neg d w4 w4 neg d w4 w4 d w4 w4 neg d w4 w4 d w4 neg w4 d w4 w4 d w4 neg w4 d w4 neg w4 neg d  w4 w4 neg d w4 neg w4 neg d w4 neg w4 d w4 w4 d cl f} def
/m49 {mp x w2 sub w3 add y w2 sub w3 add m  0 w3 neg d w3 0 d 0 w3 d w3 0 d 0 w3 d w3 neg 0 d 0 w3 d w3 neg 0 d 0 w3 neg d w3 neg 0 d 0 w3 neg d w3 0 d 0 w3 d w3 0 d 0 w3 neg d w3 neg 0 d cl f } def
/m2 {mp x y w2 sub m 0 w d x w2 sub y m w 0 d s} def
/m5 {mp x w2 sub y w2 sub m w w d x w2 sub y w2 add m w w neg d s} def
%%IncludeResource: ProcSet (FontSetInit)
%%IncludeResource: font Times-Roman
%%IncludeResource: font Times-Italic
%%IncludeResource: font Times-Bold
%%IncludeResource: font Times-BoldItalic
%%IncludeResource: font Helvetica
%%IncludeResource: font Helvetica-Oblique
%%IncludeResource: font Helvetica-Bold
%%IncludeResource: font Helvetica-BoldOblique
%%IncludeResource: font Courier
%%IncludeResource: font Courier-Oblique
%%IncludeResource: font Courier-Bold
%%IncludeResource: font Courier-BoldOblique
%%IncludeResource: font Symbol
%%IncludeResource: font ZapfDingbats
/reEncode {exch findfont dup length dict begin {1 index /FID eq  {pop pop} {def} ifelse } forall /Encoding exch def currentdict end dup /FontName get exch definefont pop } def [/Times-Bold /Times-Italic /Times-BoldItalic /Helvetica /Helvetica-Oblique
 /Helvetica-Bold /Helvetica-BoldOblique /Courier /Courier-Oblique /Courier-Bold /Courier-BoldOblique /Times-Roman /AvantGarde-Book /AvantGarde-BookOblique /AvantGarde-Demi /AvantGarde-DemiOblique /Bookman-Demi /Bookman-DemiItalic /Bookman-Light
 /Bookman-LightItalic /Helvetica-Narrow /Helvetica-Narrow-Bold /Helvetica-Narrow-BoldOblique /Helvetica-Narrow-Oblique /NewCenturySchlbk-Roman /NewCenturySchlbk-Bold /NewCenturySchlbk-BoldItalic /NewCenturySchlbk-Italic /Palatino-Bold
 /Palatino-BoldItalic /Palatino-Italic /Palatino-Roman ] {ISOLatin1Encoding reEncode } forall
%%EndProlog
%%BeginSetup
%%EndSetup
newpath  gsave  .25 .25 scale  gsave  0 0 t black[  ] 0 sd 3 lw 1 1 1 c 2268 2177 0 0 bf black 1 1 1 c 1814 1741 227 218 bf black 1814 1741 227 218 bl 1 1 1 c 1814 1741 227 218 bf black 1814 1741 227 218 bl 227 218 m 1814 X s 380 270 m -52 Y s 440
 244 m -26 Y s 500 244 m -26 Y s 560 244 m -26 Y s 620 244 m -26 Y s 681 270 m -52 Y s 741 244 m -26 Y s 801 244 m -26 Y s 861 244 m -26 Y s 921 244 m -26 Y s 981 270 m -52 Y s 1042 244 m -26 Y s 1102 244 m -26 Y s 1162 244 m -26 Y s 1222 244 m -26 Y
 s 1282 270 m -52 Y s 1342 244 m -26 Y s 1402 244 m -26 Y s 1463 244 m -26 Y s 1523 244 m -26 Y s 1583 270 m -52 Y s 1643 244 m -26 Y s 1703 244 m -26 Y s 1763 244 m -26 Y s 1824 244 m -26 Y s 1884 270 m -52 Y s 380 270 m -52 Y s 320 244 m -26 Y s
 259 244 m -26 Y s 1884 270 m -52 Y s 1944 244 m -26 Y s 2004 244 m -26 Y s
 gsave  2268 2177 0 0 C 360.256 147.895 t 0 r /Helvetica findfont 72.0512 sf 0 0 m (0) show NC gr 
 gsave  2268 2177 0 0 C 629.5 147.895 t 0 r /Helvetica findfont 72.0512 sf 0 0 m (0.5) show NC gr 
 gsave  2268 2177 0 0 C 963.211 147.895 t 0 r /Helvetica findfont 72.0512 sf 0 0 m (1) show NC gr 
 gsave  2268 2177 0 0 C 1232.45 147.895 t 0 r /Helvetica findfont 72.0512 sf 0 0 m (1.5) show NC gr 
 gsave  2268 2177 0 0 C 1562.37 147.895 t 0 r /Helvetica findfont 72.0512 sf 0 0 m (2) show NC gr 
 gsave  2268 2177 0 0 C 1831.62 147.895 t 0 r /Helvetica findfont 72.0512 sf 0 0 m (2.5) show NC gr 
 gsave  2268 2177 0 0 C 1691.31 79.6355 t 0 r /Helvetica findfont 72.0512 sf 0 0 m (Voltage [V]) show NC gr  227 218 m 1741 Y s 281 279 m -54 X s 254 323 m -27 X s 254 367 m -27 X s 254 411 m -27 X s 254 455 m -27 X s 281 499 m -54 X s 254 543 m -27
 X s 254 587 m -27 X s 254 631 m -27 X s 254 675 m -27 X s 281 719 m -54 X s 254 763 m -27 X s 254 807 m -27 X s 254 851 m -27 X s 254 895 m -27 X s 281 939 m -54 X s 254 983 m -27 X s 254 1027 m -27 X s 254 1071 m -27 X s 254 1115 m -27 X s 281 1159
 m -54 X s 254 1203 m -27 X s 254 1247 m -27 X s 254 1291 m -27 X s 254 1335 m -27 X s 281 1379 m -54 X s 254 1423 m -27 X s 254 1467 m -27 X s 254 1511 m -27 X s 254 1554 m -27 X s 281 1598 m -54 X s 254 1642 m -27 X s 254 1686 m -27 X s 254 1730 m
 -27 X s 254 1774 m -27 X s 281 1818 m -54 X s 281 279 m -54 X s 254 235 m -27 X s 281 1818 m -54 X s 254 1862 m -27 X s 254 1906 m -27 X s 254 1950 m -27 X s
 gsave  2268 2177 0 0 C 113.765 254.075 t 0 r /Helvetica findfont 72.0512 sf 0 0 m (0.5) show NC gr 
 gsave  2268 2177 0 0 C 72.0512 254.075 t 0 r /Symbol findfont 72.0512 sf 0 0 m (-) show NC gr 
 gsave  2268 2177 0 0 C 174.44 474.021 t 0 r /Helvetica findfont 72.0512 sf 0 0 m (0) show NC gr 
 gsave  2268 2177 0 0 C 113.765 693.967 t 0 r /Helvetica findfont 72.0512 sf 0 0 m (0.5) show NC gr 
 gsave  2268 2177 0 0 C 185.816 910.12 t 0 r /Helvetica findfont 72.0512 sf 0 0 m (1) show NC gr 
 gsave  2268 2177 0 0 C 113.765 1133.86 t 0 r /Helvetica findfont 72.0512 sf 0 0 m (1.5) show NC gr 
 gsave  2268 2177 0 0 C 174.44 1350.01 t 0 r /Helvetica findfont 72.0512 sf 0 0 m (2) show NC gr 
 gsave  2268 2177 0 0 C 113.765 1573.75 t 0 r /Helvetica findfont 72.0512 sf 0 0 m (2.5) show NC gr 
 gsave  2268 2177 0 0 C 174.44 1793.7 t 0 r /Helvetica findfont 72.0512 sf 0 0 m (3) show NC gr 
 gsave  2268 2177 0 0 C 26.5452 1554.79 t 90 r /Helvetica findfont 72.0512 sf 0 0 m (Current [mA]) show NC gr  1 0 0 c 1 1 1 c black /w 2 def /w2 {w 2 div} def /w3 {w 3 div} def 380 1766 386 1717 392 1713 401 1682 409 1620 421 1568 427 1550 432 1467
 442 1414 458 1339 469 1273 489 1198 498 1154 517 1075 531 1027 563 921 596 825 631 723 681 609 742 530 804 477 855 455 925 438 1104 416 1225 407 1433 398 1598 394 1709 389 1881 385 29 { m20} R 1 0 0 c 380 1766 m -2 X s 378 1758 m 15 Y s 380 1766 m 2
 X s 382 1758 m 15 Y s 380 1766 m 48 Y s 372 1814 m 15 X s 380 1766 m -49 Y s 372 1717 m 15 X s 386 1717 m -1 X s 385 1710 m 15 Y s 386 1717 m 2 X s 388 1710 m 15 Y s 386 1717 m 49 Y s 379 1766 m 15 X s 386 1717 m -48 Y s 379 1669 m 15 X s 392 1713 m
 -1 X s 391 1705 m 15 Y s 392 1713 m 2 X s 394 1705 m 15 Y s 392 1713 m 48 Y s 385 1761 m 15 X s 392 1713 m -49 Y s 385 1664 m 15 X s 401 1682 m -1 X s 400 1674 m 16 Y s 401 1682 m 2 X s 403 1674 m 16 Y s 401 1682 m 44 Y s 394 1726 m 15 X s 401 1682
 m -44 Y s 394 1638 m 15 X s 409 1620 m -2 X s 407 1613 m 15 Y s 409 1620 m 2 X s 411 1613 m 15 Y s 409 1620 m 44 Y s 402 1664 m 15 X s 409 1620 m -44 Y s 402 1576 m 15 X s 421 1568 m -2 X s 419 1560 m 15 Y s 421 1568 m 1 X s 422 1560 m 15 Y s 421
 1568 m 44 Y s 413 1612 m 15 X s 421 1568 m -44 Y s 413 1524 m 15 X s 427 1550 m -2 X s 425 1542 m 16 Y s 427 1550 m 1 X s 428 1542 m 16 Y s 427 1550 m 44 Y s 419 1594 m 15 X s 427 1550 m -44 Y s 419 1506 m 15 X s 432 1467 m -2 X s 430 1459 m 15 Y s
 432 1467 m 2 X s 434 1459 m 15 Y s 432 1467 m 39 Y s 425 1506 m 15 X s 432 1467 m -40 Y s 425 1427 m 15 X s 442 1414 m -1 X s 441 1406 m 15 Y s 442 1414 m 2 X s 444 1406 m 15 Y s 442 1414 m 39 Y s 435 1453 m 15 X s 442 1414 m -40 Y s 435 1374 m 15 X
 s 458 1339 m -2 X s 456 1331 m 16 Y s 458 1339 m 2 X s 460 1331 m 16 Y s 458 1339 m 40 Y s 450 1379 m 16 X s 458 1339 m -40 Y s 450 1299 m 16 X s 469 1273 m -2 X s 467 1265 m 16 Y s 469 1273 m 3 X s 472 1265 m 16 Y s 469 1273 m 40 Y s 462 1313 m 15
 X s 469 1273 m -40 Y s 462 1233 m 15 X s 489 1198 m -2 X s 487 1191 m 15 Y s 489 1198 m 3 X s 492 1191 m 15 Y s 489 1198 m 35 Y s 482 1233 m 15 X s 489 1198 m -35 Y s 482 1163 m 15 X s 498 1154 m -3 X s 495 1147 m 15 Y s 498 1154 m 2 X s 500 1147 m
 15 Y s 498 1154 m 35 Y s 490 1189 m 15 X s 498 1154 m -35 Y s 490 1119 m 15 X s 517 1075 m -2 X s 515 1068 m 15 Y s 517 1075 m 2 X s 519 1068 m 15 Y s 517 1075 m 35 Y s 509 1110 m 16 X s 517 1075 m -35 Y s 509 1040 m 16 X s 531 1027 m -2 X s 529
 1019 m 15 Y s 531 1027 m 3 X s 534 1019 m 15 Y s 531 1027 m 31 Y s 524 1058 m 15 X s 531 1027 m -31 Y s 524 996 m 15 X s 563 921 m -3 X s 560 914 m 15 Y s 563 921 m 3 X s 566 914 m 15 Y s 563 921 m 31 Y s 556 952 m 15 X s 563 921 m -31 Y s 556 890 m
 15 X s 596 825 m -3 X s 593 817 m 15 Y s 596 825 m 3 X s 599 817 m 15 Y s 596 825 m 26 Y s 589 851 m 15 X s 596 825 m -27 Y s 589 798 m 15 X s 631 723 m -3 X s 628 716 m 15 Y s 631 723 m 3 X s 634 716 m 15 Y s 631 723 m 27 Y s 623 750 m 15 X s 631
 723 m -26 Y s 623 697 m 15 X s 681 609 m -3 X s 678 601 m 16 Y s 681 609 m 4 X s 685 601 m 16 Y s 681 609 m 22 Y s 674 631 m 15 X s 681 609 m -22 Y s 674 587 m 15 X s 742 530 m -4 X s 738 522 m 15 Y s 742 530 m 4 X s 746 522 m 15 Y s 742 530 m 22 Y
 s 734 552 m 16 X s 742 530 m -22 Y s 734 508 m 16 X s 804 477 m -4 X s 800 470 m 15 Y s 804 477 m 4 X s 808 470 m 15 Y s 804 477 m 22 Y s 796 499 m 15 X s 804 477 m -22 Y s 796 455 m 15 X s 855 455 m -4 X s 851 448 m 15 Y s 855 455 m 4 X s 859 448 m
 15 Y s 855 455 m 22 Y s 847 477 m 16 X s 855 455 m -22 Y s 847 433 m 16 X s 925 438 m -4 X s 921 430 m 15 Y s 925 438 m 5 X s 930 430 m 15 Y s 925 438 m 22 Y s 918 460 m 15 X s 925 438 m -22 Y s 918 416 m 15 X s 1104 416 m -5 X s 1099 408 m 15 Y s
 1104 416 m 5 X s 1109 408 m 15 Y s 1104 416 m 22 Y s 1096 438 m 16 X s 1104 416 m -22 Y s 1096 394 m 16 X s 1225 407 m -6 X s 1219 399 m 15 Y s 1225 407 m 6 X s 1231 399 m 15 Y s 1225 407 m 22 Y s 1217 429 m 16 X s 1225 407 m -22 Y s 1217 385 m 16 X
 s 1433 398 m -8 X s 1425 390 m 16 Y s 1433 398 m 7 X s 1440 390 m 16 Y s 1433 398 m 22 Y s 1425 420 m 15 X s 1433 398 m -22 Y s 1425 376 m 15 X s 1598 394 m -8 X s 1590 386 m 15 Y s 1598 394 m 8 X s 1606 386 m 15 Y s 1598 394 m 22 Y s 1590 416 m 16
 X s 1598 394 m -22 Y s 1590 372 m 16 X s 1709 389 m -8 X s 1701 382 m 15 Y s 1709 389 m 9 X s 1718 382 m 15 Y s 1709 389 m 22 Y s 1702 411 m 15 X s 1709 389 m -22 Y s 1702 367 m 15 X s 1881 385 m -9 X s 1872 377 m 15 Y s 1881 385 m 9 X s 1890 377 m
 15 Y s 1881 385 m 22 Y s 1873 407 m 15 X s 1881 385 m -22 Y s 1873 363 m 15 X s 0 0 1 c 560 434 m 1384 -53 d s 0 1 0 c 374 1804 m 270 -1447 d s 1 1 1 c black
 gsave  2268 2177 0 0 C 424.723 2074.32 t 0 r /Helvetica findfont 87.2199 sf 0 0 m (Stopping Potential vs. Current\(Cyan\)) show NC gr 
 gr  gr showpage
end
%%EOF
