%!PS-Adobe-2.0 EPSF-2.0
%%BoundingBox:  0 0 567 544
%%Title: /home/tan/phys442/photoelectriceffect/report/green.eps: Stopping Potential vs. Current(Green)
%%Creator: ROOT Version 6.18/04
%%CreationDate: Tue Mar  3 19:10:52 2020
%%DocumentNeededResources: ProcSet (FontSetInit)
%%EndComments
%%BeginProlog
80 dict begin
/s {stroke} def /l {lineto} def /m {moveto} def /t {translate} def
/r {rotate} def /rl {roll}  def /R {repeat} def
/d {rlineto} def /rm {rmoveto} def /gr {grestore} def /f {eofill} def
/c {setrgbcolor} def /black {0 setgray} def /sd {setdash} def
/cl {closepath} def /sf {scalefont setfont} def /lw {setlinewidth} def
/box {m dup 0 exch d exch 0 d 0 exch neg d cl} def
/NC{systemdict begin initclip end}def/C{NC box clip newpath}def
/bl {box s} def /bf {gsave box gsave f grestore 1 lw [] 0 sd s grestore} def /Y { 0 exch d} def /X { 0 d} def 
/K {{pop pop 0 moveto} exch kshow} bind def
/ita {/ang 15 def gsave [1 0 ang dup sin exch cos div 1 0 0] concat} def 
/mp {newpath /y exch def /x exch def} def
/side {[w .77 mul w .23 mul] .385 w mul sd w 0 l currentpoint t -144 r} def
/mr {mp x y w2 0 360 arc} def /m24 {mr s} def /m20 {mr f} def
/mb {mp x y w2 add m w2 neg 0 d 0 w neg d w 0 d 0 w d cl} def
/mt {mp x y w2 add m w2 neg w neg d w 0 d cl} def
/w4 {w 4 div} def
/w6 {w 6 div} def
/w8 {w 8 div} def
/m21 {mb f} def /m25 {mb s} def /m22 {mt f} def /m26{mt s} def
/m23 {mp x y w2 sub m w2 w d w neg 0 d cl f} def
/m27 {mp x y w2 add m w3 neg w2 neg d w3 w2 neg d w3 w2 d cl s} def
/m28 {mp x w2 sub y w2 sub w3 add m w3 0 d  0 w3 neg d w3 0 d 0 w3 d w3 0 d  0 w3 d w3 neg 0 d 0 w3 d w3 neg 0 d 0 w3 neg d w3 neg 0 d cl s } def
/m29 {mp gsave x w2 sub y w2 add w3 sub m currentpoint t 4 {side} repeat cl fill gr} def
/m30 {mp gsave x w2 sub y w2 add w3 sub m currentpoint t 4 {side} repeat cl s gr} def
/m31 {mp x y w2 sub m 0 w d x w2 sub y m w 0 d x w2 sub y w2 add m w w neg d x w2 sub y w2 sub m w w d s} def
/m32 {mp x y w2 sub m w2 w d w neg 0 d cl s} def
/m33 {mp x y w2 add m w3 neg w2 neg d w3 w2 neg d w3 w2 d cl f} def
/m34 {mp x w2 sub y w2 sub w3 add m w3 0 d  0 w3 neg d w3 0 d 0 w3 d w3 0 d  0 w3 d w3 neg 0 d 0 w3 d w3 neg 0 d 0 w3 neg d w3 neg 0 d cl f } def
/m35 {mp x y w2 add m w2 neg w2 neg d w2 w2 neg d w2 w2 d w2 neg w2 d x y w2 sub m 0 w d x w2 sub y m w 0 d s} def
/m36 {mb x w2 sub y w2 add m w w neg d x w2 sub y w2 sub m w w d s} def
/m37 {mp x y m w4 neg w2 d w4 neg w2 neg d w2 0 d  w4 neg w2 neg d w2 0 d w4 neg w2 d w2 0 d w4 neg w2 d w4 neg w2 neg d cl s} def
/m38 {mp x w4 sub y w2 add m w4 neg w4 neg d 0 w2 neg d w4 w4 neg d w2 0 d w4 w4 d 0 w2 d w4 neg w4 d w2 neg 0 d x y w2 sub m 0 w d x w2 sub y m w 0 d cl s} def
/m39 {mp x y m w4 neg w2 d w4 neg w2 neg d w2 0 d  w4 neg w2 neg d w2 0 d w4 neg w2 d w2 0 d w4 neg w2 d w4 neg w2 neg d cl f} def
/m40 {mp x y m w4 w2 d w4 w4 neg d w2 neg w4 neg d w2 w4 neg d w4 neg w4 neg d w4 neg w2 d w4 neg w2 neg d w4 neg w4 d w2 w4 d w2 neg w4 d w4 w4 d w4 w2 neg d cl s} def
/m41 {mp x y m w4 w2 d w4 w4 neg d w2 neg w4 neg d w2 w4 neg d w4 neg w4 neg d w4 neg w2 d w4 neg w2 neg d w4 neg w4 d w2 w4 d w2 neg w4 d w4 w4 d w4 w2 neg d cl f} def
/m42 {mp x y w2 add m w8 neg w2 -3 4 div mul d w2 -3 4 div mul w8 neg d w2 3 4 div mul w8 neg d w8 w2 -3 4 div mul d w8 w2 3 4 div mul d w2 3 4 div mul w8 d w2 -3 4 div mul w8 d w8 neg w2 3 4 div mul d cl s} def
/m43 {mp x y w2 add m w8 neg w2 -3 4 div mul d w2 -3 4 div mul w8 neg d w2 3 4 div mul w8 neg d w8 w2 -3 4 div mul d w8 w2 3 4 div mul d w2 3 4 div mul w8 d w2 -3 4 div mul w8 d w8 neg w2 3 4 div mul d cl f} def
/m44 {mp x y m w6 neg w2 d w2 2 3 div mul 0 d w6 neg w2 neg d w2 w6 d 0 w2 -2 3 div mul d w2 neg w6 d w6 w2 neg d w2 -2 3 div mul 0 d w6 w2 d w2 neg w6 neg d 0 w2 2 3 div mul d w2 w6 neg d cl s} def
/m45 {mp x y m w6 neg w2 d w2 2 3 div mul 0 d w6 neg w2 neg d w2 w6 d 0 w2 -2 3 div mul d w2 neg w6 d w6 w2 neg d w2 -2 3 div mul 0 d w6 w2 d w2 neg w6 neg d 0 w2 2 3 div mul d w2 w6 neg d cl f} def
/m46 {mp x y w4 add m w4 neg w4 d w4 neg w4 neg d  w4 w4 neg d w4 neg w4 neg d w4 w4 neg d w4 w4 d w4 w4 neg d w4 w4 d w4 neg w4 d w4 w4 d w4 neg w4 d w4 neg w4 neg d cl s} def
/m47 {mp x y w4 add m w4 neg w4 d w4 neg w4 neg d w4 w4 neg d w4 neg w4 neg d  w4 w4 neg d w4 w4 d w4 w4 neg d w4 w4 d w4 neg w4 d w4 w4 d w4 neg w4 d w4 neg w4 neg d cl f} def
/m48 {mp x y w4 add m w4 neg w4 d w4 neg w4 neg d w4 w4 neg d  w4 neg w4 neg d w4 w4 neg d w4 w4 d w4 w4 neg d w4 w4 d w4 neg w4 d w4 w4 d w4 neg w4 d w4 neg w4 neg d  w4 w4 neg d w4 neg w4 neg d w4 neg w4 d w4 w4 d cl f} def
/m49 {mp x w2 sub w3 add y w2 sub w3 add m  0 w3 neg d w3 0 d 0 w3 d w3 0 d 0 w3 d w3 neg 0 d 0 w3 d w3 neg 0 d 0 w3 neg d w3 neg 0 d 0 w3 neg d w3 0 d 0 w3 d w3 0 d 0 w3 neg d w3 neg 0 d cl f } def
/m2 {mp x y w2 sub m 0 w d x w2 sub y m w 0 d s} def
/m5 {mp x w2 sub y w2 sub m w w d x w2 sub y w2 add m w w neg d s} def
%%IncludeResource: ProcSet (FontSetInit)
%%IncludeResource: font Times-Roman
%%IncludeResource: font Times-Italic
%%IncludeResource: font Times-Bold
%%IncludeResource: font Times-BoldItalic
%%IncludeResource: font Helvetica
%%IncludeResource: font Helvetica-Oblique
%%IncludeResource: font Helvetica-Bold
%%IncludeResource: font Helvetica-BoldOblique
%%IncludeResource: font Courier
%%IncludeResource: font Courier-Oblique
%%IncludeResource: font Courier-Bold
%%IncludeResource: font Courier-BoldOblique
%%IncludeResource: font Symbol
%%IncludeResource: font ZapfDingbats
/reEncode {exch findfont dup length dict begin {1 index /FID eq  {pop pop} {def} ifelse } forall /Encoding exch def currentdict end dup /FontName get exch definefont pop } def [/Times-Bold /Times-Italic /Times-BoldItalic /Helvetica /Helvetica-Oblique
 /Helvetica-Bold /Helvetica-BoldOblique /Courier /Courier-Oblique /Courier-Bold /Courier-BoldOblique /Times-Roman /AvantGarde-Book /AvantGarde-BookOblique /AvantGarde-Demi /AvantGarde-DemiOblique /Bookman-Demi /Bookman-DemiItalic /Bookman-Light
 /Bookman-LightItalic /Helvetica-Narrow /Helvetica-Narrow-Bold /Helvetica-Narrow-BoldOblique /Helvetica-Narrow-Oblique /NewCenturySchlbk-Roman /NewCenturySchlbk-Bold /NewCenturySchlbk-BoldItalic /NewCenturySchlbk-Italic /Palatino-Bold
 /Palatino-BoldItalic /Palatino-Italic /Palatino-Roman ] {ISOLatin1Encoding reEncode } forall
%%EndProlog
%%BeginSetup
%%EndSetup
newpath  gsave  .25 .25 scale  gsave  0 0 t black[  ] 0 sd 3 lw 1 1 1 c 2268 2177 0 0 bf black 1 1 1 c 1814 1741 227 218 bf black 1814 1741 227 218 bl 1 1 1 c 1814 1741 227 218 bf black 1814 1741 227 218 bl 227 218 m 1814 X s 227 270 m -52 Y s 292
 244 m -26 Y s 358 244 m -26 Y s 424 244 m -26 Y s 490 244 m -26 Y s 555 270 m -52 Y s 621 244 m -26 Y s 687 244 m -26 Y s 752 244 m -26 Y s 818 244 m -26 Y s 884 270 m -52 Y s 950 244 m -26 Y s 1015 244 m -26 Y s 1081 244 m -26 Y s 1147 244 m -26 Y
 s 1212 270 m -52 Y s 1278 244 m -26 Y s 1344 244 m -26 Y s 1409 244 m -26 Y s 1475 244 m -26 Y s 1541 270 m -52 Y s 1607 244 m -26 Y s 1672 244 m -26 Y s 1738 244 m -26 Y s 1804 244 m -26 Y s 1869 270 m -52 Y s 1869 270 m -52 Y s 1935 244 m -26 Y s
 2001 244 m -26 Y s
 gsave  2268 2177 0 0 C 204.777 147.895 t 0 r /Helvetica findfont 72.0512 sf 0 0 m (0) show NC gr 
 gsave  2268 2177 0 0 C 504.358 147.895 t 0 r /Helvetica findfont 72.0512 sf 0 0 m (0.5) show NC gr 
 gsave  2268 2177 0 0 C 868.406 147.895 t 0 r /Helvetica findfont 72.0512 sf 0 0 m (1) show NC gr 
 gsave  2268 2177 0 0 C 1160.4 147.895 t 0 r /Helvetica findfont 72.0512 sf 0 0 m (1.5) show NC gr 
 gsave  2268 2177 0 0 C 1520.66 147.895 t 0 r /Helvetica findfont 72.0512 sf 0 0 m (2) show NC gr 
 gsave  2268 2177 0 0 C 1816.45 147.895 t 0 r /Helvetica findfont 72.0512 sf 0 0 m (2.5) show NC gr 
 gsave  2268 2177 0 0 C 1691.31 79.6355 t 0 r /Helvetica findfont 72.0512 sf 0 0 m (Voltage [V]) show NC gr  227 218 m 1741 Y s 281 443 m -54 X s 254 495 m -27 X s 254 547 m -27 X s 254 599 m -27 X s 254 651 m -27 X s 281 703 m -54 X s 254 755 m -27
 X s 254 807 m -27 X s 254 859 m -27 X s 254 911 m -27 X s 281 962 m -54 X s 254 1014 m -27 X s 254 1066 m -27 X s 254 1118 m -27 X s 254 1170 m -27 X s 281 1222 m -54 X s 254 1274 m -27 X s 254 1326 m -27 X s 254 1378 m -27 X s 254 1430 m -27 X s
 281 1482 m -54 X s 254 1534 m -27 X s 254 1585 m -27 X s 254 1637 m -27 X s 254 1689 m -27 X s 281 1741 m -54 X s 281 443 m -54 X s 254 391 m -27 X s 254 339 m -27 X s 254 288 m -27 X s 254 236 m -27 X s 281 1741 m -54 X s 254 1793 m -27 X s 254
 1845 m -27 X s 254 1897 m -27 X s 254 1949 m -27 X s
 gsave  2268 2177 0 0 C 174.44 413.346 t 0 r /Helvetica findfont 72.0512 sf 0 0 m (2) show NC gr 
 gsave  2268 2177 0 0 C 132.726 413.346 t 0 r /Symbol findfont 72.0512 sf 0 0 m (-) show NC gr 
 gsave  2268 2177 0 0 C 185.816 675.006 t 0 r /Helvetica findfont 72.0512 sf 0 0 m (1) show NC gr 
 gsave  2268 2177 0 0 C 144.102 675.006 t 0 r /Symbol findfont 72.0512 sf 0 0 m (-) show NC gr 
 gsave  2268 2177 0 0 C 174.44 936.666 t 0 r /Helvetica findfont 72.0512 sf 0 0 m (0) show NC gr 
 gsave  2268 2177 0 0 C 185.816 1194.53 t 0 r /Helvetica findfont 72.0512 sf 0 0 m (1) show NC gr 
 gsave  2268 2177 0 0 C 174.44 1452.4 t 0 r /Helvetica findfont 72.0512 sf 0 0 m (2) show NC gr 
 gsave  2268 2177 0 0 C 174.44 1717.85 t 0 r /Helvetica findfont 72.0512 sf 0 0 m (3) show NC gr 
 gsave  2268 2177 0 0 C 87.2199 1554.79 t 90 r /Helvetica findfont 72.0512 sf 0 0 m (Current [mA]) show NC gr  1 0 0 c 1 1 1 c black /w 2 def /w2 {w 2 div} def /w3 {w 3 div} def 227 1780 303 1783 369 1785 428 1785 434 1785 455 1780 458 1754 462 1718
 468 1689 474 1598 483 1495 489 1435 500 1315 510 1227 518 1157 524 1110 529 1066 542 981 548 944 557 900 573 820 588 770 603 724 622 674 656 617 724 547 783 513 860 485 964 469 1046 461 1165 448 1287 428 1426 420 1557 407 1666 402 1866 386 36 { m20}
 R 1 0 0 c 227 1780 m 29 Y s 227 1809 m 7 X s 227 1780 m -28 Y s 227 1752 m 7 X s 303 1783 m -2 X s 301 1775 m 15 Y s 303 1783 m 2 X s 305 1775 m 15 Y s 303 1783 m 28 Y s 295 1811 m 16 X s 303 1783 m -29 Y s 295 1754 m 16 X s 369 1785 m -2 X s 367
 1778 m 15 Y s 369 1785 m 3 X s 372 1778 m 15 Y s 369 1785 m 29 Y s 362 1814 m 15 X s 369 1785 m -28 Y s 362 1757 m 15 X s 428 1785 m -3 X s 425 1778 m 15 Y s 428 1785 m 3 X s 431 1778 m 15 Y s 428 1785 m 29 Y s 420 1814 m 15 X s 428 1785 m -28 Y s
 420 1757 m 15 X s 434 1785 m -4 X s 430 1778 m 15 Y s 434 1785 m 3 X s 437 1778 m 15 Y s 434 1785 m 29 Y s 426 1814 m 15 X s 434 1785 m -28 Y s 426 1757 m 15 X s 455 1780 m -3 X s 452 1773 m 15 Y s 455 1780 m 4 X s 459 1773 m 15 Y s 455 1780 m 29 Y
 s 448 1809 m 15 X s 455 1780 m -28 Y s 448 1752 m 15 X s 458 1754 m -3 X s 455 1747 m 15 Y s 458 1754 m 3 X s 461 1747 m 15 Y s 458 1754 m 29 Y s 450 1783 m 16 X s 458 1754 m -28 Y s 450 1726 m 16 X s 462 1718 m -3 X s 459 1710 m 15 Y s 462 1718 m 3
 X s 465 1710 m 15 Y s 462 1718 m 28 Y s 454 1746 m 16 X s 462 1718 m -29 Y s 454 1689 m 16 X s 468 1689 m -3 X s 465 1682 m 15 Y s 468 1689 m 3 X s 471 1682 m 15 Y s 468 1689 m 29 Y s 460 1718 m 16 X s 468 1689 m -28 Y s 460 1661 m 16 X s 474 1598 m
 -3 X s 471 1591 m 15 Y s 474 1598 m 4 X s 478 1591 m 15 Y s 474 1598 m 26 Y s 467 1624 m 15 X s 474 1598 m -26 Y s 467 1572 m 15 X s 483 1495 m -3 X s 480 1487 m 15 Y s 483 1495 m 3 X s 486 1487 m 15 Y s 483 1495 m 23 Y s 475 1518 m 16 X s 483 1495
 m -24 Y s 475 1471 m 16 X s 489 1435 m -3 X s 486 1427 m 15 Y s 489 1435 m 3 X s 492 1427 m 15 Y s 489 1435 m 23 Y s 481 1458 m 16 X s 489 1435 m -23 Y s 481 1412 m 16 X s 500 1315 m -3 X s 497 1308 m 15 Y s 500 1315 m 3 X s 503 1308 m 15 Y s 500
 1315 m 21 Y s 493 1336 m 15 X s 500 1315 m -20 Y s 493 1295 m 15 X s 510 1227 m -3 X s 507 1220 m 15 Y s 510 1227 m 3 X s 513 1220 m 15 Y s 510 1227 m 18 Y s 502 1245 m 16 X s 510 1227 m -18 Y s 502 1209 m 16 X s 518 1157 m -3 X s 515 1150 m 15 Y s
 518 1157 m 3 X s 521 1150 m 15 Y s 518 1157 m 18 Y s 510 1175 m 15 X s 518 1157 m -18 Y s 510 1139 m 15 X s 524 1110 m -4 X s 520 1103 m 15 Y s 524 1110 m 3 X s 527 1103 m 15 Y s 524 1110 m 16 Y s 516 1126 m 15 X s 524 1110 m -15 Y s 516 1095 m 15 X
 s 529 1066 m -3 X s 526 1059 m 15 Y s 529 1066 m 3 X s 532 1059 m 15 Y s 529 1066 m 16 Y s 521 1082 m 16 X s 529 1066 m -15 Y s 521 1051 m 16 X s 542 981 m -4 X s 538 973 m 15 Y s 542 981 m 3 X s 545 973 m 15 Y s 542 981 m 13 Y s 534 994 m 15 X s
 542 981 m -13 Y s 534 968 m 15 X s 548 944 m -3 X s 545 937 m 15 Y s 548 944 m 3 X s 551 937 m 15 Y s 548 944 m 13 Y s 540 957 m 16 X s 548 944 m -13 Y s 540 931 m 16 X s 557 900 m -4 X s 553 893 m 15 Y s 557 900 m 3 X s 560 893 m 15 Y s 557 900 m
 13 Y s 549 913 m 15 X s 557 900 m -13 Y s 549 887 m 15 X s 573 820 m -4 X s 569 812 m 15 Y s 573 820 m 4 X s 577 812 m 15 Y s 573 820 m 13 Y s 565 833 m 16 X s 573 820 m -13 Y s 565 807 m 16 X s 588 770 m -4 X s 584 763 m 15 Y s 588 770 m 3 X s 591
 763 m 15 Y s 588 770 m 16 Y s 580 786 m 15 X s 588 770 m -15 Y s 580 755 m 15 X s 603 724 m -4 X s 599 716 m 15 Y s 603 724 m 4 X s 607 716 m 15 Y s 603 724 m 18 Y s 595 742 m 15 X s 603 724 m -19 Y s 595 705 m 15 X s 622 674 m -4 X s 618 667 m 15 Y
 s 622 674 m 4 X s 626 667 m 15 Y s 622 674 m 18 Y s 615 692 m 15 X s 622 674 m -18 Y s 615 656 m 15 X s 656 617 m -3 X s 653 610 m 15 Y s 656 617 m 4 X s 660 610 m 15 Y s 656 617 m 21 Y s 649 638 m 15 X s 656 617 m -21 Y s 649 596 m 15 X s 724 547 m
 -5 X s 719 540 m 15 Y s 724 547 m 4 X s 728 540 m 15 Y s 724 547 m 21 Y s 716 568 m 15 X s 724 547 m -21 Y s 716 526 m 15 X s 783 513 m -4 X s 779 506 m 15 Y s 783 513 m 5 X s 788 506 m 15 Y s 783 513 m 21 Y s 776 534 m 15 X s 783 513 m -20 Y s 776
 493 m 15 X s 860 485 m -6 X s 854 477 m 15 Y s 860 485 m 5 X s 865 477 m 15 Y s 860 485 m 23 Y s 852 508 m 15 X s 860 485 m -24 Y s 852 461 m 15 X s 964 469 m -6 X s 958 462 m 15 Y s 964 469 m 6 X s 970 462 m 15 Y s 964 469 m 24 Y s 956 493 m 16 X s
 964 469 m -23 Y s 956 446 m 16 X s 1046 461 m -6 X s 1040 454 m 15 Y s 1046 461 m 6 X s 1052 454 m 15 Y s 1046 461 m 24 Y s 1039 485 m 15 X s 1046 461 m -23 Y s 1039 438 m 15 X s 1165 448 m -7 X s 1158 441 m 15 Y s 1165 448 m 7 X s 1172 441 m 15 Y s
 1165 448 m 24 Y s 1157 472 m 16 X s 1165 448 m -23 Y s 1157 425 m 16 X s 1287 428 m -7 X s 1280 420 m 15 Y s 1287 428 m 8 X s 1295 420 m 15 Y s 1287 428 m 23 Y s 1280 451 m 15 X s 1287 428 m -24 Y s 1280 404 m 15 X s 1426 420 m -8 X s 1418 412 m 15
 Y s 1426 420 m 8 X s 1434 412 m 15 Y s 1426 420 m 23 Y s 1418 443 m 16 X s 1426 420 m -23 Y s 1418 397 m 16 X s 1557 407 m -9 X s 1548 399 m 15 Y s 1557 407 m 8 X s 1565 399 m 15 Y s 1557 407 m 23 Y s 1549 430 m 15 X s 1557 407 m -23 Y s 1549 384 m
 15 X s 1666 402 m -9 X s 1657 394 m 15 Y s 1666 402 m 9 X s 1675 394 m 15 Y s 1666 402 m 23 Y s 1658 425 m 15 X s 1666 402 m -24 Y s 1658 378 m 15 X s 1866 386 m -10 X s 1856 379 m 15 Y s 1866 386 m 10 X s 1876 379 m 15 Y s 1866 386 m 24 Y s 1859
 410 m 15 X s 1866 386 m -23 Y s 1859 363 m 15 X s 0 0 1 c 424 517 m 1511 -141 d s 0 1 0 c 444 1904 m 157 -1595 d s 1 1 1 c black
 gsave  2268 2177 0 0 C 405.762 2074.32 t 0 r /Helvetica findfont 87.2199 sf 0 0 m (Stopping Potential vs. Current\(Green\)) show NC gr 
 gr  gr showpage
end
%%EOF
