%!PS-Adobe-2.0 EPSF-2.0
%%BoundingBox:  0 0 567 377
%%Title: /home/tan/phys442/photoelectriceffect/report/violet.eps: Stopping Potential vs. Current(Violet)
%%Creator: ROOT Version 6.18/04
%%CreationDate: Tue Mar  3 19:33:48 2020
%%DocumentNeededResources: ProcSet (FontSetInit)
%%EndComments
%%BeginProlog
80 dict begin
/s {stroke} def /l {lineto} def /m {moveto} def /t {translate} def
/r {rotate} def /rl {roll}  def /R {repeat} def
/d {rlineto} def /rm {rmoveto} def /gr {grestore} def /f {eofill} def
/c {setrgbcolor} def /black {0 setgray} def /sd {setdash} def
/cl {closepath} def /sf {scalefont setfont} def /lw {setlinewidth} def
/box {m dup 0 exch d exch 0 d 0 exch neg d cl} def
/NC{systemdict begin initclip end}def/C{NC box clip newpath}def
/bl {box s} def /bf {gsave box gsave f grestore 1 lw [] 0 sd s grestore} def /Y { 0 exch d} def /X { 0 d} def 
/K {{pop pop 0 moveto} exch kshow} bind def
/ita {/ang 15 def gsave [1 0 ang dup sin exch cos div 1 0 0] concat} def 
/mp {newpath /y exch def /x exch def} def
/side {[w .77 mul w .23 mul] .385 w mul sd w 0 l currentpoint t -144 r} def
/mr {mp x y w2 0 360 arc} def /m24 {mr s} def /m20 {mr f} def
/mb {mp x y w2 add m w2 neg 0 d 0 w neg d w 0 d 0 w d cl} def
/mt {mp x y w2 add m w2 neg w neg d w 0 d cl} def
/w4 {w 4 div} def
/w6 {w 6 div} def
/w8 {w 8 div} def
/m21 {mb f} def /m25 {mb s} def /m22 {mt f} def /m26{mt s} def
/m23 {mp x y w2 sub m w2 w d w neg 0 d cl f} def
/m27 {mp x y w2 add m w3 neg w2 neg d w3 w2 neg d w3 w2 d cl s} def
/m28 {mp x w2 sub y w2 sub w3 add m w3 0 d  0 w3 neg d w3 0 d 0 w3 d w3 0 d  0 w3 d w3 neg 0 d 0 w3 d w3 neg 0 d 0 w3 neg d w3 neg 0 d cl s } def
/m29 {mp gsave x w2 sub y w2 add w3 sub m currentpoint t 4 {side} repeat cl fill gr} def
/m30 {mp gsave x w2 sub y w2 add w3 sub m currentpoint t 4 {side} repeat cl s gr} def
/m31 {mp x y w2 sub m 0 w d x w2 sub y m w 0 d x w2 sub y w2 add m w w neg d x w2 sub y w2 sub m w w d s} def
/m32 {mp x y w2 sub m w2 w d w neg 0 d cl s} def
/m33 {mp x y w2 add m w3 neg w2 neg d w3 w2 neg d w3 w2 d cl f} def
/m34 {mp x w2 sub y w2 sub w3 add m w3 0 d  0 w3 neg d w3 0 d 0 w3 d w3 0 d  0 w3 d w3 neg 0 d 0 w3 d w3 neg 0 d 0 w3 neg d w3 neg 0 d cl f } def
/m35 {mp x y w2 add m w2 neg w2 neg d w2 w2 neg d w2 w2 d w2 neg w2 d x y w2 sub m 0 w d x w2 sub y m w 0 d s} def
/m36 {mb x w2 sub y w2 add m w w neg d x w2 sub y w2 sub m w w d s} def
/m37 {mp x y m w4 neg w2 d w4 neg w2 neg d w2 0 d  w4 neg w2 neg d w2 0 d w4 neg w2 d w2 0 d w4 neg w2 d w4 neg w2 neg d cl s} def
/m38 {mp x w4 sub y w2 add m w4 neg w4 neg d 0 w2 neg d w4 w4 neg d w2 0 d w4 w4 d 0 w2 d w4 neg w4 d w2 neg 0 d x y w2 sub m 0 w d x w2 sub y m w 0 d cl s} def
/m39 {mp x y m w4 neg w2 d w4 neg w2 neg d w2 0 d  w4 neg w2 neg d w2 0 d w4 neg w2 d w2 0 d w4 neg w2 d w4 neg w2 neg d cl f} def
/m40 {mp x y m w4 w2 d w4 w4 neg d w2 neg w4 neg d w2 w4 neg d w4 neg w4 neg d w4 neg w2 d w4 neg w2 neg d w4 neg w4 d w2 w4 d w2 neg w4 d w4 w4 d w4 w2 neg d cl s} def
/m41 {mp x y m w4 w2 d w4 w4 neg d w2 neg w4 neg d w2 w4 neg d w4 neg w4 neg d w4 neg w2 d w4 neg w2 neg d w4 neg w4 d w2 w4 d w2 neg w4 d w4 w4 d w4 w2 neg d cl f} def
/m42 {mp x y w2 add m w8 neg w2 -3 4 div mul d w2 -3 4 div mul w8 neg d w2 3 4 div mul w8 neg d w8 w2 -3 4 div mul d w8 w2 3 4 div mul d w2 3 4 div mul w8 d w2 -3 4 div mul w8 d w8 neg w2 3 4 div mul d cl s} def
/m43 {mp x y w2 add m w8 neg w2 -3 4 div mul d w2 -3 4 div mul w8 neg d w2 3 4 div mul w8 neg d w8 w2 -3 4 div mul d w8 w2 3 4 div mul d w2 3 4 div mul w8 d w2 -3 4 div mul w8 d w8 neg w2 3 4 div mul d cl f} def
/m44 {mp x y m w6 neg w2 d w2 2 3 div mul 0 d w6 neg w2 neg d w2 w6 d 0 w2 -2 3 div mul d w2 neg w6 d w6 w2 neg d w2 -2 3 div mul 0 d w6 w2 d w2 neg w6 neg d 0 w2 2 3 div mul d w2 w6 neg d cl s} def
/m45 {mp x y m w6 neg w2 d w2 2 3 div mul 0 d w6 neg w2 neg d w2 w6 d 0 w2 -2 3 div mul d w2 neg w6 d w6 w2 neg d w2 -2 3 div mul 0 d w6 w2 d w2 neg w6 neg d 0 w2 2 3 div mul d w2 w6 neg d cl f} def
/m46 {mp x y w4 add m w4 neg w4 d w4 neg w4 neg d  w4 w4 neg d w4 neg w4 neg d w4 w4 neg d w4 w4 d w4 w4 neg d w4 w4 d w4 neg w4 d w4 w4 d w4 neg w4 d w4 neg w4 neg d cl s} def
/m47 {mp x y w4 add m w4 neg w4 d w4 neg w4 neg d w4 w4 neg d w4 neg w4 neg d  w4 w4 neg d w4 w4 d w4 w4 neg d w4 w4 d w4 neg w4 d w4 w4 d w4 neg w4 d w4 neg w4 neg d cl f} def
/m48 {mp x y w4 add m w4 neg w4 d w4 neg w4 neg d w4 w4 neg d  w4 neg w4 neg d w4 w4 neg d w4 w4 d w4 w4 neg d w4 w4 d w4 neg w4 d w4 w4 d w4 neg w4 d w4 neg w4 neg d  w4 w4 neg d w4 neg w4 neg d w4 neg w4 d w4 w4 d cl f} def
/m49 {mp x w2 sub w3 add y w2 sub w3 add m  0 w3 neg d w3 0 d 0 w3 d w3 0 d 0 w3 d w3 neg 0 d 0 w3 d w3 neg 0 d 0 w3 neg d w3 neg 0 d 0 w3 neg d w3 0 d 0 w3 d w3 0 d 0 w3 neg d w3 neg 0 d cl f } def
/m2 {mp x y w2 sub m 0 w d x w2 sub y m w 0 d s} def
/m5 {mp x w2 sub y w2 sub m w w d x w2 sub y w2 add m w w neg d s} def
%%IncludeResource: ProcSet (FontSetInit)
%%IncludeResource: font Times-Roman
%%IncludeResource: font Times-Italic
%%IncludeResource: font Times-Bold
%%IncludeResource: font Times-BoldItalic
%%IncludeResource: font Helvetica
%%IncludeResource: font Helvetica-Oblique
%%IncludeResource: font Helvetica-Bold
%%IncludeResource: font Helvetica-BoldOblique
%%IncludeResource: font Courier
%%IncludeResource: font Courier-Oblique
%%IncludeResource: font Courier-Bold
%%IncludeResource: font Courier-BoldOblique
%%IncludeResource: font Symbol
%%IncludeResource: font ZapfDingbats
/reEncode {exch findfont dup length dict begin {1 index /FID eq  {pop pop} {def} ifelse } forall /Encoding exch def currentdict end dup /FontName get exch definefont pop } def [/Times-Bold /Times-Italic /Times-BoldItalic /Helvetica /Helvetica-Oblique
 /Helvetica-Bold /Helvetica-BoldOblique /Courier /Courier-Oblique /Courier-Bold /Courier-BoldOblique /Times-Roman /AvantGarde-Book /AvantGarde-BookOblique /AvantGarde-Demi /AvantGarde-DemiOblique /Bookman-Demi /Bookman-DemiItalic /Bookman-Light
 /Bookman-LightItalic /Helvetica-Narrow /Helvetica-Narrow-Bold /Helvetica-Narrow-BoldOblique /Helvetica-Narrow-Oblique /NewCenturySchlbk-Roman /NewCenturySchlbk-Bold /NewCenturySchlbk-BoldItalic /NewCenturySchlbk-Italic /Palatino-Bold
 /Palatino-BoldItalic /Palatino-Italic /Palatino-Roman ] {ISOLatin1Encoding reEncode } forall
%%EndProlog
%%BeginSetup
%%EndSetup
newpath  gsave  .25 .25 scale  gsave  0 0 t black[  ] 0 sd 3 lw 1 1 1 c 2268 1510 0 0 bf black 1 1 1 c 1814 1208 227 151 bf black 1814 1208 227 151 bl 1 1 1 c 1814 1208 227 151 bf black 1814 1208 227 151 bl 227 151 m 1814 X s 227 187 m -36 Y s 293
 169 m -18 Y s 358 169 m -18 Y s 424 169 m -18 Y s 490 169 m -18 Y s 555 187 m -36 Y s 621 169 m -18 Y s 687 169 m -18 Y s 753 169 m -18 Y s 818 169 m -18 Y s 884 187 m -36 Y s 950 169 m -18 Y s 1016 169 m -18 Y s 1081 169 m -18 Y s 1147 169 m -18 Y
 s 1213 187 m -36 Y s 1279 169 m -18 Y s 1344 169 m -18 Y s 1410 169 m -18 Y s 1476 169 m -18 Y s 1541 187 m -36 Y s 1607 169 m -18 Y s 1673 169 m -18 Y s 1739 169 m -18 Y s 1804 169 m -18 Y s 1870 187 m -36 Y s 1870 187 m -36 Y s 1936 169 m -18 Y s
 2002 169 m -18 Y s
 gsave  2268 1510 0 0 C 212.598 101.757 t 0 r /Helvetica findfont 49.0612 sf 0 0 m (0) show NC gr 
 gsave  2268 1510 0 0 C 519.685 101.757 t 0 r /Helvetica findfont 49.0612 sf 0 0 m (0.5) show NC gr 
 gsave  2268 1510 0 0 C 874.016 101.757 t 0 r /Helvetica findfont 49.0612 sf 0 0 m (1) show NC gr 
 gsave  2268 1510 0 0 C 1177.47 101.757 t 0 r /Helvetica findfont 49.0612 sf 0 0 m (1.5) show NC gr 
 gsave  2268 1510 0 0 C 1528.16 101.757 t 0 r /Helvetica findfont 49.0612 sf 0 0 m (2) show NC gr 
 gsave  2268 1510 0 0 C 1835.25 101.757 t 0 r /Helvetica findfont 49.0612 sf 0 0 m (2.5) show NC gr 
 gsave  2268 1510 0 0 C 1802.54 52.6953 t 0 r /Helvetica findfont 49.0612 sf 0 0 m (Voltage [V]) show NC gr  227 151 m 1208 Y s 281 275 m -54 X s 254 321 m -27 X s 254 367 m -27 X s 254 413 m -27 X s 254 459 m -27 X s 281 505 m -54 X s 254 551 m -27
 X s 254 597 m -27 X s 254 643 m -27 X s 254 689 m -27 X s 281 735 m -54 X s 254 781 m -27 X s 254 828 m -27 X s 254 874 m -27 X s 254 920 m -27 X s 281 966 m -54 X s 254 1012 m -27 X s 254 1058 m -27 X s 254 1104 m -27 X s 254 1150 m -27 X s 281
 1196 m -54 X s 281 275 m -54 X s 254 229 m -27 X s 254 183 m -27 X s 281 1196 m -54 X s 254 1242 m -27 X s 254 1288 m -27 X s 254 1334 m -27 X s
 gsave  2268 1510 0 0 C 196.245 256.208 t 0 r /Helvetica findfont 49.0612 sf 0 0 m (1) show NC gr 
 gsave  2268 1510 0 0 C 168.988 256.208 t 0 r /Symbol findfont 49.0612 sf 0 0 m (-) show NC gr 
 gsave  2268 1510 0 0 C 188.976 486.978 t 0 r /Helvetica findfont 49.0612 sf 0 0 m (0) show NC gr 
 gsave  2268 1510 0 0 C 196.245 715.93 t 0 r /Helvetica findfont 49.0612 sf 0 0 m (1) show NC gr 
 gsave  2268 1510 0 0 C 188.976 946.699 t 0 r /Helvetica findfont 49.0612 sf 0 0 m (2) show NC gr 
 gsave  2268 1510 0 0 C 188.976 1179.29 t 0 r /Helvetica findfont 49.0612 sf 0 0 m (3) show NC gr 
 gsave  2268 1510 0 0 C 118.11 1082.98 t 90 r /Helvetica findfont 49.0612 sf 0 0 m (Current [mA]) show NC gr  1 0 0 c 1 1 1 c black /w 2 def /w2 {w 2 div} def /w3 {w 3 div} def 227 1233 296 1231 357 1233 421 1233 757 1231 766 1231 772 1226 778 1212
 790 1173 794 1132 801 1120 807 1090 814 1060 827 1005 838 957 851 915 862 841 889 749 947 606 971 560 987 528 1008 500 1020 484 1038 461 1052 445 1061 438 1071 427 1096 404 1109 399 1124 392 1137 385 1144 381 1158 371 1164 374 1182 365 1199 362 1217
 351 1240 339 1262 330 1317 318 1350 312 1397 305 1445 309 1507 295 1560 284 1618 291 1679 279 1732 272 1866 268 49 { m20} R 1 0 0 c 227 1233 m 25 Y s 227 1258 m 3 X s 227 1233 m -25 Y s 227 1208 m 3 X s 296 1231 m -2 X s 294 1227 m 7 Y s 296 1231 m
 2 X s 298 1227 m 7 Y s 296 1231 m 25 Y s 293 1256 m 7 X s 296 1231 m -26 Y s 293 1205 m 7 X s 357 1233 m -2 X s 355 1229 m 8 Y s 357 1233 m 2 X s 359 1229 m 8 Y s 357 1233 m 25 Y s 353 1258 m 8 X s 357 1233 m -25 Y s 353 1208 m 8 X s 421 1233 m -3 X
 s 418 1229 m 8 Y s 421 1233 m 2 X s 423 1229 m 8 Y s 421 1233 m 25 Y s 417 1258 m 7 X s 421 1233 m -25 Y s 417 1208 m 7 X s 757 1231 m -4 X s 753 1227 m 7 Y s 757 1231 m 5 X s 762 1227 m 7 Y s 757 1231 m 25 Y s 754 1256 m 7 X s 757 1231 m -26 Y s
 754 1205 m 7 X s 766 1231 m -5 X s 761 1227 m 7 Y s 766 1231 m 4 X s 770 1227 m 7 Y s 766 1231 m 25 Y s 762 1256 m 7 X s 766 1231 m -26 Y s 762 1205 m 7 X s 772 1226 m -4 X s 768 1222 m 8 Y s 772 1226 m 5 X s 777 1222 m 8 Y s 772 1226 m 25 Y s 769
 1251 m 7 X s 772 1226 m -25 Y s 769 1201 m 7 X s 778 1212 m -4 X s 774 1209 m 7 Y s 778 1212 m 5 X s 783 1209 m 7 Y s 778 1212 m 26 Y s 775 1238 m 7 X s 778 1212 m -25 Y s 775 1187 m 7 X s 790 1173 m -4 X s 786 1169 m 8 Y s 790 1173 m 5 X s 795 1169
 m 8 Y s 790 1173 m 25 Y s 786 1198 m 8 X s 790 1173 m -25 Y s 786 1148 m 8 X s 794 1132 m -5 X s 789 1128 m 7 Y s 794 1132 m 5 X s 799 1128 m 7 Y s 794 1132 m 23 Y s 790 1155 m 8 X s 794 1132 m -23 Y s 790 1109 m 8 X s 801 1120 m -5 X s 796 1116 m 8
 Y s 801 1120 m 4 X s 805 1116 m 8 Y s 801 1120 m 23 Y s 797 1143 m 7 X s 801 1120 m -23 Y s 797 1097 m 7 X s 807 1090 m -5 X s 802 1087 m 7 Y s 807 1090 m 4 X s 811 1087 m 7 Y s 807 1090 m 23 Y s 803 1113 m 7 X s 807 1090 m -23 Y s 803 1067 m 7 X s
 814 1060 m -4 X s 810 1057 m 7 Y s 814 1060 m 5 X s 819 1057 m 7 Y s 814 1060 m 21 Y s 811 1081 m 7 X s 814 1060 m -21 Y s 811 1039 m 7 X s 827 1005 m -5 X s 822 1001 m 8 Y s 827 1005 m 5 X s 832 1001 m 8 Y s 827 1005 m 21 Y s 823 1026 m 8 X s 827
 1005 m -21 Y s 823 984 m 8 X s 838 957 m -5 X s 833 953 m 7 Y s 838 957 m 5 X s 843 953 m 7 Y s 838 957 m 20 Y s 834 977 m 8 X s 838 957 m -21 Y s 834 936 m 8 X s 851 915 m -6 X s 845 911 m 8 Y s 851 915 m 5 X s 856 911 m 8 Y s 851 915 m 21 Y s 847
 936 m 7 X s 851 915 m -21 Y s 847 894 m 7 X s 862 841 m -5 X s 857 838 m 7 Y s 862 841 m 6 X s 868 838 m 7 Y s 862 841 m 19 Y s 859 860 m 7 X s 862 841 m -18 Y s 859 823 m 7 X s 889 749 m -6 X s 883 746 m 7 Y s 889 749 m 5 X s 894 746 m 7 Y s 889
 749 m 16 Y s 885 765 m 7 X s 889 749 m -16 Y s 885 733 m 7 X s 947 606 m -5 X s 942 603 m 7 Y s 947 606 m 5 X s 952 603 m 7 Y s 947 606 m 14 Y s 944 620 m 7 X s 947 606 m -13 Y s 944 593 m 7 X s 971 560 m -6 X s 965 557 m 7 Y s 971 560 m 6 X s 977
 557 m 7 Y s 971 560 m 12 Y s 967 572 m 8 X s 971 560 m -11 Y s 967 549 m 8 X s 987 528 m -6 X s 981 524 m 8 Y s 987 528 m 6 X s 993 524 m 8 Y s 987 528 m 12 Y s 984 540 m 7 X s 987 528 m -11 Y s 984 517 m 7 X s 1008 500 m -6 X s 1002 497 m 7 Y s
 1008 500 m 6 X s 1014 497 m 7 Y s 1008 500 m 12 Y s 1004 512 m 7 X s 1008 500 m -11 Y s 1004 489 m 7 X s 1020 484 m -6 X s 1014 481 m 7 Y s 1020 484 m 5 X s 1025 481 m 7 Y s 1020 484 m 12 Y s 1016 496 m 7 X s 1020 484 m -11 Y s 1016 473 m 7 X s 1038
 461 m -6 X s 1032 458 m 7 Y s 1038 461 m 6 X s 1044 458 m 7 Y s 1038 461 m 12 Y s 1034 473 m 8 X s 1038 461 m -11 Y s 1034 450 m 8 X s 1052 445 m -6 X s 1046 442 m 7 Y s 1052 445 m 6 X s 1058 442 m 7 Y s 1052 445 m 12 Y s 1049 457 m 7 X s 1052 445 m
 -11 Y s 1049 434 m 7 X s 1061 438 m -6 X s 1055 435 m 7 Y s 1061 438 m 6 X s 1067 435 m 7 Y s 1061 438 m 12 Y s 1057 450 m 8 X s 1061 438 m -11 Y s 1057 427 m 8 X s 1071 427 m -6 X s 1065 423 m 7 Y s 1071 427 m 6 X s 1077 423 m 7 Y s 1071 427 m 14 Y
 s 1067 441 m 7 X s 1071 427 m -14 Y s 1067 413 m 7 X s 1096 404 m -7 X s 1089 400 m 7 Y s 1096 404 m 6 X s 1102 400 m 7 Y s 1096 404 m 14 Y s 1092 418 m 7 X s 1096 404 m -14 Y s 1092 390 m 7 X s 1109 399 m -7 X s 1102 395 m 8 Y s 1109 399 m 6 X s
 1115 395 m 8 Y s 1109 399 m 14 Y s 1105 413 m 8 X s 1109 399 m -14 Y s 1105 385 m 8 X s 1124 392 m -7 X s 1117 389 m 7 Y s 1124 392 m 7 X s 1131 389 m 7 Y s 1124 392 m 14 Y s 1120 406 m 8 X s 1124 392 m -14 Y s 1120 378 m 8 X s 1137 385 m -7 X s
 1130 382 m 7 Y s 1137 385 m 6 X s 1143 382 m 7 Y s 1137 385 m 14 Y s 1133 399 m 7 X s 1137 385 m -14 Y s 1133 371 m 7 X s 1144 381 m -7 X s 1137 377 m 7 Y s 1144 381 m 6 X s 1150 377 m 7 Y s 1144 381 m 13 Y s 1140 394 m 7 X s 1144 381 m -14 Y s 1140
 367 m 7 X s 1158 371 m -7 X s 1151 368 m 7 Y s 1158 371 m 6 X s 1164 368 m 7 Y s 1158 371 m 14 Y s 1154 385 m 7 X s 1158 371 m -13 Y s 1154 358 m 7 X s 1164 374 m -6 X s 1158 370 m 7 Y s 1164 374 m 7 X s 1171 370 m 7 Y s 1164 374 m 14 Y s 1160 388 m
 8 X s 1164 374 m -14 Y s 1160 360 m 8 X s 1182 365 m -7 X s 1175 361 m 7 Y s 1182 365 m 6 X s 1188 361 m 7 Y s 1182 365 m 13 Y s 1178 378 m 8 X s 1182 365 m -14 Y s 1178 351 m 8 X s 1199 362 m -7 X s 1192 359 m 7 Y s 1199 362 m 7 X s 1206 359 m 7 Y
 s 1199 362 m 14 Y s 1195 376 m 8 X s 1199 362 m -14 Y s 1195 348 m 8 X s 1217 351 m -7 X s 1210 347 m 7 Y s 1217 351 m 8 X s 1225 347 m 7 Y s 1217 351 m 14 Y s 1214 365 m 7 X s 1217 351 m -14 Y s 1214 337 m 7 X s 1240 339 m -8 X s 1232 336 m 7 Y s
 1240 339 m 7 X s 1247 336 m 7 Y s 1240 339 m 14 Y s 1236 353 m 7 X s 1240 339 m -14 Y s 1236 325 m 7 X s 1262 330 m -7 X s 1255 326 m 8 Y s 1262 330 m 7 X s 1269 326 m 8 Y s 1262 330 m 16 Y s 1258 346 m 8 X s 1262 330 m -16 Y s 1258 314 m 8 X s 1317
 318 m -8 X s 1309 315 m 7 Y s 1317 318 m 7 X s 1324 315 m 7 Y s 1317 318 m 17 Y s 1313 335 m 7 X s 1317 318 m -16 Y s 1313 302 m 7 X s 1350 312 m -7 X s 1343 308 m 7 Y s 1350 312 m 7 X s 1357 308 m 7 Y s 1350 312 m 16 Y s 1347 328 m 7 X s 1350 312 m
 -17 Y s 1347 295 m 7 X s 1397 305 m -8 X s 1389 301 m 7 Y s 1397 305 m 8 X s 1405 301 m 7 Y s 1397 305 m 16 Y s 1393 321 m 7 X s 1397 305 m -16 Y s 1393 289 m 7 X s 1445 309 m -8 X s 1437 306 m 7 Y s 1445 309 m 8 X s 1453 306 m 7 Y s 1445 309 m 16 Y
 s 1441 325 m 7 X s 1445 309 m -16 Y s 1441 293 m 7 X s 1507 295 m -8 X s 1499 292 m 7 Y s 1507 295 m 9 X s 1516 292 m 7 Y s 1507 295 m 17 Y s 1504 312 m 7 X s 1507 295 m -16 Y s 1504 279 m 7 X s 1560 284 m -9 X s 1551 280 m 8 Y s 1560 284 m 8 X s
 1568 280 m 8 Y s 1560 284 m 16 Y s 1556 300 m 7 X s 1560 284 m -16 Y s 1556 268 m 7 X s 1618 291 m -9 X s 1609 287 m 7 Y s 1618 291 m 8 X s 1626 287 m 7 Y s 1618 291 m 16 Y s 1614 307 m 7 X s 1618 291 m -16 Y s 1614 275 m 7 X s 1679 279 m -9 X s
 1670 276 m 7 Y s 1679 279 m 9 X s 1688 276 m 7 Y s 1679 279 m 16 Y s 1675 295 m 7 X s 1679 279 m -16 Y s 1675 263 m 7 X s 1732 272 m -9 X s 1723 269 m 7 Y s 1732 272 m 9 X s 1741 269 m 7 Y s 1732 272 m 17 Y s 1728 289 m 8 X s 1732 272 m -16 Y s 1728
 256 m 8 X s 1866 268 m -10 X s 1856 264 m 7 Y s 1866 268 m 10 X s 1876 264 m 7 Y s 1866 268 m 16 Y s 1863 284 m 7 X s 1866 268 m -16 Y s 1863 252 m 7 X s 0 0 1 c 818 359 m 1118 -101 d s 0 1 0 c 753 1320 m 243 -1035 d s 1 1 1 c black
 gsave  2268 1510 0 0 C 537.856 1437.31 t 0 r /Helvetica findfont 72.6832 sf 0 0 m (Stopping Potential vs. Current\(Violet\)) show NC gr 
 gr  gr showpage
end
%%EOF
