%!PS-Adobe-2.0 EPSF-2.0
%%BoundingBox:  0 0 567 544
%%Title: /home/tan/phys442/photoelectriceffect/report/yellow_general.eps: Stopping Potential vs. Current(Yellow)
%%Creator: ROOT Version 6.18/04
%%CreationDate: Tue Mar  3 19:05:09 2020
%%DocumentNeededResources: ProcSet (FontSetInit)
%%EndComments
%%BeginProlog
80 dict begin
/s {stroke} def /l {lineto} def /m {moveto} def /t {translate} def
/r {rotate} def /rl {roll}  def /R {repeat} def
/d {rlineto} def /rm {rmoveto} def /gr {grestore} def /f {eofill} def
/c {setrgbcolor} def /black {0 setgray} def /sd {setdash} def
/cl {closepath} def /sf {scalefont setfont} def /lw {setlinewidth} def
/box {m dup 0 exch d exch 0 d 0 exch neg d cl} def
/NC{systemdict begin initclip end}def/C{NC box clip newpath}def
/bl {box s} def /bf {gsave box gsave f grestore 1 lw [] 0 sd s grestore} def /Y { 0 exch d} def /X { 0 d} def 
/K {{pop pop 0 moveto} exch kshow} bind def
/ita {/ang 15 def gsave [1 0 ang dup sin exch cos div 1 0 0] concat} def 
/mp {newpath /y exch def /x exch def} def
/side {[w .77 mul w .23 mul] .385 w mul sd w 0 l currentpoint t -144 r} def
/mr {mp x y w2 0 360 arc} def /m24 {mr s} def /m20 {mr f} def
/mb {mp x y w2 add m w2 neg 0 d 0 w neg d w 0 d 0 w d cl} def
/mt {mp x y w2 add m w2 neg w neg d w 0 d cl} def
/w4 {w 4 div} def
/w6 {w 6 div} def
/w8 {w 8 div} def
/m21 {mb f} def /m25 {mb s} def /m22 {mt f} def /m26{mt s} def
/m23 {mp x y w2 sub m w2 w d w neg 0 d cl f} def
/m27 {mp x y w2 add m w3 neg w2 neg d w3 w2 neg d w3 w2 d cl s} def
/m28 {mp x w2 sub y w2 sub w3 add m w3 0 d  0 w3 neg d w3 0 d 0 w3 d w3 0 d  0 w3 d w3 neg 0 d 0 w3 d w3 neg 0 d 0 w3 neg d w3 neg 0 d cl s } def
/m29 {mp gsave x w2 sub y w2 add w3 sub m currentpoint t 4 {side} repeat cl fill gr} def
/m30 {mp gsave x w2 sub y w2 add w3 sub m currentpoint t 4 {side} repeat cl s gr} def
/m31 {mp x y w2 sub m 0 w d x w2 sub y m w 0 d x w2 sub y w2 add m w w neg d x w2 sub y w2 sub m w w d s} def
/m32 {mp x y w2 sub m w2 w d w neg 0 d cl s} def
/m33 {mp x y w2 add m w3 neg w2 neg d w3 w2 neg d w3 w2 d cl f} def
/m34 {mp x w2 sub y w2 sub w3 add m w3 0 d  0 w3 neg d w3 0 d 0 w3 d w3 0 d  0 w3 d w3 neg 0 d 0 w3 d w3 neg 0 d 0 w3 neg d w3 neg 0 d cl f } def
/m35 {mp x y w2 add m w2 neg w2 neg d w2 w2 neg d w2 w2 d w2 neg w2 d x y w2 sub m 0 w d x w2 sub y m w 0 d s} def
/m36 {mb x w2 sub y w2 add m w w neg d x w2 sub y w2 sub m w w d s} def
/m37 {mp x y m w4 neg w2 d w4 neg w2 neg d w2 0 d  w4 neg w2 neg d w2 0 d w4 neg w2 d w2 0 d w4 neg w2 d w4 neg w2 neg d cl s} def
/m38 {mp x w4 sub y w2 add m w4 neg w4 neg d 0 w2 neg d w4 w4 neg d w2 0 d w4 w4 d 0 w2 d w4 neg w4 d w2 neg 0 d x y w2 sub m 0 w d x w2 sub y m w 0 d cl s} def
/m39 {mp x y m w4 neg w2 d w4 neg w2 neg d w2 0 d  w4 neg w2 neg d w2 0 d w4 neg w2 d w2 0 d w4 neg w2 d w4 neg w2 neg d cl f} def
/m40 {mp x y m w4 w2 d w4 w4 neg d w2 neg w4 neg d w2 w4 neg d w4 neg w4 neg d w4 neg w2 d w4 neg w2 neg d w4 neg w4 d w2 w4 d w2 neg w4 d w4 w4 d w4 w2 neg d cl s} def
/m41 {mp x y m w4 w2 d w4 w4 neg d w2 neg w4 neg d w2 w4 neg d w4 neg w4 neg d w4 neg w2 d w4 neg w2 neg d w4 neg w4 d w2 w4 d w2 neg w4 d w4 w4 d w4 w2 neg d cl f} def
/m42 {mp x y w2 add m w8 neg w2 -3 4 div mul d w2 -3 4 div mul w8 neg d w2 3 4 div mul w8 neg d w8 w2 -3 4 div mul d w8 w2 3 4 div mul d w2 3 4 div mul w8 d w2 -3 4 div mul w8 d w8 neg w2 3 4 div mul d cl s} def
/m43 {mp x y w2 add m w8 neg w2 -3 4 div mul d w2 -3 4 div mul w8 neg d w2 3 4 div mul w8 neg d w8 w2 -3 4 div mul d w8 w2 3 4 div mul d w2 3 4 div mul w8 d w2 -3 4 div mul w8 d w8 neg w2 3 4 div mul d cl f} def
/m44 {mp x y m w6 neg w2 d w2 2 3 div mul 0 d w6 neg w2 neg d w2 w6 d 0 w2 -2 3 div mul d w2 neg w6 d w6 w2 neg d w2 -2 3 div mul 0 d w6 w2 d w2 neg w6 neg d 0 w2 2 3 div mul d w2 w6 neg d cl s} def
/m45 {mp x y m w6 neg w2 d w2 2 3 div mul 0 d w6 neg w2 neg d w2 w6 d 0 w2 -2 3 div mul d w2 neg w6 d w6 w2 neg d w2 -2 3 div mul 0 d w6 w2 d w2 neg w6 neg d 0 w2 2 3 div mul d w2 w6 neg d cl f} def
/m46 {mp x y w4 add m w4 neg w4 d w4 neg w4 neg d  w4 w4 neg d w4 neg w4 neg d w4 w4 neg d w4 w4 d w4 w4 neg d w4 w4 d w4 neg w4 d w4 w4 d w4 neg w4 d w4 neg w4 neg d cl s} def
/m47 {mp x y w4 add m w4 neg w4 d w4 neg w4 neg d w4 w4 neg d w4 neg w4 neg d  w4 w4 neg d w4 w4 d w4 w4 neg d w4 w4 d w4 neg w4 d w4 w4 d w4 neg w4 d w4 neg w4 neg d cl f} def
/m48 {mp x y w4 add m w4 neg w4 d w4 neg w4 neg d w4 w4 neg d  w4 neg w4 neg d w4 w4 neg d w4 w4 d w4 w4 neg d w4 w4 d w4 neg w4 d w4 w4 d w4 neg w4 d w4 neg w4 neg d  w4 w4 neg d w4 neg w4 neg d w4 neg w4 d w4 w4 d cl f} def
/m49 {mp x w2 sub w3 add y w2 sub w3 add m  0 w3 neg d w3 0 d 0 w3 d w3 0 d 0 w3 d w3 neg 0 d 0 w3 d w3 neg 0 d 0 w3 neg d w3 neg 0 d 0 w3 neg d w3 0 d 0 w3 d w3 0 d 0 w3 neg d w3 neg 0 d cl f } def
/m2 {mp x y w2 sub m 0 w d x w2 sub y m w 0 d s} def
/m5 {mp x w2 sub y w2 sub m w w d x w2 sub y w2 add m w w neg d s} def
%%IncludeResource: ProcSet (FontSetInit)
%%IncludeResource: font Times-Roman
%%IncludeResource: font Times-Italic
%%IncludeResource: font Times-Bold
%%IncludeResource: font Times-BoldItalic
%%IncludeResource: font Helvetica
%%IncludeResource: font Helvetica-Oblique
%%IncludeResource: font Helvetica-Bold
%%IncludeResource: font Helvetica-BoldOblique
%%IncludeResource: font Courier
%%IncludeResource: font Courier-Oblique
%%IncludeResource: font Courier-Bold
%%IncludeResource: font Courier-BoldOblique
%%IncludeResource: font Symbol
%%IncludeResource: font ZapfDingbats
/reEncode {exch findfont dup length dict begin {1 index /FID eq  {pop pop} {def} ifelse } forall /Encoding exch def currentdict end dup /FontName get exch definefont pop } def [/Times-Bold /Times-Italic /Times-BoldItalic /Helvetica /Helvetica-Oblique
 /Helvetica-Bold /Helvetica-BoldOblique /Courier /Courier-Oblique /Courier-Bold /Courier-BoldOblique /Times-Roman /AvantGarde-Book /AvantGarde-BookOblique /AvantGarde-Demi /AvantGarde-DemiOblique /Bookman-Demi /Bookman-DemiItalic /Bookman-Light
 /Bookman-LightItalic /Helvetica-Narrow /Helvetica-Narrow-Bold /Helvetica-Narrow-BoldOblique /Helvetica-Narrow-Oblique /NewCenturySchlbk-Roman /NewCenturySchlbk-Bold /NewCenturySchlbk-BoldItalic /NewCenturySchlbk-Italic /Palatino-Bold
 /Palatino-BoldItalic /Palatino-Italic /Palatino-Roman ] {ISOLatin1Encoding reEncode } forall
%%EndProlog
%%BeginSetup
%%EndSetup
newpath  gsave  .25 .25 scale  gsave  0 0 t black[  ] 0 sd 3 lw 1 1 1 c 2268 2177 0 0 bf black 1 1 1 c 1814 1741 227 218 bf black 1814 1741 227 218 bl 1 1 1 c 1814 1741 227 218 bf black 1814 1741 227 218 bl 227 218 m 1814 X s 227 270 m -52 Y s 294
 244 m -26 Y s 360 244 m -26 Y s 427 244 m -26 Y s 494 244 m -26 Y s 561 270 m -52 Y s 628 244 m -26 Y s 694 244 m -26 Y s 761 244 m -26 Y s 828 244 m -26 Y s 895 270 m -52 Y s 962 244 m -26 Y s 1028 244 m -26 Y s 1095 244 m -26 Y s 1162 244 m -26 Y
 s 1229 270 m -52 Y s 1296 244 m -26 Y s 1362 244 m -26 Y s 1429 244 m -26 Y s 1496 244 m -26 Y s 1563 270 m -52 Y s 1630 244 m -26 Y s 1696 244 m -26 Y s 1763 244 m -26 Y s 1830 244 m -26 Y s 1897 270 m -52 Y s 1897 270 m -52 Y s 1964 244 m -26 Y s
 2030 244 m -26 Y s
 gsave  2268 2177 0 0 C 204.777 147.895 t 0 r /Helvetica findfont 72.0512 sf 0 0 m (0) show NC gr 
 gsave  2268 2177 0 0 C 508.151 147.895 t 0 r /Helvetica findfont 72.0512 sf 0 0 m (0.5) show NC gr 
 gsave  2268 2177 0 0 C 875.991 147.895 t 0 r /Helvetica findfont 72.0512 sf 0 0 m (1) show NC gr 
 gsave  2268 2177 0 0 C 1179.36 147.895 t 0 r /Helvetica findfont 72.0512 sf 0 0 m (1.5) show NC gr 
 gsave  2268 2177 0 0 C 1543.41 147.895 t 0 r /Helvetica findfont 72.0512 sf 0 0 m (2) show NC gr 
 gsave  2268 2177 0 0 C 1846.79 147.895 t 0 r /Helvetica findfont 72.0512 sf 0 0 m (2.5) show NC gr 
 gsave  2268 2177 0 0 C 1691.31 79.6355 t 0 r /Helvetica findfont 72.0512 sf 0 0 m (Voltage [V]) show NC gr  227 218 m 1741 Y s 281 439 m -54 X s 254 503 m -27 X s 254 567 m -27 X s 254 631 m -27 X s 254 694 m -27 X s 281 758 m -54 X s 254 822 m -27
 X s 254 886 m -27 X s 254 950 m -27 X s 254 1013 m -27 X s 281 1077 m -54 X s 254 1141 m -27 X s 254 1205 m -27 X s 254 1269 m -27 X s 254 1332 m -27 X s 281 1396 m -54 X s 254 1460 m -27 X s 254 1524 m -27 X s 254 1587 m -27 X s 254 1651 m -27 X s
 281 1715 m -54 X s 281 439 m -54 X s 254 376 m -27 X s 254 312 m -27 X s 254 248 m -27 X s 281 1715 m -54 X s 254 1779 m -27 X s 254 1843 m -27 X s 254 1906 m -27 X s
 gsave  2268 2177 0 0 C 185.816 409.554 t 0 r /Helvetica findfont 72.0512 sf 0 0 m (1) show NC gr 
 gsave  2268 2177 0 0 C 144.102 409.554 t 0 r /Symbol findfont 72.0512 sf 0 0 m (-) show NC gr 
 gsave  2268 2177 0 0 C 174.44 731.888 t 0 r /Helvetica findfont 72.0512 sf 0 0 m (0) show NC gr 
 gsave  2268 2177 0 0 C 185.816 1050.43 t 0 r /Helvetica findfont 72.0512 sf 0 0 m (1) show NC gr 
 gsave  2268 2177 0 0 C 174.44 1368.97 t 0 r /Helvetica findfont 72.0512 sf 0 0 m (2) show NC gr 
 gsave  2268 2177 0 0 C 174.44 1691.31 t 0 r /Helvetica findfont 72.0512 sf 0 0 m (3) show NC gr 
 gsave  2268 2177 0 0 C 98.5964 1554.79 t 90 r /Helvetica findfont 72.0512 sf 0 0 m (Current [mA]) show NC gr  1 0 0 c 1 1 1 c black /w 2 def /w2 {w 2 div} def /w3 {w 3 div} def 227 1779 294 1776 328 1769 334 1763 342 1670 346 1626 355 1543 361 1482
 367 1469 372 1425 394 1221 429 1001 461 835 488 742 527 640 564 580 593 545 628 522 663 500 701 481 770 468 908 446 1032 433 1167 423 1298 417 1567 401 1698 395 1866 385 28 { m20} R 1 0 0 c 227 1779 m 35 Y s 227 1814 m 7 X s 227 1779 m -35 Y s 227
 1744 m 7 X s 294 1776 m -2 X s 292 1768 m 15 Y s 294 1776 m 3 X s 297 1768 m 15 Y s 294 1776 m 35 Y s 287 1811 m 15 X s 294 1776 m -35 Y s 287 1741 m 15 X s 328 1769 m -3 X s 325 1762 m 15 Y s 328 1769 m 2 X s 330 1762 m 15 Y s 328 1769 m 35 Y s 320
 1804 m 15 X s 328 1769 m -35 Y s 320 1734 m 15 X s 334 1763 m -2 X s 332 1755 m 15 Y s 334 1763 m 3 X s 337 1755 m 15 Y s 334 1763 m 35 Y s 327 1798 m 15 X s 334 1763 m -35 Y s 327 1728 m 15 X s 342 1670 m -2 X s 340 1663 m 15 Y s 342 1670 m 3 X s
 345 1663 m 15 Y s 342 1670 m 35 Y s 335 1705 m 15 X s 342 1670 m -35 Y s 335 1635 m 15 X s 346 1626 m -2 X s 344 1618 m 15 Y s 346 1626 m 3 X s 349 1618 m 15 Y s 346 1626 m 32 Y s 339 1658 m 15 X s 346 1626 m -32 Y s 339 1594 m 15 X s 355 1543 m -3
 X s 352 1535 m 15 Y s 355 1543 m 3 X s 358 1535 m 15 Y s 355 1543 m 32 Y s 347 1575 m 16 X s 355 1543 m -32 Y s 347 1511 m 16 X s 361 1482 m -3 X s 358 1475 m 15 Y s 361 1482 m 3 X s 364 1475 m 15 Y s 361 1482 m 29 Y s 353 1511 m 16 X s 361 1482 m
 -28 Y s 353 1454 m 16 X s 367 1469 m -3 X s 364 1462 m 15 Y s 367 1469 m 3 X s 370 1462 m 15 Y s 367 1469 m 29 Y s 359 1498 m 16 X s 367 1469 m -28 Y s 359 1441 m 16 X s 372 1425 m -2 X s 370 1417 m 15 Y s 372 1425 m 3 X s 375 1417 m 15 Y s 372 1425
 m 29 Y s 365 1454 m 15 X s 372 1425 m -29 Y s 365 1396 m 15 X s 394 1221 m -2 X s 392 1213 m 15 Y s 394 1221 m 3 X s 397 1213 m 15 Y s 394 1221 m 25 Y s 387 1246 m 15 X s 394 1221 m -26 Y s 387 1195 m 15 X s 429 1001 m -4 X s 425 993 m 15 Y s 429
 1001 m 3 X s 432 993 m 15 Y s 429 1001 m 22 Y s 421 1023 m 15 X s 429 1001 m -23 Y s 421 978 m 15 X s 461 835 m -3 X s 458 827 m 15 Y s 461 835 m 4 X s 465 827 m 15 Y s 461 835 m 16 Y s 454 851 m 15 X s 461 835 m -16 Y s 454 819 m 15 X s 488 742 m
 -3 X s 485 735 m 15 Y s 488 742 m 3 X s 491 735 m 15 Y s 488 742 m 16 Y s 480 758 m 16 X s 488 742 m -16 Y s 480 726 m 16 X s 527 640 m -3 X s 524 633 m 15 Y s 527 640 m 4 X s 531 633 m 15 Y s 527 640 m 19 Y s 520 659 m 15 X s 527 640 m -19 Y s 520
 621 m 15 X s 564 580 m -3 X s 561 572 m 15 Y s 564 580 m 3 X s 567 572 m 15 Y s 564 580 m 19 Y s 557 599 m 15 X s 564 580 m -19 Y s 557 561 m 15 X s 593 545 m -4 X s 589 537 m 15 Y s 593 545 m 5 X s 598 537 m 15 Y s 593 545 m 19 Y s 586 564 m 15 X s
 593 545 m -20 Y s 586 525 m 15 X s 628 522 m -4 X s 624 515 m 15 Y s 628 522 m 4 X s 632 515 m 15 Y s 628 522 m 19 Y s 621 541 m 15 X s 628 522 m -19 Y s 621 503 m 15 X s 663 500 m -4 X s 659 492 m 16 Y s 663 500 m 4 X s 667 492 m 16 Y s 663 500 m
 22 Y s 655 522 m 16 X s 663 500 m -22 Y s 655 478 m 16 X s 701 481 m -5 X s 696 473 m 15 Y s 701 481 m 5 X s 706 473 m 15 Y s 701 481 m 22 Y s 693 503 m 16 X s 701 481 m -23 Y s 693 458 m 16 X s 770 468 m -5 X s 765 460 m 16 Y s 770 468 m 5 X s 775
 460 m 16 Y s 770 468 m 22 Y s 762 490 m 15 X s 770 468 m -22 Y s 762 446 m 15 X s 908 446 m -5 X s 903 438 m 15 Y s 908 446 m 5 X s 913 438 m 15 Y s 908 446 m 22 Y s 901 468 m 15 X s 908 446 m -23 Y s 901 423 m 15 X s 1032 433 m -6 X s 1026 425 m 16
 Y s 1032 433 m 6 X s 1038 425 m 16 Y s 1032 433 m 22 Y s 1024 455 m 15 X s 1032 433 m -22 Y s 1024 411 m 15 X s 1167 423 m -6 X s 1161 416 m 15 Y s 1167 423 m 7 X s 1174 416 m 15 Y s 1167 423 m 23 Y s 1160 446 m 15 X s 1167 423 m -22 Y s 1160 401 m
 15 X s 1298 417 m -8 X s 1290 409 m 16 Y s 1298 417 m 7 X s 1305 409 m 16 Y s 1298 417 m 22 Y s 1290 439 m 15 X s 1298 417 m -22 Y s 1290 395 m 15 X s 1567 401 m -9 X s 1558 393 m 16 Y s 1567 401 m 8 X s 1575 393 m 16 Y s 1567 401 m 22 Y s 1559 423
 m 15 X s 1567 401 m -22 Y s 1559 379 m 15 X s 1698 395 m -10 X s 1688 387 m 15 Y s 1698 395 m 9 X s 1707 387 m 15 Y s 1698 395 m 22 Y s 1690 417 m 15 X s 1698 395 m -23 Y s 1690 372 m 15 X s 1866 385 m -10 X s 1856 378 m 15 Y s 1866 385 m 10 X s
 1876 378 m 15 Y s 1866 385 m 22 Y s 1858 407 m 16 X s 1866 385 m -22 Y s 1858 363 m 16 X s 1 1 1 c black
 gsave  2268 2177 0 0 C 398.178 2074.32 t 0 r /Helvetica findfont 87.2199 sf 0 0 m (Stopping Potential vs. Current\(Yellow\)) show NC gr 
 gr  gr showpage
end
%%EOF
