%!PS-Adobe-2.0
%%Title: /home/tan/phys442/photoelectriceffect/report/ps1.ps: KEK
%%Creator: ROOT Version 6.18/04
%%CreationDate: Sat Feb 29 20:13:32 2020
%%Orientation: Landscape
%%DocumentNeededResources: ProcSet (FontSetInit)
%%EndComments
%%BeginProlog
/s {stroke} def /l {lineto} def /m {moveto} def /t {translate} def
/r {rotate} def /rl {roll}  def /R {repeat} def
/d {rlineto} def /rm {rmoveto} def /gr {grestore} def /f {eofill} def
/c {setrgbcolor} def /black {0 setgray} def /sd {setdash} def
/cl {closepath} def /sf {scalefont setfont} def /lw {setlinewidth} def
/box {m dup 0 exch d exch 0 d 0 exch neg d cl} def
/NC{systemdict begin initclip end}def/C{NC box clip newpath}def
/bl {box s} def /bf {gsave box gsave f grestore 1 lw [] 0 sd s grestore} def /Y { 0 exch d} def /X { 0 d} def 
/K {{pop pop 0 moveto} exch kshow} bind def
/ita {/ang 15 def gsave [1 0 ang dup sin exch cos div 1 0 0] concat} def 
/mp {newpath /y exch def /x exch def} def
/side {[w .77 mul w .23 mul] .385 w mul sd w 0 l currentpoint t -144 r} def
/mr {mp x y w2 0 360 arc} def /m24 {mr s} def /m20 {mr f} def
/mb {mp x y w2 add m w2 neg 0 d 0 w neg d w 0 d 0 w d cl} def
/mt {mp x y w2 add m w2 neg w neg d w 0 d cl} def
/w4 {w 4 div} def
/w6 {w 6 div} def
/w8 {w 8 div} def
/m21 {mb f} def /m25 {mb s} def /m22 {mt f} def /m26{mt s} def
/m23 {mp x y w2 sub m w2 w d w neg 0 d cl f} def
/m27 {mp x y w2 add m w3 neg w2 neg d w3 w2 neg d w3 w2 d cl s} def
/m28 {mp x w2 sub y w2 sub w3 add m w3 0 d  0 w3 neg d w3 0 d 0 w3 d w3 0 d  0 w3 d w3 neg 0 d 0 w3 d w3 neg 0 d 0 w3 neg d w3 neg 0 d cl s } def
/m29 {mp gsave x w2 sub y w2 add w3 sub m currentpoint t 4 {side} repeat cl fill gr} def
/m30 {mp gsave x w2 sub y w2 add w3 sub m currentpoint t 4 {side} repeat cl s gr} def
/m31 {mp x y w2 sub m 0 w d x w2 sub y m w 0 d x w2 sub y w2 add m w w neg d x w2 sub y w2 sub m w w d s} def
/m32 {mp x y w2 sub m w2 w d w neg 0 d cl s} def
/m33 {mp x y w2 add m w3 neg w2 neg d w3 w2 neg d w3 w2 d cl f} def
/m34 {mp x w2 sub y w2 sub w3 add m w3 0 d  0 w3 neg d w3 0 d 0 w3 d w3 0 d  0 w3 d w3 neg 0 d 0 w3 d w3 neg 0 d 0 w3 neg d w3 neg 0 d cl f } def
/m35 {mp x y w2 add m w2 neg w2 neg d w2 w2 neg d w2 w2 d w2 neg w2 d x y w2 sub m 0 w d x w2 sub y m w 0 d s} def
/m36 {mb x w2 sub y w2 add m w w neg d x w2 sub y w2 sub m w w d s} def
/m37 {mp x y m w4 neg w2 d w4 neg w2 neg d w2 0 d  w4 neg w2 neg d w2 0 d w4 neg w2 d w2 0 d w4 neg w2 d w4 neg w2 neg d cl s} def
/m38 {mp x w4 sub y w2 add m w4 neg w4 neg d 0 w2 neg d w4 w4 neg d w2 0 d w4 w4 d 0 w2 d w4 neg w4 d w2 neg 0 d x y w2 sub m 0 w d x w2 sub y m w 0 d cl s} def
/m39 {mp x y m w4 neg w2 d w4 neg w2 neg d w2 0 d  w4 neg w2 neg d w2 0 d w4 neg w2 d w2 0 d w4 neg w2 d w4 neg w2 neg d cl f} def
/m40 {mp x y m w4 w2 d w4 w4 neg d w2 neg w4 neg d w2 w4 neg d w4 neg w4 neg d w4 neg w2 d w4 neg w2 neg d w4 neg w4 d w2 w4 d w2 neg w4 d w4 w4 d w4 w2 neg d cl s} def
/m41 {mp x y m w4 w2 d w4 w4 neg d w2 neg w4 neg d w2 w4 neg d w4 neg w4 neg d w4 neg w2 d w4 neg w2 neg d w4 neg w4 d w2 w4 d w2 neg w4 d w4 w4 d w4 w2 neg d cl f} def
/m42 {mp x y w2 add m w8 neg w2 -3 4 div mul d w2 -3 4 div mul w8 neg d w2 3 4 div mul w8 neg d w8 w2 -3 4 div mul d w8 w2 3 4 div mul d w2 3 4 div mul w8 d w2 -3 4 div mul w8 d w8 neg w2 3 4 div mul d cl s} def
/m43 {mp x y w2 add m w8 neg w2 -3 4 div mul d w2 -3 4 div mul w8 neg d w2 3 4 div mul w8 neg d w8 w2 -3 4 div mul d w8 w2 3 4 div mul d w2 3 4 div mul w8 d w2 -3 4 div mul w8 d w8 neg w2 3 4 div mul d cl f} def
/m44 {mp x y m w6 neg w2 d w2 2 3 div mul 0 d w6 neg w2 neg d w2 w6 d 0 w2 -2 3 div mul d w2 neg w6 d w6 w2 neg d w2 -2 3 div mul 0 d w6 w2 d w2 neg w6 neg d 0 w2 2 3 div mul d w2 w6 neg d cl s} def
/m45 {mp x y m w6 neg w2 d w2 2 3 div mul 0 d w6 neg w2 neg d w2 w6 d 0 w2 -2 3 div mul d w2 neg w6 d w6 w2 neg d w2 -2 3 div mul 0 d w6 w2 d w2 neg w6 neg d 0 w2 2 3 div mul d w2 w6 neg d cl f} def
/m46 {mp x y w4 add m w4 neg w4 d w4 neg w4 neg d  w4 w4 neg d w4 neg w4 neg d w4 w4 neg d w4 w4 d w4 w4 neg d w4 w4 d w4 neg w4 d w4 w4 d w4 neg w4 d w4 neg w4 neg d cl s} def
/m47 {mp x y w4 add m w4 neg w4 d w4 neg w4 neg d w4 w4 neg d w4 neg w4 neg d  w4 w4 neg d w4 w4 d w4 w4 neg d w4 w4 d w4 neg w4 d w4 w4 d w4 neg w4 d w4 neg w4 neg d cl f} def
/m48 {mp x y w4 add m w4 neg w4 d w4 neg w4 neg d w4 w4 neg d  w4 neg w4 neg d w4 w4 neg d w4 w4 d w4 w4 neg d w4 w4 d w4 neg w4 d w4 w4 d w4 neg w4 d w4 neg w4 neg d  w4 w4 neg d w4 neg w4 neg d w4 neg w4 d w4 w4 d cl f} def
/m49 {mp x w2 sub w3 add y w2 sub w3 add m  0 w3 neg d w3 0 d 0 w3 d w3 0 d 0 w3 d w3 neg 0 d 0 w3 d w3 neg 0 d 0 w3 neg d w3 neg 0 d 0 w3 neg d w3 0 d 0 w3 d w3 0 d 0 w3 neg d w3 neg 0 d cl f } def
/m2 {mp x y w2 sub m 0 w d x w2 sub y m w 0 d s} def
/m5 {mp x w2 sub y w2 sub m w w d x w2 sub y w2 add m w w neg d s} def
%%IncludeResource: ProcSet (FontSetInit)
%%IncludeResource: font Times-Roman
%%IncludeResource: font Times-Italic
%%IncludeResource: font Times-Bold
%%IncludeResource: font Times-BoldItalic
%%IncludeResource: font Helvetica
%%IncludeResource: font Helvetica-Oblique
%%IncludeResource: font Helvetica-Bold
%%IncludeResource: font Helvetica-BoldOblique
%%IncludeResource: font Courier
%%IncludeResource: font Courier-Oblique
%%IncludeResource: font Courier-Bold
%%IncludeResource: font Courier-BoldOblique
%%IncludeResource: font Symbol
%%IncludeResource: font ZapfDingbats
/reEncode {exch findfont dup length dict begin {1 index /FID eq  {pop pop} {def} ifelse } forall /Encoding exch def currentdict end dup /FontName get exch definefont pop } def [/Times-Bold /Times-Italic /Times-BoldItalic /Helvetica /Helvetica-Oblique
 /Helvetica-Bold /Helvetica-BoldOblique /Courier /Courier-Oblique /Courier-Bold /Courier-BoldOblique /Times-Roman /AvantGarde-Book /AvantGarde-BookOblique /AvantGarde-Demi /AvantGarde-DemiOblique /Bookman-Demi /Bookman-DemiItalic /Bookman-Light
 /Bookman-LightItalic /Helvetica-Narrow /Helvetica-Narrow-Bold /Helvetica-Narrow-BoldOblique /Helvetica-Narrow-Oblique /NewCenturySchlbk-Roman /NewCenturySchlbk-Bold /NewCenturySchlbk-BoldItalic /NewCenturySchlbk-Italic /Palatino-Bold
 /Palatino-BoldItalic /Palatino-Italic /Palatino-Roman ] {ISOLatin1Encoding reEncode } forall/Zone {/iy exch def /ix exch def  ix 1 sub  3144 mul  1 iy sub  2224 mul t} def
%%EndProlog
%%BeginSetup
%%EndSetup
newpath  gsave  90 r 0 -594 t  28 20 t .25 .25 scale  gsave 
%%Page: 1 1
 gsave  gsave 
 1 1 Zone
 gsave  0 0 t black[  ] 0 sd 3 lw 1 1 1 c 2363 2268 0 0 bf black 1 1 1 c 1890 1814 236 227 bf black 1890 1814 236 227 bl 1 1 1 c 1890 1814 236 227 bf black 1890 1814 236 227 bl 236 227 m 1890 X s 236 281 m -54 Y s 306 254 m -27 Y s 375 254 m -27 Y s
 445 254 m -27 Y s 515 254 m -27 Y s 584 281 m -54 Y s 654 254 m -27 Y s 723 254 m -27 Y s 793 254 m -27 Y s 863 254 m -27 Y s 932 281 m -54 Y s 1002 254 m -27 Y s 1071 254 m -27 Y s 1141 254 m -27 Y s 1211 254 m -27 Y s 1280 281 m -54 Y s 1350 254 m
 -27 Y s 1419 254 m -27 Y s 1489 254 m -27 Y s 1558 254 m -27 Y s 1628 281 m -54 Y s 1698 254 m -27 Y s 1767 254 m -27 Y s 1837 254 m -27 Y s 1906 254 m -27 Y s 1976 281 m -54 Y s 1976 281 m -54 Y s 2046 254 m -27 Y s 2115 254 m -27 Y s
 gsave  2363 2268 0 0 C 213.339 154.078 t 0 r /Helvetica findfont 75.0638 sf 0 0 m (0) show NC gr 
 gsave  2363 2268 0 0 C 529.397 154.078 t 0 r /Helvetica findfont 75.0638 sf 0 0 m (0.5) show NC gr 
 gsave  2363 2268 0 0 C 912.618 154.078 t 0 r /Helvetica findfont 75.0638 sf 0 0 m (1) show NC gr 
 gsave  2363 2268 0 0 C 1228.68 154.078 t 0 r /Helvetica findfont 75.0638 sf 0 0 m (1.5) show NC gr 
 gsave  2363 2268 0 0 C 1607.95 154.078 t 0 r /Helvetica findfont 75.0638 sf 0 0 m (2) show NC gr 
 gsave  2363 2268 0 0 C 1924 154.078 t 0 r /Helvetica findfont 75.0638 sf 0 0 m (2.5) show NC gr 
 gsave  2363 2268 0 0 C 1762.02 82.9652 t 0 r /Helvetica findfont 75.0638 sf 0 0 m (Voltage [V]) show NC gr  236 227 m 1814 Y s 293 458 m -57 X s 265 524 m -29 X s 265 591 m -29 X s 265 657 m -29 X s 265 724 m -29 X s 293 790 m -57 X s 265 856 m -29
 X s 265 923 m -29 X s 265 989 m -29 X s 265 1056 m -29 X s 293 1122 m -57 X s 265 1189 m -29 X s 265 1255 m -29 X s 265 1322 m -29 X s 265 1388 m -29 X s 293 1454 m -57 X s 265 1521 m -29 X s 265 1587 m -29 X s 265 1654 m -29 X s 265 1720 m -29 X s
 293 1787 m -57 X s 293 458 m -57 X s 265 391 m -29 X s 265 325 m -29 X s 265 258 m -29 X s 293 1787 m -57 X s 265 1853 m -29 X s 265 1920 m -29 X s 265 1986 m -29 X s
 gsave  2363 2268 0 0 C 193.586 426.678 t 0 r /Helvetica findfont 75.0638 sf 0 0 m (1) show NC gr 
 gsave  2363 2268 0 0 C 150.128 426.678 t 0 r /Symbol findfont 75.0638 sf 0 0 m (-) show NC gr 
 gsave  2363 2268 0 0 C 181.733 762.49 t 0 r /Helvetica findfont 75.0638 sf 0 0 m (0) show NC gr 
 gsave  2363 2268 0 0 C 193.586 1094.35 t 0 r /Helvetica findfont 75.0638 sf 0 0 m (1) show NC gr 
 gsave  2363 2268 0 0 C 181.733 1426.21 t 0 r /Helvetica findfont 75.0638 sf 0 0 m (2) show NC gr 
 gsave  2363 2268 0 0 C 181.733 1762.02 t 0 r /Helvetica findfont 75.0638 sf 0 0 m (3) show NC gr 
 gsave  2363 2268 0 0 C 102.719 1619.8 t 90 r /Helvetica findfont 75.0638 sf 0 0 m (Current [mA]) show NC gr  1 0 0 c 1 1 1 c black /w 2 def /w2 {w 2 div} def /w3 {w 3 div} def 236 1853 307 1850 341 1843 348 1837 357 1740 361 1694 370 1607 376 1544
 382 1531 388 1484 411 1272 446 1042 481 870 508 773 549 667 588 604 618 567 654 544 691 521 730 501 802 488 946 464 1075 451 1216 441 1352 434 1632 418 1769 411 1944 401 28 { m20} R 1 0 0 c 236 1853 m 37 Y s 236 1890 m 8 X s 236 1853 m -36 Y s 236
 1817 m 8 X s 307 1850 m -3 X s 304 1842 m 16 Y s 307 1850 m 2 X s 309 1842 m 16 Y s 307 1850 m 36 Y s 299 1886 m 15 X s 307 1850 m -37 Y s 299 1813 m 15 X s 341 1843 m -2 X s 339 1835 m 16 Y s 341 1843 m 3 X s 344 1835 m 16 Y s 341 1843 m 37 Y s 333
 1880 m 16 X s 341 1843 m -36 Y s 333 1807 m 16 X s 348 1837 m -2 X s 346 1829 m 16 Y s 348 1837 m 3 X s 351 1829 m 16 Y s 348 1837 m 36 Y s 340 1873 m 16 X s 348 1837 m -37 Y s 340 1800 m 16 X s 357 1740 m -3 X s 354 1732 m 16 Y s 357 1740 m 2 X s
 359 1732 m 16 Y s 357 1740 m 37 Y s 349 1777 m 16 X s 357 1740 m -36 Y s 349 1704 m 16 X s 361 1694 m -3 X s 358 1686 m 16 Y s 361 1694 m 3 X s 364 1686 m 16 Y s 361 1694 m 33 Y s 353 1727 m 16 X s 361 1694 m -33 Y s 353 1661 m 16 X s 370 1607 m -3
 X s 367 1599 m 16 Y s 370 1607 m 3 X s 373 1599 m 16 Y s 370 1607 m 34 Y s 362 1641 m 16 X s 370 1607 m -33 Y s 362 1574 m 16 X s 376 1544 m -3 X s 373 1536 m 16 Y s 376 1544 m 3 X s 379 1536 m 16 Y s 376 1544 m 30 Y s 368 1574 m 16 X s 376 1544 m
 -30 Y s 368 1514 m 16 X s 382 1531 m -2 X s 380 1523 m 16 Y s 382 1531 m 3 X s 385 1523 m 16 Y s 382 1531 m 30 Y s 374 1561 m 16 X s 382 1531 m -30 Y s 374 1501 m 16 X s 388 1484 m -3 X s 385 1476 m 16 Y s 388 1484 m 3 X s 391 1476 m 16 Y s 388 1484
 m 30 Y s 380 1514 m 16 X s 388 1484 m -30 Y s 380 1454 m 16 X s 411 1272 m -3 X s 408 1264 m 16 Y s 411 1272 m 3 X s 414 1264 m 16 Y s 411 1272 m 26 Y s 403 1298 m 16 X s 411 1272 m -27 Y s 403 1245 m 16 X s 446 1042 m -3 X s 443 1035 m 15 Y s 446
 1042 m 4 X s 450 1035 m 15 Y s 446 1042 m 24 Y s 439 1066 m 15 X s 446 1042 m -23 Y s 439 1019 m 15 X s 481 870 m -4 X s 477 862 m 16 Y s 481 870 m 3 X s 484 862 m 16 Y s 481 870 m 16 Y s 473 886 m 15 X s 481 870 m -17 Y s 473 853 m 15 X s 508 773 m
 -3 X s 505 765 m 16 Y s 508 773 m 4 X s 512 765 m 16 Y s 508 773 m 17 Y s 500 790 m 16 X s 508 773 m -16 Y s 500 757 m 16 X s 549 667 m -3 X s 546 659 m 16 Y s 549 667 m 4 X s 553 659 m 16 Y s 549 667 m 20 Y s 542 687 m 15 X s 549 667 m -20 Y s 542
 647 m 15 X s 588 604 m -4 X s 584 596 m 16 Y s 588 604 m 3 X s 591 596 m 16 Y s 588 604 m 20 Y s 580 624 m 16 X s 588 604 m -20 Y s 580 584 m 16 X s 618 567 m -4 X s 614 559 m 16 Y s 618 567 m 4 X s 622 559 m 16 Y s 618 567 m 20 Y s 610 587 m 16 X s
 618 567 m -20 Y s 610 547 m 16 X s 654 544 m -4 X s 650 536 m 16 Y s 654 544 m 5 X s 659 536 m 16 Y s 654 544 m 20 Y s 647 564 m 15 X s 654 544 m -20 Y s 647 524 m 15 X s 691 521 m -4 X s 687 513 m 16 Y s 691 521 m 4 X s 695 513 m 16 Y s 691 521 m
 23 Y s 683 544 m 16 X s 691 521 m -23 Y s 683 498 m 16 X s 730 501 m -5 X s 725 493 m 16 Y s 730 501 m 5 X s 735 493 m 16 Y s 730 501 m 23 Y s 722 524 m 16 X s 730 501 m -23 Y s 722 478 m 16 X s 802 488 m -5 X s 797 480 m 16 Y s 802 488 m 5 X s 807
 480 m 16 Y s 802 488 m 23 Y s 794 511 m 16 X s 802 488 m -24 Y s 794 464 m 16 X s 946 464 m -5 X s 941 456 m 16 Y s 946 464 m 6 X s 952 456 m 16 Y s 946 464 m 24 Y s 938 488 m 16 X s 946 464 m -23 Y s 938 441 m 16 X s 1075 451 m -6 X s 1069 443 m 16
 Y s 1075 451 m 6 X s 1081 443 m 16 Y s 1075 451 m 23 Y s 1067 474 m 16 X s 1075 451 m -23 Y s 1067 428 m 16 X s 1216 441 m -7 X s 1209 433 m 16 Y s 1216 441 m 7 X s 1223 433 m 16 Y s 1216 441 m 23 Y s 1208 464 m 16 X s 1216 441 m -23 Y s 1208 418 m
 16 X s 1352 434 m -8 X s 1344 427 m 15 Y s 1352 434 m 7 X s 1359 427 m 15 Y s 1352 434 m 24 Y s 1344 458 m 16 X s 1352 434 m -23 Y s 1344 411 m 16 X s 1632 418 m -9 X s 1623 410 m 16 Y s 1632 418 m 9 X s 1641 410 m 16 Y s 1632 418 m 23 Y s 1624 441
 m 16 X s 1632 418 m -23 Y s 1624 395 m 16 X s 1769 411 m -10 X s 1759 403 m 16 Y s 1769 411 m 9 X s 1778 403 m 16 Y s 1769 411 m 23 Y s 1761 434 m 16 X s 1769 411 m -23 Y s 1761 388 m 16 X s 1944 401 m -10 X s 1934 393 m 16 Y s 1944 401 m 10 X s
 1954 393 m 16 Y s 1944 401 m 23 Y s 1936 424 m 16 X s 1944 401 m -23 Y s 1936 378 m 16 X s 1 1 1 c black
 gsave  2363 2268 0 0 C 1082.5 2157.1 t 0 r /Helvetica findfont 98.7681 sf 0 0 m (KEK) show NC gr  gr showpage
 gr 
%%Trailer
%%Pages:  1
 gr  gr  gr 
%%EOF
