\relax 
\citation{a_history}
\citation{history2}
\citation{work}
\citation{Melissinos}
\newlabel{FirstPage}{{}{1}{}{}{}}
\@writefile{toc}{\contentsline {title}{Photoelectric Effect}{1}{}}
\@writefile{toc}{\contentsline {abstract}{Abstract}{1}{}}
\@writefile{toc}{\contentsline {section}{\numberline {I}Introduction}{1}{}}
\@writefile{toc}{\contentsline {subsection}{\numberline {A}History}{1}{}}
\@writefile{toc}{\contentsline {section}{\numberline {II}Theory}{1}{}}
\newlabel{eq:3}{{3}{1}{}{}{}}
\@writefile{toc}{\contentsline {section}{\numberline {III}Experiment}{1}{}}
\@writefile{toc}{\contentsline {subsection}{\numberline {A}Apparatus and Setup}{1}{}}
\@writefile{lof}{\contentsline {figure}{\numberline {1}{\ignorespaces General view of the apparatus}}{1}{}}
\newlabel{fig:app}{{1}{1}{}{}{}}
\citation{Gulmez}
\citation{Gulmez}
\citation{Gulmez}
\@writefile{lof}{\contentsline {figure}{\numberline {2}{\ignorespaces Light is sent though the lens to the left of the box, then light refracted by prism and reflected from the mirror to the photocell.}}{2}{}}
\newlabel{fig:box}{{2}{2}{}{}{}}
\@writefile{lof}{\contentsline {figure}{\numberline {3}{\ignorespaces Our setup pretty much same as this setup\cite  {Gulmez} except we used digital multimeters to measure current and voltage.}}{2}{}}
\newlabel{fig:circuit}{{3}{2}{}{}{}}
\@writefile{toc}{\contentsline {subsection}{\numberline {B}Procedure}{2}{}}
\@writefile{toc}{\contentsline {section}{\numberline {IV}Data Analysis}{2}{}}
\@writefile{lof}{\contentsline {figure}{\numberline {4}{\ignorespaces Photocell current and stopping voltage readings. Notice that exponential decay when current is less than zero. Note that photocell current amplified by $10^{10}$ in order to measure properly. At each data point, error bars are drawn.}}{2}{}}
\newlabel{fig:yellow_general}{{4}{2}{}{}{}}
\@writefile{lof}{\contentsline {figure}{\numberline {5}{\ignorespaces Intersection point of green(Fig.\nobreakspace  {}6{}{}{}\hbox {}) and blue(Fig.\nobreakspace  {}7{}{}{}\hbox {}) lines gives us stopping voltage for yellow color.}}{3}{}}
\newlabel{fig:yellow}{{5}{3}{}{}{}}
\@writefile{lof}{\contentsline {figure}{\numberline {6}{\ignorespaces Line regression for positive current values for yellow color. At each data point, error bars are drawn.}}{3}{}}
\newlabel{fig:yellow_positive}{{6}{3}{}{}{}}
\@writefile{lof}{\contentsline {figure}{\numberline {7}{\ignorespaces Line regression for negative current values for yellow color. At each data point, error bars are drawn.}}{3}{}}
\newlabel{fig:yellow_negative}{{7}{3}{}{}{}}
\@writefile{lof}{\contentsline {figure}{\numberline {8}{\ignorespaces Intersection point of green(Fig.\nobreakspace  {}9{}{}{}\hbox {}) and blue(Fig.\nobreakspace  {}10{}{}{}\hbox {}) lines gives us stopping voltage for green color.}}{3}{}}
\newlabel{fig:green}{{8}{3}{}{}{}}
\@writefile{lof}{\contentsline {figure}{\numberline {9}{\ignorespaces Line regression for positive current values for green color. At each data point, error bars are drawn.}}{3}{}}
\newlabel{fig:green_positive}{{9}{3}{}{}{}}
\@writefile{lof}{\contentsline {figure}{\numberline {10}{\ignorespaces Line regression for negative current values for green color. At each data point, error bars are drawn.}}{3}{}}
\newlabel{fig:green_negative}{{10}{3}{}{}{}}
\@writefile{lof}{\contentsline {figure}{\numberline {11}{\ignorespaces Intersection point of green(Fig.\nobreakspace  {}12{}{}{}\hbox {}) and blue(Fig.\nobreakspace  {}13{}{}{}\hbox {}) lines gives us stopping voltage for cyan color.}}{4}{}}
\newlabel{fig:cyan}{{11}{4}{}{}{}}
\@writefile{lof}{\contentsline {figure}{\numberline {12}{\ignorespaces Line regression for positive current values for cyan color. At each data point, error bars are drawn.}}{4}{}}
\newlabel{fig:cyan_positive}{{12}{4}{}{}{}}
\@writefile{lof}{\contentsline {figure}{\numberline {13}{\ignorespaces Line regression for negative current values for cyan color. At each data point, error bars are drawn.}}{4}{}}
\newlabel{fig:cyan_negative}{{13}{4}{}{}{}}
\@writefile{lof}{\contentsline {figure}{\numberline {14}{\ignorespaces Intersection point of green(Fig.\nobreakspace  {}15{}{}{}\hbox {}) and blue(Fig.\nobreakspace  {}16{}{}{}\hbox {}) lines gives us stopping voltage for blue color.}}{4}{}}
\newlabel{fig:blue}{{14}{4}{}{}{}}
\@writefile{lof}{\contentsline {figure}{\numberline {15}{\ignorespaces Line regression for positive current values for blue color. At each data point, error bars are drawn.}}{4}{}}
\newlabel{fig:blue_positive}{{15}{4}{}{}{}}
\@writefile{lof}{\contentsline {figure}{\numberline {16}{\ignorespaces Line regression for negative current values for blue color. At each data point, error bars are drawn.}}{4}{}}
\newlabel{fig:blue_negative}{{16}{4}{}{}{}}
\citation{Gulmez}
\@writefile{lof}{\contentsline {figure}{\numberline {17}{\ignorespaces Intersection point of green(Fig.\nobreakspace  {}18{}{}{}\hbox {}) and blue(Fig.\nobreakspace  {}19{}{}{}\hbox {}) lines gives us stopping voltage for violet color.}}{5}{}}
\newlabel{fig:violet}{{17}{5}{}{}{}}
\@writefile{lof}{\contentsline {figure}{\numberline {18}{\ignorespaces Line regression for positive current values for violet color. At each data point, error bars are drawn.}}{5}{}}
\newlabel{fig:violet_positive}{{18}{5}{}{}{}}
\@writefile{lof}{\contentsline {figure}{\numberline {19}{\ignorespaces Line regression for negative current values for violet color. At each data point, error bars are drawn.}}{5}{}}
\newlabel{fig:violet_negative}{{19}{5}{}{}{}}
\@writefile{lot}{\contentsline {table}{\numberline {I}{\ignorespaces All linear regressions for all 5 colors. Slope is $m$ with error $\sigma _m$ and y-intercept is $c$ with error $\sigma _c$ and $\chi _\nu ^2$ per degree of freedom $\nu $ is given. }}{5}{}}
\newlabel{tab:lines}{{I}{5}{}{}{}}
\citation{work}
\@writefile{lof}{\contentsline {figure}{\numberline {20}{\ignorespaces Linear regression with least squares method for frequency vs stopping voltage.}}{6}{}}
\newlabel{fig:final}{{20}{6}{}{}{}}
\@writefile{lot}{\contentsline {table}{\numberline {II}{\ignorespaces Linear regression with least squares method for \nobreakspace  {}Eqn 3{}{}{}\hbox {} where m is slope with error $\sigma _m$ and c is y-intercept with error $\sigma _c$ and $\chi _\nu ^2$ per degree of freedom $\nu $ is given }}{6}{}}
\newlabel{tab:lines}{{II}{6}{}{}{}}
\@writefile{lof}{\contentsline {figure}{\numberline {21}{\ignorespaces Linear regression with least squares method for frequency vs stopping voltage without cyan color.}}{6}{}}
\newlabel{fig:final_without_cyan}{{21}{6}{}{}{}}
\@writefile{lot}{\contentsline {table}{\numberline {III}{\ignorespaces Linear regression with least squares method for \nobreakspace  {}Eqn 3{}{}{}\hbox {} without cyan color, where m is slope with error $\sigma _m$ and c is y-intercept with error $\sigma _c$ and $\chi _\nu ^2$ per degree of freedom $\nu $ is given }}{6}{}}
\newlabel{tab:lines}{{III}{6}{}{}{}}
\@writefile{toc}{\contentsline {section}{\numberline {V}Conclusion and Possible Error Sources}{6}{}}
\@writefile{toc}{\contentsline {subsection}{\numberline {A}Conclusion}{6}{}}
\citation{Millikan}
\citation{Gulmez2}
\@writefile{toc}{\contentsline {subsection}{\numberline {B}Possible Error Sources}{7}{}}
\@writefile{toc}{\appendix }
\@writefile{toc}{\contentsline {section}{\numberline {A}Mathematical Concepts\cite  {Gulmez2}}{7}{}}
\@writefile{toc}{\contentsline {subsection}{\numberline {1}Chi-squared Test}{7}{}}
\@writefile{toc}{\contentsline {subsection}{\numberline {2}Least Squares Method}{7}{}}
\@writefile{toc}{\contentsline {subsection}{\numberline {3}Error Propagation}{7}{}}
\@writefile{toc}{\contentsline {section}{\numberline {B}Measurements}{7}{}}
\@writefile{lot}{\contentsline {table}{\numberline {IV}{\ignorespaces Measurements of applied voltage $V$ and amplified photocurrent $I$ with their errors $\sigma _{V}$ and $\sigma _{I}$ for yellow color. }}{7}{}}
\newlabel{tab:yellow}{{IV}{7}{}{}{}}
\@writefile{lot}{\contentsline {table}{\numberline {V}{\ignorespaces Measurements of applied voltage $V$ and amplified photocurrent $I$ with their errors $\sigma _{V}$ and $\sigma _{I}$ for green color. }}{8}{}}
\newlabel{tab:green}{{V}{8}{}{}{}}
\@writefile{lot}{\contentsline {table}{\numberline {VI}{\ignorespaces Measurements of applied voltage $V$ and amplified photocurrent $I$ with their errors $\sigma _{V}$ and $\sigma _{I}$ for cyan color. }}{8}{}}
\newlabel{tab:cyan}{{VI}{8}{}{}{}}
\citation{*}
\bibdata{reportNotes,report}
\bibcite{a_history}{{1}{}{{a_h}}{{}}}
\bibcite{history2}{{2}{}{{his}}{{}}}
\bibcite{work}{{3}{}{{wor}}{{}}}
\@writefile{lot}{\contentsline {table}{\numberline {VII}{\ignorespaces Measurements of applied voltage $V$ and amplified photocurrent $I$ with their errors $\sigma _{V}$ and $\sigma _{I}$ for blue color. }}{9}{}}
\newlabel{tab:blue}{{VII}{9}{}{}{}}
\@writefile{lot}{\contentsline {table}{\numberline {VIII}{\ignorespaces Measurements of applied voltage $V$ and amplified photocurrent $I$ with their errors $\sigma _{V}$ and $\sigma _{I}$ for violet color. }}{9}{}}
\newlabel{tab:violet}{{VIII}{9}{}{}{}}
\@writefile{toc}{\contentsline {section}{\numberline {}References}{9}{}}
\bibcite{Melissinos}{{4}{1966}{{Melissinos}}{{}}}
\bibcite{Gulmez}{{5}{2000{a}}{{Gulmez}}{{}}}
\bibcite{Millikan}{{6}{1916}{{Millikan}}{{}}}
\bibcite{Gulmez2}{{7}{2000{b}}{{Gulmez}}{{}}}
\bibstyle{apsrev4-2}
\citation{REVTEX42Control}
\citation{apsrev42Control}
\newlabel{LastBibItem}{{7}{10}{}{}{}}
\newlabel{LastPage}{{}{10}{}{}{}}
