%!PS-Adobe-2.0 EPSF-2.0
%%BoundingBox:  0 0 567 542
%%Title: /home/tan/phys442/poissonstatistics/report/graphics/10s.eps: Histogram
%%Creator: ROOT Version 6.20/04
%%CreationDate: Thu Jun 18 01:41:11 2020
%%DocumentNeededResources: ProcSet (FontSetInit)
%%EndComments
%%BeginProlog
80 dict begin
/s {stroke} def /l {lineto} def /m {moveto} def /t {translate} def
/r {rotate} def /rl {roll}  def /R {repeat} def
/d {rlineto} def /rm {rmoveto} def /gr {grestore} def /f {eofill} def
/c {setrgbcolor} def /black {0 setgray} def /sd {setdash} def
/cl {closepath} def /sf {scalefont setfont} def /lw {setlinewidth} def
/box {m dup 0 exch d exch 0 d 0 exch neg d cl} def
/NC{systemdict begin initclip end}def/C{NC box clip newpath}def
/bl {box s} def /bf {gsave box gsave f grestore 1 lw [] 0 sd s grestore} def /Y { 0 exch d} def /X { 0 d} def 
/K {{pop pop 0 moveto} exch kshow} bind def
/ita {/ang 15 def gsave [1 0 ang dup sin exch cos div 1 0 0] concat} def 
/mp {newpath /y exch def /x exch def} def
/side {[w .77 mul w .23 mul] .385 w mul sd w 0 l currentpoint t -144 r} def
/mr {mp x y w2 0 360 arc} def /m24 {mr s} def /m20 {mr f} def
/mb {mp x y w2 add m w2 neg 0 d 0 w neg d w 0 d 0 w d cl} def
/mt {mp x y w2 add m w2 neg w neg d w 0 d cl} def
/w4 {w 4 div} def
/w6 {w 6 div} def
/w8 {w 8 div} def
/m21 {mb f} def /m25 {mb s} def /m22 {mt f} def /m26{mt s} def
/m23 {mp x y w2 sub m w2 w d w neg 0 d cl f} def
/m27 {mp x y w2 add m w3 neg w2 neg d w3 w2 neg d w3 w2 d cl s} def
/m28 {mp x w2 sub y w2 sub w3 add m w3 0 d  0 w3 neg d w3 0 d 0 w3 d w3 0 d  0 w3 d w3 neg 0 d 0 w3 d w3 neg 0 d 0 w3 neg d w3 neg 0 d cl s } def
/m29 {mp gsave x w2 sub y w2 add w3 sub m currentpoint t 4 {side} repeat cl fill gr} def
/m30 {mp gsave x w2 sub y w2 add w3 sub m currentpoint t 4 {side} repeat cl s gr} def
/m31 {mp x y w2 sub m 0 w d x w2 sub y m w 0 d x w2 sub y w2 add m w w neg d x w2 sub y w2 sub m w w d s} def
/m32 {mp x y w2 sub m w2 w d w neg 0 d cl s} def
/m33 {mp x y w2 add m w3 neg w2 neg d w3 w2 neg d w3 w2 d cl f} def
/m34 {mp x w2 sub y w2 sub w3 add m w3 0 d  0 w3 neg d w3 0 d 0 w3 d w3 0 d  0 w3 d w3 neg 0 d 0 w3 d w3 neg 0 d 0 w3 neg d w3 neg 0 d cl f } def
/m35 {mp x y w2 add m w2 neg w2 neg d w2 w2 neg d w2 w2 d w2 neg w2 d x y w2 sub m 0 w d x w2 sub y m w 0 d s} def
/m36 {mb x w2 sub y w2 add m w w neg d x w2 sub y w2 sub m w w d s} def
/m37 {mp x y m w4 neg w2 d w4 neg w2 neg d w2 0 d  w4 neg w2 neg d w2 0 d w4 neg w2 d w2 0 d w4 neg w2 d w4 neg w2 neg d cl s} def
/m38 {mp x w4 sub y w2 add m w4 neg w4 neg d 0 w2 neg d w4 w4 neg d w2 0 d w4 w4 d 0 w2 d w4 neg w4 d w2 neg 0 d x y w2 sub m 0 w d x w2 sub y m w 0 d cl s} def
/m39 {mp x y m w4 neg w2 d w4 neg w2 neg d w2 0 d  w4 neg w2 neg d w2 0 d w4 neg w2 d w2 0 d w4 neg w2 d w4 neg w2 neg d cl f} def
/m40 {mp x y m w4 w2 d w4 w4 neg d w2 neg w4 neg d w2 w4 neg d w4 neg w4 neg d w4 neg w2 d w4 neg w2 neg d w4 neg w4 d w2 w4 d w2 neg w4 d w4 w4 d w4 w2 neg d cl s} def
/m41 {mp x y m w4 w2 d w4 w4 neg d w2 neg w4 neg d w2 w4 neg d w4 neg w4 neg d w4 neg w2 d w4 neg w2 neg d w4 neg w4 d w2 w4 d w2 neg w4 d w4 w4 d w4 w2 neg d cl f} def
/m42 {mp x y w2 add m w8 neg w2 -3 4 div mul d w2 -3 4 div mul w8 neg d w2 3 4 div mul w8 neg d w8 w2 -3 4 div mul d w8 w2 3 4 div mul d w2 3 4 div mul w8 d w2 -3 4 div mul w8 d w8 neg w2 3 4 div mul d cl s} def
/m43 {mp x y w2 add m w8 neg w2 -3 4 div mul d w2 -3 4 div mul w8 neg d w2 3 4 div mul w8 neg d w8 w2 -3 4 div mul d w8 w2 3 4 div mul d w2 3 4 div mul w8 d w2 -3 4 div mul w8 d w8 neg w2 3 4 div mul d cl f} def
/m44 {mp x y m w6 neg w2 d w2 2 3 div mul 0 d w6 neg w2 neg d w2 w6 d 0 w2 -2 3 div mul d w2 neg w6 d w6 w2 neg d w2 -2 3 div mul 0 d w6 w2 d w2 neg w6 neg d 0 w2 2 3 div mul d w2 w6 neg d cl s} def
/m45 {mp x y m w6 neg w2 d w2 2 3 div mul 0 d w6 neg w2 neg d w2 w6 d 0 w2 -2 3 div mul d w2 neg w6 d w6 w2 neg d w2 -2 3 div mul 0 d w6 w2 d w2 neg w6 neg d 0 w2 2 3 div mul d w2 w6 neg d cl f} def
/m46 {mp x y w4 add m w4 neg w4 d w4 neg w4 neg d  w4 w4 neg d w4 neg w4 neg d w4 w4 neg d w4 w4 d w4 w4 neg d w4 w4 d w4 neg w4 d w4 w4 d w4 neg w4 d w4 neg w4 neg d cl s} def
/m47 {mp x y w4 add m w4 neg w4 d w4 neg w4 neg d w4 w4 neg d w4 neg w4 neg d  w4 w4 neg d w4 w4 d w4 w4 neg d w4 w4 d w4 neg w4 d w4 w4 d w4 neg w4 d w4 neg w4 neg d cl f} def
/m48 {mp x y w4 add m w4 neg w4 d w4 neg w4 neg d w4 w4 neg d  w4 neg w4 neg d w4 w4 neg d w4 w4 d w4 w4 neg d w4 w4 d w4 neg w4 d w4 w4 d w4 neg w4 d w4 neg w4 neg d  w4 w4 neg d w4 neg w4 neg d w4 neg w4 d w4 w4 d cl f} def
/m49 {mp x w2 sub w3 add y w2 sub w3 add m  0 w3 neg d w3 0 d 0 w3 d w3 0 d 0 w3 d w3 neg 0 d 0 w3 d w3 neg 0 d 0 w3 neg d w3 neg 0 d 0 w3 neg d w3 0 d 0 w3 d w3 0 d 0 w3 neg d w3 neg 0 d cl f } def
/m2 {mp x y w2 sub m 0 w d x w2 sub y m w 0 d s} def
/m5 {mp x w2 sub y w2 sub m w w d x w2 sub y w2 add m w w neg d s} def
%%IncludeResource: ProcSet (FontSetInit)
%%IncludeResource: font Times-Roman
%%IncludeResource: font Times-Italic
%%IncludeResource: font Times-Bold
%%IncludeResource: font Times-BoldItalic
%%IncludeResource: font Helvetica
%%IncludeResource: font Helvetica-Oblique
%%IncludeResource: font Helvetica-Bold
%%IncludeResource: font Helvetica-BoldOblique
%%IncludeResource: font Courier
%%IncludeResource: font Courier-Oblique
%%IncludeResource: font Courier-Bold
%%IncludeResource: font Courier-BoldOblique
%%IncludeResource: font Symbol
%%IncludeResource: font ZapfDingbats
/reEncode {exch findfont dup length dict begin {1 index /FID eq  {pop pop} {def} ifelse } forall /Encoding exch def currentdict end dup /FontName get exch definefont pop } def [/Times-Bold /Times-Italic /Times-BoldItalic /Helvetica /Helvetica-Oblique
 /Helvetica-Bold /Helvetica-BoldOblique /Courier /Courier-Oblique /Courier-Bold /Courier-BoldOblique /Times-Roman /AvantGarde-Book /AvantGarde-BookOblique /AvantGarde-Demi /AvantGarde-DemiOblique /Bookman-Demi /Bookman-DemiItalic /Bookman-Light
 /Bookman-LightItalic /Helvetica-Narrow /Helvetica-Narrow-Bold /Helvetica-Narrow-BoldOblique /Helvetica-Narrow-Oblique /NewCenturySchlbk-Roman /NewCenturySchlbk-Bold /NewCenturySchlbk-BoldItalic /NewCenturySchlbk-Italic /Palatino-Bold
 /Palatino-BoldItalic /Palatino-Italic /Palatino-Roman ] {ISOLatin1Encoding reEncode } forall
%%EndProlog
%%BeginSetup
%%EndSetup
newpath  gsave  .25 .25 scale  gsave  0 0 t black[  ] 0 sd 3 lw 1 1 1 c 2268 2168 0 0 bf black 1 1 1 c 1701 1734 340 217 bf black 1701 1734 340 217 bl 1 1 1 c 1701 1734 340 217 bf black 1701 1734 340 217 bl 0.83 0.81 0.53 c black 0.83 0.81 0.53 c 340
 217 m 43 Y 340 X 87 Y 170 X 390 Y 170 X 260 Y 171 X 304 Y 170 X -217 Y 170 X -434 Y 170 X -216 Y 340 X -217 Y f black 0.83 0.81 0.53 c black 340 260 m 340 X 87 Y 170 X 390 Y 170 X 260 Y 171 X 304 Y 170 X -217 Y 170 X -434 Y 170 X -216 Y 340 X s 340
 217 m 1701 X s 482 266 m -49 Y s 539 241 m -24 Y s 595 241 m -24 Y s 652 241 m -24 Y s 709 241 m -24 Y s 765 266 m -49 Y s 822 241 m -24 Y s 879 241 m -24 Y s 935 241 m -24 Y s 992 241 m -24 Y s 1049 266 m -49 Y s 1106 241 m -24 Y s 1162 241 m -24 Y
 s 1219 241 m -24 Y s 1276 241 m -24 Y s 1332 266 m -49 Y s 1389 241 m -24 Y s 1446 241 m -24 Y s 1502 241 m -24 Y s 1559 241 m -24 Y s 1616 266 m -49 Y s 1672 241 m -24 Y s 1729 241 m -24 Y s 1786 241 m -24 Y s 1843 241 m -24 Y s 1899 266 m -49 Y s
 482 266 m -49 Y s 425 241 m -24 Y s 369 241 m -24 Y s 1899 266 m -49 Y s 1956 241 m -24 Y s 2013 241 m -24 Y s
 gsave  2268 2168 0 0 C 437.15 145.717 t 0 r /Helvetica findfont 72.8584 sf 0 0 m (70) show NC gr 
 gsave  2268 2168 0 0 C 724.03 145.717 t 0 r /Helvetica findfont 72.8584 sf 0 0 m (80) show NC gr 
 gsave  2268 2168 0 0 C 1006.36 145.717 t 0 r /Helvetica findfont 72.8584 sf 0 0 m (90) show NC gr 
 gsave  2268 2168 0 0 C 1270.47 145.717 t 0 r /Helvetica findfont 72.8584 sf 0 0 m (100) show NC gr 
 gsave  2268 2168 0 0 C 1552.79 145.717 t 0 r /Helvetica findfont 72.8584 sf 0 0 m (110) show NC gr 
 gsave  2268 2168 0 0 C 1839.67 145.717 t 0 r /Helvetica findfont 72.8584 sf 0 0 m (120) show NC gr 
 gsave  2268 2168 0 0 C 1438.95 72.8584 t 0 r /Helvetica findfont 72.8584 sf 0 0 m (Number of Decays) show NC gr  340 217 m 1734 Y s 395 217 m -55 X s 367 260 m -27 X s 367 303 m -27 X s 367 347 m -27 X s 367 390 m -27 X s 395 434 m -55 X s 367 477 m
 -27 X s 367 520 m -27 X s 367 564 m -27 X s 367 607 m -27 X s 395 650 m -55 X s 367 694 m -27 X s 367 737 m -27 X s 367 780 m -27 X s 367 824 m -27 X s 395 867 m -55 X s 367 910 m -27 X s 367 954 m -27 X s 367 997 m -27 X s 367 1040 m -27 X s 395
 1084 m -55 X s 367 1127 m -27 X s 367 1170 m -27 X s 367 1214 m -27 X s 367 1257 m -27 X s 395 1301 m -55 X s 367 1344 m -27 X s 367 1387 m -27 X s 367 1431 m -27 X s 367 1474 m -27 X s 395 1517 m -55 X s 367 1561 m -27 X s 367 1604 m -27 X s 367
 1647 m -27 X s 367 1691 m -27 X s 395 1734 m -55 X s 367 1777 m -27 X s 367 1821 m -27 X s 367 1864 m -27 X s 367 1907 m -27 X s 395 1951 m -55 X s
 gsave  2268 2168 0 0 C 286.88 191.253 t 0 r /Helvetica findfont 72.8584 sf 0 0 m (0) show NC gr 
 gsave  2268 2168 0 0 C 186.7 409.828 t 0 r /Helvetica findfont 72.8584 sf 0 0 m (0.05) show NC gr 
 gsave  2268 2168 0 0 C 241.343 623.85 t 0 r /Helvetica findfont 72.8584 sf 0 0 m (0.1) show NC gr 
 gsave  2268 2168 0 0 C 186.7 842.425 t 0 r /Helvetica findfont 72.8584 sf 0 0 m (0.15) show NC gr 
 gsave  2268 2168 0 0 C 227.682 1056.45 t 0 r /Helvetica findfont 72.8584 sf 0 0 m (0.2) show NC gr 
 gsave  2268 2168 0 0 C 186.7 1275.02 t 0 r /Helvetica findfont 72.8584 sf 0 0 m (0.25) show NC gr 
 gsave  2268 2168 0 0 C 227.682 1493.6 t 0 r /Helvetica findfont 72.8584 sf 0 0 m (0.3) show NC gr 
 gsave  2268 2168 0 0 C 186.7 1707.62 t 0 r /Helvetica findfont 72.8584 sf 0 0 m (0.35) show NC gr 
 gsave  2268 2168 0 0 C 227.682 1926.19 t 0 r /Helvetica findfont 72.8584 sf 0 0 m (0.4) show NC gr 
 gsave  2268 2168 0 0 C 136.609 1607.44 t 90 r /Helvetica findfont 72.8584 sf 0 0 m (Frequency) show NC gr  1 0 0 c 0.83 0.81 0.53 c black 1 0 0 c 425 217 m 43 Y s 425 260 m 43 Y s 340 260 m 85 X s 425 260 m 85 X s 416 217 m 18 X s 416 303 m 18 X s
 340 251 m 18 Y s 510 251 m 18 Y s black /w 2 def /w2 {w 2 div} def /w3 {w 3 div} def 425 260 m20 1 0 0 c 595 217 m 43 Y s 595 260 m 43 Y s 510 260 m 85 X s 595 260 m 85 X s 586 217 m 18 X s 586 303 m 18 X s 510 251 m 18 Y s 680 251 m 18 Y s black
 595 260 m20 1 0 0 c 765 272 m 75 Y s 765 347 m 75 Y s 680 347 m 85 X s 765 347 m 85 X s 756 272 m 18 X s 756 422 m 18 X s 680 338 m 18 Y s 850 338 m 18 Y s black 765 347 m20 1 0 0 c 935 587 m 150 Y s 935 737 m 150 Y s 850 737 m 85 X s 935 737 m 85 X
 s 926 587 m 19 X s 926 887 m 19 X s 850 728 m 18 Y s 1020 728 m 18 Y s black 935 737 m20 1 0 0 c 1106 813 m 184 Y s 1106 997 m 184 Y s 1020 997 m 86 X s 1106 997 m 85 X s 1096 813 m 19 X s 1096 1181 m 19 X s 1020 988 m 18 Y s 1191 988 m 18 Y s black
 1106 997 m20 1 0 0 c 1276 1084 m 217 Y s 1276 1301 m 216 Y s 1191 1301 m 85 X s 1276 1301 m 85 X s 1266 1084 m 19 X s 1266 1517 m 19 X s 1191 1291 m 19 Y s 1361 1291 m 19 Y s black 1276 1301 m20 1 0 0 c 1446 890 m 194 Y s 1446 1084 m 194 Y s 1361
 1084 m 85 X s 1446 1084 m 85 X s 1437 890 m 18 X s 1437 1278 m 18 X s 1361 1075 m 18 Y s 1531 1075 m 18 Y s black 1446 1084 m20 1 0 0 c 1616 513 m 137 Y s 1616 650 m 137 Y s 1531 650 m 85 X s 1616 650 m 85 X s 1607 513 m 18 X s 1607 787 m 18 X s
 1531 641 m 18 Y s 1701 641 m 18 Y s black 1616 650 m20 1 0 0 c 1786 337 m 97 Y s 1786 434 m 96 Y s 1701 434 m 85 X s 1786 434 m 85 X s 1777 337 m 18 X s 1777 530 m 18 X s 1701 424 m 19 Y s 1871 424 m 19 Y s black 1786 434 m20 1 0 0 c 1956 337 m 97 Y
 s 1956 434 m 96 Y s 1871 434 m 85 X s 1956 434 m 85 X s 1947 337 m 18 X s 1947 530 m 18 X s 1871 424 m 19 Y s 2041 424 m 19 Y s black 1956 434 m20 0 0 1 c 6 lw 0.95 0.95 0.95 c black 0 0 1 c 349 221 m 17 1 d 17 1 d 17 1 d 17 1 d 17 2 d 17 2 d 17 2 d
 17 3 d 17 3 d 17 4 d 17 4 d 17 5 d 17 5 d 17 7 d 17 7 d 17 8 d 17 9 d 17 10 d 17 11 d 17 12 d 17 14 d 17 15 d 17 17 d 17 18 d 17 19 d 17 21 d 17 23 d 17 24 d 17 26 d 17 28 d 17 29 d 17 30 d 17 31 d 17 33 d 17 34 d 17 35 d 17 35 d 17 36 d 17 36 d 17
 36 d 17 35 d 17 36 d 17 34 d 17 33 d 17 32 d 17 30 d 17 28 d 17 25 d 17 24 d s 1182 1136 m 17 20 d 17 17 d 17 15 d 17 11 d 17 7 d 17 4 d 17 1 d 17 -3 d 17 -7 d 17 -10 d 17 -13 d 17 -17 d 17 -19 d 17 -23 d 17 -25 d 17 -27 d 17 -30 d 17 -31 d 17 -33 d
 17 -34 d 17 -35 d 17 -35 d 17 -36 d 17 -36 d 17 -36 d 17 -36 d 17 -35 d 17 -34 d 17 -33 d 17 -32 d 17 -30 d 17 -29 d 17 -28 d 17 -27 d 17 -24 d 17 -23 d 17 -22 d 17 -20 d 17 -18 d 17 -17 d 17 -16 d 17 -14 d 17 -13 d 17 -11 d 17 -11 d 17 -9 d 17 -8 d
 17 -8 d 17 -6 d s 2015 257 m 17 -6 d s 0 1 0 c 0.95 0.95 0.95 c black 0 1 0 c 349 219 m 17 X 17 1 d 17 1 d 17 1 d 17 1 d 17 1 d 17 2 d 17 2 d 17 3 d 17 3 d 17 3 d 17 5 d 17 4 d 17 6 d 17 7 d 17 7 d 17 9 d 17 9 d 17 11 d 17 13 d 17 13 d 17 16 d 17 17
 d 17 18 d 17 20 d 17 23 d 17 23 d 17 26 d 17 27 d 17 30 d 17 30 d 17 33 d 17 34 d 17 35 d 17 36 d 17 37 d 17 38 d 17 38 d 17 38 d 17 38 d 17 37 d 17 37 d 17 36 d 17 34 d 17 32 d 17 31 d 17 28 d 17 25 d 17 22 d s 1182 1160 m 17 20 d 17 16 d 17 13 d
 17 9 d 17 5 d 17 2 d 17 -2 d 17 -6 d 17 -9 d 17 -12 d 17 -16 d 17 -19 d 17 -22 d 17 -24 d 17 -27 d 17 -29 d 17 -31 d 17 -32 d 17 -33 d 17 -35 d 17 -35 d 17 -36 d 17 -35 d 17 -36 d 17 -35 d 17 -35 d 17 -34 d 17 -33 d 17 -32 d 17 -31 d 17 -29 d 17 -29
 d 17 -26 d 17 -25 d 17 -24 d 17 -22 d 17 -21 d 17 -19 d 17 -18 d 17 -17 d 17 -15 d 17 -14 d 17 -12 d 17 -11 d 17 -11 d 17 -9 d 17 -8 d 17 -8 d 17 -6 d s 2015 262 m 17 -6 d s 1 1 1 c black
 gsave  2268 2168 0 0 C 409.828 2071.91 t 0 r /Helvetica findfont 86.5193 sf 0 0 m (Distribution of Decays in 10s Intervals) show NC gr  3 lw 1 1 1 c 679 323 428 1594 bf black 428 1594 m 679 X s 1107 1594 m 323 Y s 1107 1917 m -679 X s 428 1917 m
 -323 Y s
 gsave  2268 2168 0 0 C 596.528 1839.67 t 0 r /Helvetica findfont 68.3047 sf 0 0 m (Error Bars) show NC gr  1 0 0 c 453 1863 m 119 X s 513 1863 m 33 Y s 513 1863 m -32 Y s black 513 1863 m20
 gsave  2268 2168 0 0 C 596.528 1734.94 t 0 r /Helvetica findfont 68.3047 sf 0 0 m (Gaussian Fit) show NC gr  0 0 1 c 6 lw 453 1755 m 119 X s black
 gsave  2268 2168 0 0 C 596.528 1625.65 t 0 r /Helvetica findfont 68.3047 sf 0 0 m (Poisson Fit) show NC gr  0 1 0 c 453 1648 m 119 X s
 gr  gr showpage
end
%%EOF
