%!PS-Adobe-2.0 EPSF-2.0
%%BoundingBox:  0 0 567 554
%%Title: /home/tan/phys442/radioactivedecay/unnamed.eps: graph_canvas
%%Creator: ROOT Version 6.20/04
%%CreationDate: Sat Jun  6 23:50:21 2020
%%DocumentNeededResources: ProcSet (FontSetInit)
%%EndComments
%%BeginProlog
80 dict begin
/s {stroke} def /l {lineto} def /m {moveto} def /t {translate} def
/r {rotate} def /rl {roll}  def /R {repeat} def
/d {rlineto} def /rm {rmoveto} def /gr {grestore} def /f {eofill} def
/c {setrgbcolor} def /black {0 setgray} def /sd {setdash} def
/cl {closepath} def /sf {scalefont setfont} def /lw {setlinewidth} def
/box {m dup 0 exch d exch 0 d 0 exch neg d cl} def
/NC{systemdict begin initclip end}def/C{NC box clip newpath}def
/bl {box s} def /bf {gsave box gsave f grestore 1 lw [] 0 sd s grestore} def /Y { 0 exch d} def /X { 0 d} def 
/K {{pop pop 0 moveto} exch kshow} bind def
/ita {/ang 15 def gsave [1 0 ang dup sin exch cos div 1 0 0] concat} def 
/mp {newpath /y exch def /x exch def} def
/side {[w .77 mul w .23 mul] .385 w mul sd w 0 l currentpoint t -144 r} def
/mr {mp x y w2 0 360 arc} def /m24 {mr s} def /m20 {mr f} def
/mb {mp x y w2 add m w2 neg 0 d 0 w neg d w 0 d 0 w d cl} def
/mt {mp x y w2 add m w2 neg w neg d w 0 d cl} def
/w4 {w 4 div} def
/w6 {w 6 div} def
/w8 {w 8 div} def
/m21 {mb f} def /m25 {mb s} def /m22 {mt f} def /m26{mt s} def
/m23 {mp x y w2 sub m w2 w d w neg 0 d cl f} def
/m27 {mp x y w2 add m w3 neg w2 neg d w3 w2 neg d w3 w2 d cl s} def
/m28 {mp x w2 sub y w2 sub w3 add m w3 0 d  0 w3 neg d w3 0 d 0 w3 d w3 0 d  0 w3 d w3 neg 0 d 0 w3 d w3 neg 0 d 0 w3 neg d w3 neg 0 d cl s } def
/m29 {mp gsave x w2 sub y w2 add w3 sub m currentpoint t 4 {side} repeat cl fill gr} def
/m30 {mp gsave x w2 sub y w2 add w3 sub m currentpoint t 4 {side} repeat cl s gr} def
/m31 {mp x y w2 sub m 0 w d x w2 sub y m w 0 d x w2 sub y w2 add m w w neg d x w2 sub y w2 sub m w w d s} def
/m32 {mp x y w2 sub m w2 w d w neg 0 d cl s} def
/m33 {mp x y w2 add m w3 neg w2 neg d w3 w2 neg d w3 w2 d cl f} def
/m34 {mp x w2 sub y w2 sub w3 add m w3 0 d  0 w3 neg d w3 0 d 0 w3 d w3 0 d  0 w3 d w3 neg 0 d 0 w3 d w3 neg 0 d 0 w3 neg d w3 neg 0 d cl f } def
/m35 {mp x y w2 add m w2 neg w2 neg d w2 w2 neg d w2 w2 d w2 neg w2 d x y w2 sub m 0 w d x w2 sub y m w 0 d s} def
/m36 {mb x w2 sub y w2 add m w w neg d x w2 sub y w2 sub m w w d s} def
/m37 {mp x y m w4 neg w2 d w4 neg w2 neg d w2 0 d  w4 neg w2 neg d w2 0 d w4 neg w2 d w2 0 d w4 neg w2 d w4 neg w2 neg d cl s} def
/m38 {mp x w4 sub y w2 add m w4 neg w4 neg d 0 w2 neg d w4 w4 neg d w2 0 d w4 w4 d 0 w2 d w4 neg w4 d w2 neg 0 d x y w2 sub m 0 w d x w2 sub y m w 0 d cl s} def
/m39 {mp x y m w4 neg w2 d w4 neg w2 neg d w2 0 d  w4 neg w2 neg d w2 0 d w4 neg w2 d w2 0 d w4 neg w2 d w4 neg w2 neg d cl f} def
/m40 {mp x y m w4 w2 d w4 w4 neg d w2 neg w4 neg d w2 w4 neg d w4 neg w4 neg d w4 neg w2 d w4 neg w2 neg d w4 neg w4 d w2 w4 d w2 neg w4 d w4 w4 d w4 w2 neg d cl s} def
/m41 {mp x y m w4 w2 d w4 w4 neg d w2 neg w4 neg d w2 w4 neg d w4 neg w4 neg d w4 neg w2 d w4 neg w2 neg d w4 neg w4 d w2 w4 d w2 neg w4 d w4 w4 d w4 w2 neg d cl f} def
/m42 {mp x y w2 add m w8 neg w2 -3 4 div mul d w2 -3 4 div mul w8 neg d w2 3 4 div mul w8 neg d w8 w2 -3 4 div mul d w8 w2 3 4 div mul d w2 3 4 div mul w8 d w2 -3 4 div mul w8 d w8 neg w2 3 4 div mul d cl s} def
/m43 {mp x y w2 add m w8 neg w2 -3 4 div mul d w2 -3 4 div mul w8 neg d w2 3 4 div mul w8 neg d w8 w2 -3 4 div mul d w8 w2 3 4 div mul d w2 3 4 div mul w8 d w2 -3 4 div mul w8 d w8 neg w2 3 4 div mul d cl f} def
/m44 {mp x y m w6 neg w2 d w2 2 3 div mul 0 d w6 neg w2 neg d w2 w6 d 0 w2 -2 3 div mul d w2 neg w6 d w6 w2 neg d w2 -2 3 div mul 0 d w6 w2 d w2 neg w6 neg d 0 w2 2 3 div mul d w2 w6 neg d cl s} def
/m45 {mp x y m w6 neg w2 d w2 2 3 div mul 0 d w6 neg w2 neg d w2 w6 d 0 w2 -2 3 div mul d w2 neg w6 d w6 w2 neg d w2 -2 3 div mul 0 d w6 w2 d w2 neg w6 neg d 0 w2 2 3 div mul d w2 w6 neg d cl f} def
/m46 {mp x y w4 add m w4 neg w4 d w4 neg w4 neg d  w4 w4 neg d w4 neg w4 neg d w4 w4 neg d w4 w4 d w4 w4 neg d w4 w4 d w4 neg w4 d w4 w4 d w4 neg w4 d w4 neg w4 neg d cl s} def
/m47 {mp x y w4 add m w4 neg w4 d w4 neg w4 neg d w4 w4 neg d w4 neg w4 neg d  w4 w4 neg d w4 w4 d w4 w4 neg d w4 w4 d w4 neg w4 d w4 w4 d w4 neg w4 d w4 neg w4 neg d cl f} def
/m48 {mp x y w4 add m w4 neg w4 d w4 neg w4 neg d w4 w4 neg d  w4 neg w4 neg d w4 w4 neg d w4 w4 d w4 w4 neg d w4 w4 d w4 neg w4 d w4 w4 d w4 neg w4 d w4 neg w4 neg d  w4 w4 neg d w4 neg w4 neg d w4 neg w4 d w4 w4 d cl f} def
/m49 {mp x w2 sub w3 add y w2 sub w3 add m  0 w3 neg d w3 0 d 0 w3 d w3 0 d 0 w3 d w3 neg 0 d 0 w3 d w3 neg 0 d 0 w3 neg d w3 neg 0 d 0 w3 neg d w3 0 d 0 w3 d w3 0 d 0 w3 neg d w3 neg 0 d cl f } def
/m2 {mp x y w2 sub m 0 w d x w2 sub y m w 0 d s} def
/m5 {mp x w2 sub y w2 sub m w w d x w2 sub y w2 add m w w neg d s} def
%%IncludeResource: ProcSet (FontSetInit)
%%IncludeResource: font Times-Roman
%%IncludeResource: font Times-Italic
%%IncludeResource: font Times-Bold
%%IncludeResource: font Times-BoldItalic
%%IncludeResource: font Helvetica
%%IncludeResource: font Helvetica-Oblique
%%IncludeResource: font Helvetica-Bold
%%IncludeResource: font Helvetica-BoldOblique
%%IncludeResource: font Courier
%%IncludeResource: font Courier-Oblique
%%IncludeResource: font Courier-Bold
%%IncludeResource: font Courier-BoldOblique
%%IncludeResource: font Symbol
%%IncludeResource: font ZapfDingbats
/reEncode {exch findfont dup length dict begin {1 index /FID eq  {pop pop} {def} ifelse } forall /Encoding exch def currentdict end dup /FontName get exch definefont pop } def [/Times-Bold /Times-Italic /Times-BoldItalic /Helvetica /Helvetica-Oblique
 /Helvetica-Bold /Helvetica-BoldOblique /Courier /Courier-Oblique /Courier-Bold /Courier-BoldOblique /Times-Roman /AvantGarde-Book /AvantGarde-BookOblique /AvantGarde-Demi /AvantGarde-DemiOblique /Bookman-Demi /Bookman-DemiItalic /Bookman-Light
 /Bookman-LightItalic /Helvetica-Narrow /Helvetica-Narrow-Bold /Helvetica-Narrow-BoldOblique /Helvetica-Narrow-Oblique /NewCenturySchlbk-Roman /NewCenturySchlbk-Bold /NewCenturySchlbk-BoldItalic /NewCenturySchlbk-Italic /Palatino-Bold
 /Palatino-BoldItalic /Palatino-Italic /Palatino-Roman ] {ISOLatin1Encoding reEncode } forall
%%EndProlog
%%BeginSetup
%%EndSetup
newpath  gsave  .25 .25 scale  gsave  0 0 t black[  ] 0 sd 3 lw 1 1 1 c 2268 2218 0 0 bf black 1 1 1 c 1701 1774 340 222 bf black 1701 1774 340 222 bl 1 1 1 c 1701 1774 340 222 bf black 1701 1774 340 222 bl 340 222 m 1701 X s 410 272 m -50 Y s 445
 247 m -25 Y s 480 247 m -25 Y s 515 247 m -25 Y s 551 247 m -25 Y s 586 272 m -50 Y s 621 247 m -25 Y s 657 247 m -25 Y s 692 247 m -25 Y s 727 247 m -25 Y s 763 272 m -50 Y s 798 247 m -25 Y s 833 247 m -25 Y s 869 247 m -25 Y s 904 247 m -25 Y s
 939 272 m -50 Y s 975 247 m -25 Y s 1010 247 m -25 Y s 1045 247 m -25 Y s 1081 247 m -25 Y s 1116 272 m -50 Y s 1151 247 m -25 Y s 1186 247 m -25 Y s 1222 247 m -25 Y s 1257 247 m -25 Y s 1292 272 m -50 Y s 1328 247 m -25 Y s 1363 247 m -25 Y s 1398
 247 m -25 Y s 1434 247 m -25 Y s 1469 272 m -50 Y s 1504 247 m -25 Y s 1540 247 m -25 Y s 1575 247 m -25 Y s 1610 247 m -25 Y s 1646 272 m -50 Y s 1681 247 m -25 Y s 1716 247 m -25 Y s 1752 247 m -25 Y s 1787 247 m -25 Y s 1822 272 m -50 Y s 1858
 247 m -25 Y s 1893 247 m -25 Y s 1928 247 m -25 Y s 1963 247 m -25 Y s 1999 272 m -50 Y s 410 272 m -50 Y s 374 247 m -25 Y s 1999 272 m -50 Y s 2034 247 m -25 Y s
 gsave  2268 2218 0 0 C 368.106 149.969 t 0 r /Helvetica findfont 72.7124 sf 0 0 m (20) show NC gr 
 gsave  2268 2218 0 0 C 543.07 149.969 t 0 r /Helvetica findfont 72.7124 sf 0 0 m (30) show NC gr 
 gsave  2268 2218 0 0 C 720.307 149.969 t 0 r /Helvetica findfont 72.7124 sf 0 0 m (40) show NC gr 
 gsave  2268 2218 0 0 C 897.543 149.969 t 0 r /Helvetica findfont 72.7124 sf 0 0 m (50) show NC gr 
 gsave  2268 2218 0 0 C 1074.78 149.969 t 0 r /Helvetica findfont 72.7124 sf 0 0 m (60) show NC gr 
 gsave  2268 2218 0 0 C 1249.74 149.969 t 0 r /Helvetica findfont 72.7124 sf 0 0 m (70) show NC gr 
 gsave  2268 2218 0 0 C 1426.98 149.969 t 0 r /Helvetica findfont 72.7124 sf 0 0 m (80) show NC gr 
 gsave  2268 2218 0 0 C 1604.22 149.969 t 0 r /Helvetica findfont 72.7124 sf 0 0 m (90) show NC gr 
 gsave  2268 2218 0 0 C 1761 149.969 t 0 r /Helvetica findfont 72.7124 sf 0 0 m (100) show NC gr 
 gsave  2268 2218 0 0 C 1938.24 149.969 t 0 r /Helvetica findfont 72.7124 sf 0 0 m (110) show NC gr 
 gsave  2268 2218 0 0 C 1922.33 77.2569 t 0 r /Helvetica findfont 72.7124 sf 0 0 m (T[s]) show NC gr  340 222 m 1774 Y s 395 378 m -55 X s 367 454 m -27 X s 367 530 m -27 X s 367 607 m -27 X s 395 683 m -55 X s 367 759 m -27 X s 367 835 m -27 X s 367
 912 m -27 X s 395 988 m -55 X s 367 1064 m -27 X s 367 1141 m -27 X s 367 1217 m -27 X s 395 1293 m -55 X s 367 1369 m -27 X s 367 1446 m -27 X s 367 1522 m -27 X s 395 1598 m -55 X s 367 1674 m -27 X s 367 1751 m -27 X s 367 1827 m -27 X s 395 1903
 m -55 X s 395 378 m -55 X s 367 301 m -27 X s 367 225 m -27 X s 395 1903 m -55 X s 367 1980 m -27 X s
 gsave  2268 2218 0 0 C 227.226 352.2 t 0 r /Helvetica findfont 72.7124 sf 0 0 m (3.8) show NC gr 
 gsave  2268 2218 0 0 C 186.325 352.2 t 0 r /Symbol findfont 72.7124 sf 0 0 m (-) show NC gr 
 gsave  2268 2218 0 0 C 227.226 656.683 t 0 r /Helvetica findfont 72.7124 sf 0 0 m (3.6) show NC gr 
 gsave  2268 2218 0 0 C 186.325 656.683 t 0 r /Symbol findfont 72.7124 sf 0 0 m (-) show NC gr 
 gsave  2268 2218 0 0 C 227.226 961.166 t 0 r /Helvetica findfont 72.7124 sf 0 0 m (3.4) show NC gr 
 gsave  2268 2218 0 0 C 186.325 961.166 t 0 r /Symbol findfont 72.7124 sf 0 0 m (-) show NC gr 
 gsave  2268 2218 0 0 C 227.226 1267.92 t 0 r /Helvetica findfont 72.7124 sf 0 0 m (3.2) show NC gr 
 gsave  2268 2218 0 0 C 186.325 1267.92 t 0 r /Symbol findfont 72.7124 sf 0 0 m (-) show NC gr 
 gsave  2268 2218 0 0 C 288.577 1572.4 t 0 r /Helvetica findfont 72.7124 sf 0 0 m (3) show NC gr 
 gsave  2268 2218 0 0 C 247.676 1572.4 t 0 r /Symbol findfont 72.7124 sf 0 0 m (-) show NC gr 
 gsave  2268 2218 0 0 C 227.226 1876.89 t 0 r /Helvetica findfont 72.7124 sf 0 0 m (2.8) show NC gr 
 gsave  2268 2218 0 0 C 186.325 1876.89 t 0 r /Symbol findfont 72.7124 sf 0 0 m (-) show NC gr 
 gsave  2268 2218 0 0 C 140.88 1799.63 t 90 r /Helvetica findfont 72.7124 sf 0 0 m (ln\(1/s\)) show NC gr  1 1 1 c black /w 18 def /w2 {w 2 div} def /w3 {w 3 div} def 482 1847 812 1584 1247 1038 1899 370 4 { m2} R 1 0 0 c 6 lw 0.95 0.95 0.95 c black
 1 0 0 c 370 1996 m 13 -13 d s 383 1983 m 17 -18 d 17 -18 d 17 -18 d 17 -19 d 17 -18 d 17 -18 d 17 -18 d 17 -18 d 17 -18 d 17 -18 d 17 -18 d 17 -18 d 17 -19 d 17 -18 d 17 -18 d 17 -18 d 17 -18 d 17 -18 d 17 -18 d 17 -18 d 17 -19 d 17 -18 d 17 -18 d
 17 -18 d 17 -18 d 17 -18 d 17 -18 d 17 -18 d 17 -18 d 17 -19 d 17 -18 d 17 -18 d 17 -18 d 17 -18 d 17 -18 d 17 -18 d 17 -18 d 17 -18 d 17 -19 d 17 -18 d 17 -18 d 17 -18 d 17 -18 d 17 -18 d 17 -18 d 17 -18 d 17 -19 d 17 -18 d s 1199 1113 m 17 -18 d
 17 -18 d 17 -18 d 17 -18 d 17 -18 d 17 -18 d 17 -18 d 17 -19 d 17 -18 d 17 -18 d 17 -18 d 17 -18 d 17 -18 d 17 -18 d 17 -18 d 17 -18 d 17 -19 d 17 -18 d 17 -18 d 17 -18 d 17 -18 d 17 -18 d 17 -18 d 17 -18 d 17 -19 d 17 -18 d 17 -18 d 17 -18 d 17 -18
 d 17 -18 d 17 -18 d 17 -18 d 17 -18 d 17 -19 d 17 -18 d 17 -18 d 17 -18 d 17 -18 d 17 -18 d 17 -18 d 17 -18 d 17 -18 d 17 -19 d 17 -18 d 17 -18 d 17 -18 d 17 -18 d 17 -18 d 17 -18 d s black 3 lw 482 1847 m s 482 1842 m 9 Y s 482 1847 m s 482 1842 m
 9 Y s 482 1847 m 1 Y s 477 1848 m 10 X s 482 1847 m -1 Y s 477 1846 m 10 X s 812 1584 m s 812 1580 m 9 Y s 812 1584 m s 812 1580 m 9 Y s 812 1584 m 2 Y s 807 1586 m 9 X s 812 1584 m -1 Y s 807 1583 m 9 X s 1247 1038 m -1 X s 1246 1034 m 9 Y s 1247
 1038 m s 1247 1034 m 9 Y s 1247 1038 m 1 Y s 1242 1039 m 9 X s 1247 1038 m s 1242 1038 m 9 X s 1899 370 m s 1899 366 m 9 Y s 1899 370 m s 1899 366 m 9 Y s 1899 370 m 1 Y s 1895 371 m 9 X s 1899 370 m s 1895 370 m 9 X s 1 1 1 c 680 332 344 229 bf
 black 344 229 m 680 X s 1024 229 m 332 Y s 1024 561 m -680 X s 344 561 m -332 Y s
 gsave  2268 2218 0 0 C 513.531 440.819 t 0 r /Helvetica findfont 81.8014 sf 0 0 m (Error Bars) show NC gr  1 1 1 c 369 420 m 119 X 116 Y -119 X f black 369 478 m 119 X s 429 478 m2
 gsave  2268 2218 0 0 C 513.531 274.944 t 0 r /Helvetica findfont 81.8014 sf 0 0 m (Line Fit) show NC gr  0.95 0.95 0.95 c 369 254 m 119 X 116 Y -119 X cl s 1 0 0 c 6 lw 369 312 m 119 X s black 3 lw /w 2 def /w2 {w 2 div} def /w3 {w 3 div} def 429
 312 m20 6 lw 1 1 1 c black
 gsave  2268 2218 0 0 C 406.735 2117.75 t 0 r /Helvetica findfont 90.8904 sf 0 0 m (T vs. ln\(1/s\) for 2.0 kV, 11 squeezes) show NC gr 
 gr  gr showpage
end
%%EOF
